<svg version="1.1" id="Layer_1" xmlns="http://www.w3.org/2000/svg" xmlns:xlink="http://www.w3.org/1999/xlink" x="0px" y="0px"
	 viewBox="0 0 8 9" style="enable-background:new 0 0 8 9;" xml:space="preserve">
<path id="a" d="M8,4c0,0.4-0.3,0.7-0.7,0.7H0.7C0.3,4.7,0,4.4,0,4c0,0,0,0,0,0c0-0.4,0.3-0.7,0.7-0.7l0,0h6.6C7.7,3.3,8,3.6,8,4
	C8,4,8,4,8,4z"/>
</svg>
