<?xml version="1.0" standalone="no"?>
<!DOCTYPE svg PUBLIC "-//W3C//DTD SVG 1.1//EN" "http://www.w3.org/Graphics/SVG/1.1/DTD/svg11.dtd">
<svg xmlns="http://www.w3.org/2000/svg">
<metadata>Copyright (C) 2022 by original authors @ fontello.com</metadata>
<defs>
<font id="fa-custom" horiz-adv-x="1000" >
<font-face font-family="fa-custom" font-weight="400" font-stretch="normal" units-per-em="1000" ascent="850" descent="-150" />
<missing-glyph horiz-adv-x="1000" />
<glyph glyph-name="clock" unicode="&#xe800;" d="M464 685q-138 0-236-98t-98-237 98-237 236-97 237 97 98 237-98 237-237 98z m1 112q184 0 315-131t131-316-131-315-315-132-316 132-131 315 131 316 316 131z m151-518l-80-80-109 111q-19 17-19 41l0 223 113 0 0-199z" horiz-adv-x="928" />

<glyph glyph-name="ok" unicode="&#xe801;" d="M0 339q0-35 24-60l246-239q24-25 60-25 36 0 60 25l505 495q25 24 25 59t-25 58q-25 25-60 25t-60-25l-445-435-185 181q-25 24-60 24t-61-24q-24-24-24-59z" horiz-adv-x="920.4" />

<glyph glyph-name="pencil" unicode="&#xe802;" d="M718 680q32-32 47-64t15-48l0-16-252-252-290-288-238-52 50 240 290 288 252 252q54 12 126-60z m-494-640l24 24q-2 44-52 94-22 22-45 35t-35 13l-14 2-22-24-18-80q28-16 46-34 24-24 36-48z" horiz-adv-x="780" />

<glyph glyph-name="layout" unicode="&#xe803;" d="M170 650q80 0 80-80l0-90q0-80-80-80l-90 0q-80 0-80 80l0 90q0 80 80 80l90 0z m350 0q80 0 80-80l0-90q0-80-80-80l-90 0q-80 0-80 80l0 90q0 80 80 80l90 0z m-350-350q80 0 80-80l0-90q0-80-80-80l-90 0q-80 0-80 80l0 90q0 80 80 80l90 0z m350 0q80 0 80-80l0-90q0-80-80-80l-90 0q-80 0-80 80l0 90q0 80 80 80l90 0z" horiz-adv-x="600" />

<glyph glyph-name="gift" unicode="&#xe804;" d="M518 93v400h-179v-400q0-14 10-21t26-8h107q16 0 26 8t10 21z m-255 471h109l-70 90q-15 17-39 17-22 0-38-15t-15-38 15-38 38-16z m384 54q0 22-15 38t-38 15q-24 0-39-17l-69-90h108q22 0 38 16t15 38z m210-143v-179q0-7-5-12t-13-5h-53v-233q0-22-16-37t-38-16h-607q-22 0-38 16t-16 37v233h-53q-8 0-13 5t-5 12v179q0 8 5 13t13 5h245q-51 0-88 36t-37 89 37 88 88 37q60 0 94-43l72-92 71 92q34 43 94 43 52 0 88-37t37-88-37-89-88-36h245q8 0 13-5t5-13z" horiz-adv-x="857.1" />

<glyph glyph-name="ok-1" unicode="&#xe805;" d="M933 534q0-22-16-38l-404-404-76-76q-16-15-38-15t-38 15l-76 76-202 202q-15 16-15 38t15 38l76 76q16 16 38 16t38-16l164-165 366 367q16 16 38 16t38-16l76-76q16-15 16-38z" horiz-adv-x="1000" />

<glyph glyph-name="calendar" unicode="&#xe806;" d="M71-79h161v161h-161v-161z m197 0h178v161h-178v-161z m-197 197h161v178h-161v-178z m197 0h178v178h-178v-178z m-197 214h161v161h-161v-161z m411-411h179v161h-179v-161z m-214 411h178v161h-178v-161z m428-411h161v161h-161v-161z m-214 197h179v178h-179v-178z m-196 482v161q0 7-6 12t-12 6h-36q-7 0-12-6t-6-12v-161q0-7 6-13t12-5h36q7 0 12 5t6 13z m410-482h161v178h-161v-178z m-214 214h179v161h-179v-161z m214 0h161v161h-161v-161z m18 268v161q0 7-5 12t-13 6h-35q-7 0-13-6t-5-12v-161q0-7 5-13t13-5h35q8 0 13 5t5 13z m215 36v-715q0-29-22-50t-50-21h-786q-29 0-50 21t-21 50v715q0 29 21 50t50 21h72v54q0 37 26 63t63 26h36q37 0 63-26t26-63v-54h214v54q0 37 27 63t63 26h35q37 0 64-26t26-63v-54h71q29 0 50-21t22-50z" horiz-adv-x="928.6" />

<glyph glyph-name="right-open" unicode="&#xe807;" d="M618 361l-414-415q-11-10-25-10t-25 10l-93 93q-11 11-11 25t11 25l296 297-296 296q-11 11-11 25t11 25l93 93q10 11 25 11t25-11l414-414q10-11 10-25t-10-25z" horiz-adv-x="714.3" />

<glyph glyph-name="left-open" unicode="&#xe808;" d="M654 682l-297-296 297-297q10-10 10-25t-10-25l-93-93q-11-10-25-10t-25 10l-414 415q-11 10-11 25t11 25l414 414q10 11 25 11t25-11l93-93q10-10 10-25t-10-25z" horiz-adv-x="714.3" />

<glyph glyph-name="plus" unicode="&#xe809;" d="M786 439v-107q0-22-16-38t-38-15h-232v-233q0-22-16-37t-38-16h-107q-22 0-38 16t-15 37v233h-232q-23 0-38 15t-16 38v107q0 23 16 38t38 16h232v232q0 22 15 38t38 16h107q23 0 38-16t16-38v-232h232q23 0 38-16t16-38z" horiz-adv-x="785.7" />

<glyph glyph-name="minus" unicode="&#xe80a;" d="M786 439v-107q0-22-16-38t-38-15h-678q-23 0-38 15t-16 38v107q0 23 16 38t38 16h678q23 0 38-16t16-38z" horiz-adv-x="785.7" />

<glyph glyph-name="right" unicode="&#xe80b;" d="M350 680l380-330-380-330 0 192-350 0 0 278 350 0 0 190z" horiz-adv-x="730" />

<glyph glyph-name="user" unicode="&#xe80c;" d="M714 69q0-60-35-104t-84-44h-476q-49 0-84 44t-35 104q0 48 5 90t17 85 33 73 52 50 76 19q73-72 174-72t175 72q42 0 75-19t52-50 33-73 18-85 4-90z m-143 495q0-88-62-151t-152-63-151 63-63 151 63 152 151 63 152-63 62-152z" horiz-adv-x="714.3" />

<glyph glyph-name="power-off" unicode="&#xe80d;" d="M857 350q0-87-34-166t-91-137-137-92-166-34-167 34-136 92-92 137-34 166q0 102 45 191t126 151q24 18 54 14t46-28q18-23 14-53t-28-47q-54-41-84-101t-30-127q0-58 23-111t61-91 91-61 111-23 110 23 92 61 61 91 22 111q0 68-30 127t-84 101q-23 18-28 47t14 53q17 24 47 28t53-14q81-61 126-151t45-191z m-357 429v-358q0-29-21-50t-50-21-51 21-21 50v358q0 29 21 50t51 21 50-21 21-50z" horiz-adv-x="857.1" />

<glyph glyph-name="trash-o" unicode="&#xe80e;" d="M286 439v-321q0-8-5-13t-13-5h-36q-8 0-13 5t-5 13v321q0 8 5 13t13 5h36q8 0 13-5t5-13z m143 0v-321q0-8-5-13t-13-5h-36q-8 0-13 5t-5 13v321q0 8 5 13t13 5h36q8 0 13-5t5-13z m142 0v-321q0-8-5-13t-12-5h-36q-8 0-13 5t-5 13v321q0 8 5 13t13 5h36q7 0 12-5t5-13z m72-404v529h-500v-529q0-12 4-22t8-15 6-5h464q2 0 6 5t8 15 4 22z m-375 601h250l-27 65q-4 5-9 6h-177q-6-1-10-6z m518-18v-36q0-8-5-13t-13-5h-54v-529q0-46-26-80t-63-34h-464q-37 0-63 33t-27 79v531h-53q-8 0-13 5t-5 13v36q0 8 5 13t13 5h172l39 93q9 21 31 35t44 15h178q23 0 44-15t30-35l39-93h173q8 0 13-5t5-13z" horiz-adv-x="785.7" />

<glyph glyph-name="time" unicode="&#xe80f;" d="M500 546v-250q0-7-5-12t-13-5h-178q-8 0-13 5t-5 12v36q0 8 5 13t13 5h125v196q0 8 5 13t12 5h36q8 0 13-5t5-13z m232-196q0 83-41 152t-110 111-152 41-153-41-110-111-41-152 41-152 110-111 153-41 152 41 110 111 41 152z m125 0q0-117-57-215t-156-156-215-58-216 58-155 156-58 215 58 215 155 156 216 58 215-58 156-156 57-215z" horiz-adv-x="857.1" />

<glyph glyph-name="home" unicode="&#xe810;" d="M786 296v-267q0-15-11-25t-25-11h-214v214h-143v-214h-214q-15 0-25 11t-11 25v267q0 1 0 2t0 2l321 264 321-264q1-1 1-4z m124 39l-34-41q-5-5-12-6h-2q-7 0-12 3l-386 322-386-322q-7-4-13-3-7 1-12 6l-35 41q-4 6-3 13t6 12l401 334q18 15 42 15t43-15l136-113v108q0 8 5 13t13 5h107q8 0 13-5t5-13v-227l122-102q6-4 6-12t-4-13z" horiz-adv-x="928.6" />

<glyph glyph-name="bookmark" unicode="&#xe811;" d="M650 779q12 0 24-5 19-8 29-23t11-35v-719q0-19-11-35t-29-23q-10-4-24-4-27 0-47 18l-246 236-246-236q-20-19-46-19-13 0-25 5-18 7-29 23t-11 35v719q0 19 11 35t29 23q12 5 25 5h585z" horiz-adv-x="714.3" />

<glyph glyph-name="edit" unicode="&#xe812;" d="M496 189l64 65-85 85-64-65v-31h53v-54h32z m245 402q-9 9-18 0l-196-196q-9-9 0-18t18 0l196 196q9 9 0 18z m45-331v-106q0-67-47-114t-114-47h-464q-67 0-114 47t-47 114v464q0 66 47 113t114 48h464q35 0 65-14 9-4 10-13 2-10-5-16l-27-28q-8-8-18-4-13 3-25 3h-464q-37 0-63-26t-27-63v-464q0-37 27-63t63-27h464q37 0 63 27t26 63v70q0 7 5 12l36 36q8 8 20 4t11-16z m-54 411l161-160-375-375h-161v160z m248-73l-51-52-161 161 51 52q16 15 38 15t38-15l85-85q16-16 16-38t-16-38z" horiz-adv-x="1000" />

<glyph glyph-name="exclamation-triangle" unicode="&#xe813;" d="M571 83v106q0 8-5 13t-12 5h-108q-7 0-12-5t-5-13v-106q0-8 5-13t12-6h108q7 0 12 6t5 13z m-1 208l10 257q0 6-5 10-7 6-14 6h-122q-6 0-14-6-5-4-5-12l9-255q0-5 6-9t13-3h103q8 0 14 3t5 9z m-7 522l428-786q20-35-1-70-9-17-26-26t-35-10h-858q-18 0-35 10t-26 26q-21 35-1 70l429 786q9 17 26 27t36 10 36-10 27-27z" horiz-adv-x="1000" />

<glyph glyph-name="right-dir" unicode="&#xe814;" d="M321 350q0-14-10-25l-250-250q-11-11-25-11t-25 11-11 25v500q0 15 11 25t25 11 25-11l250-250q10-10 10-25z" horiz-adv-x="357.1" />

<glyph glyph-name="cancel" unicode="&#xe815;" d="M724 112q0-22-15-38l-76-76q-16-15-38-15t-38 15l-164 165-164-165q-16-15-38-15t-38 15l-76 76q-16 16-16 38t16 38l164 164-164 164q-16 16-16 38t16 38l76 76q16 16 38 16t38-16l164-164 164 164q16 16 38 16t38-16l76-76q15-15 15-38t-15-38l-164-164 164-164q15-15 15-38z" horiz-adv-x="785.7" />

<glyph glyph-name="left-dir" unicode="&#xe816;" d="M357 600v-500q0-14-10-25t-26-11-25 11l-250 250q-10 11-10 25t10 25l250 250q11 11 25 11t26-11 10-25z" horiz-adv-x="357.1" />

<glyph glyph-name="bolt" unicode="&#xe817;" d="M494 534q10-11 4-24l-302-646q-7-14-23-14-2 0-8 1-9 3-14 11t-3 16l110 451-226-56q-2-1-7-1-10 0-17 7-10 8-7 21l112 461q2 8 9 13t15 5h183q11 0 18-7t7-17q0-4-2-10l-96-258 221 54q5 2 7 2 11 0 19-9z" horiz-adv-x="500" />

<glyph glyph-name="book" unicode="&#xe818;" d="M915 583q22-31 10-72l-154-505q-10-36-42-60t-69-25h-515q-43 0-83 30t-55 74q-14 37-1 71 0 2 1 15t3 20q0 5-2 12t-2 11q1 6 5 12t9 13 9 13q13 21 25 51t17 51q2 6 0 17t0 16q2 6 9 15t10 13q12 20 23 51t14 51q1 5-1 17t0 16q2 7 12 17t13 13q10 14 23 47t16 54q0 4-2 14t-1 15q1 4 5 10t10 13 10 11q4 7 9 17t8 20 9 20 11 18 15 13 20 6 26-3l0-1q21 5 28 5h425q41 0 64-32t10-72l-153-506q-20-66-40-85t-72-20h-485q-15 0-21-8-6-9-1-24 14-39 81-39h515q16 0 31 9t20 23l167 550q4 13 3 32 21-8 33-24z m-594-1q-2-7 1-12t11-6h339q8 0 15 6t9 12l12 36q2 7-1 12t-12 6h-339q-7 0-14-6t-9-12z m-46-143q-3-7 1-12t11-6h339q7 0 14 6t10 12l11 36q3 7-1 13t-11 5h-339q-7 0-14-5t-10-13z" horiz-adv-x="928.6" />

<glyph glyph-name="question-circle" unicode="&#xe819;" d="M500 82v107q0 8-5 13t-13 5h-107q-8 0-13-5t-5-13v-107q0-8 5-13t13-5h107q8 0 13 5t5 13z m143 375q0 49-31 91t-77 65-95 23q-136 0-207-119-9-13 4-24l74-55q4-4 10-4 9 0 14 7 30 38 48 51 19 14 48 14 27 0 48-15t21-33q0-21-11-34t-38-25q-35-15-65-48t-29-70v-20q0-8 5-13t13-5h107q8 0 13 5t5 13q0 10 12 27t30 28q18 10 28 16t25 19 25 27 16 34 7 45z m214-107q0-117-57-215t-156-156-215-58-216 58-155 156-58 215 58 215 155 156 216 58 215-58 156-156 57-215z" horiz-adv-x="857.1" />

<glyph glyph-name="chevron-up" unicode="&#xe81a;" d="M939 107l-92-92q-11-10-26-10t-25 10l-296 297-296-297q-11-10-25-10t-25 10l-93 92q-11 11-11 26t11 25l414 414q11 10 25 10t25-10l414-414q11-11 11-25t-11-26z" horiz-adv-x="1000" />

<glyph glyph-name="italic" unicode="&#xe81b;" d="M0-78l10 48q12 4 34 9t40 11 33 13q16 19 23 56 1 4 35 162t63 303 29 165v14q-13 8-30 11t-39 4-32 3l10 58q19-1 67-4t84-4 67-1q27 0 55 1t68 4 54 4q-2-22-10-50-17-6-57-16t-60-19q-5-10-8-23t-5-23-4-25-4-24q-15-82-49-234t-43-198q-1-5-7-32t-11-51-9-46-4-32l1-10q9-3 103-18-2-24-9-55-6 0-18-1t-18-1q-16 0-49 6t-48 6q-77 1-115 1-28 0-79-5t-68-7z" horiz-adv-x="571.4" />

<glyph glyph-name="bold" unicode="&#xe81c;" d="M310 1q41-18 78-18 210 0 210 187 0 64-23 101-15 24-34 41t-38 26-45 14-47 6-53 1q-40 0-56-6 0-29 0-88t-1-88q0-5 0-38t0-54 2-47 7-37z m-8 417q23-4 61-4 46 0 80 7t61 25 42 50 14 79q0 39-16 68t-45 46-60 24-69 8q-28 0-73-7 0-28 3-84t2-85q0-15 0-45t-1-44q0-26 1-38z m-302-497l1 53q9 2 48 9t59 15q4 7 7 15t4 19 4 18 1 21 0 19v36q0 548-12 572-2 5-12 8t-25 6-28 4-27 3-17 2l-2 46q55 1 190 6t208 6q13 0 38-1t38 0q39 0 76-7t72-24 60-39 41-59 16-76q0-29-9-54t-22-40-36-32-41-25-47-22q86-20 144-75t57-138q0-56-20-101t-52-72-77-48-91-27-98-8q-25 0-74 2t-74 1q-59 0-171-6t-129-7z" horiz-adv-x="785.7" />

<glyph glyph-name="link" unicode="&#xe81d;" d="M813 171q0 23-16 38l-116 116q-16 16-38 16-24 0-40-18 1-1 10-10t12-12 9-11 7-14 2-15q0-23-16-38t-38-16q-8 0-15 2t-14 7-11 9-12 12-10 10q-19-17-19-40 0-23 16-38l115-116q15-15 38-15 22 0 38 15l82 81q16 16 16 37z m-393 394q0 22-15 38l-115 115q-16 16-38 16-22 0-38-15l-82-82q-16-15-16-37 0-22 16-38l116-116q15-15 38-15 23 0 40 17-2 2-11 11t-12 12-8 10-7 14-2 16q0 22 15 38t38 15q9 0 16-2t14-7 11-8 12-12 10-11q18 17 18 41z m500-394q0-66-48-113l-82-81q-46-47-113-47-68 0-114 48l-115 115q-46 47-46 114 0 68 49 116l-49 49q-48-49-116-49-67 0-114 47l-116 116q-47 47-47 114t47 113l82 82q47 46 114 46 67 0 114-47l115-116q46-46 46-113 0-69-49-117l49-49q48 49 116 49 67 0 114-47l116-116q47-47 47-114z" horiz-adv-x="928.6" />

<glyph glyph-name="photo" unicode="&#xe81e;" d="M357 529q0-45-31-76t-76-32-76 32-31 76 31 76 76 31 76-31 31-76z m572-215v-250h-786v107l178 179 90-89 285 285z m53 393h-893q-7 0-12-5t-6-13v-678q0-7 6-13t12-5h893q7 0 13 5t5 13v678q0 8-5 13t-13 5z m89-18v-678q0-37-26-63t-63-27h-893q-36 0-63 27t-26 63v678q0 37 26 63t63 27h893q37 0 63-27t26-63z" horiz-adv-x="1071.4" />

<glyph glyph-name="upload" unicode="&#xe81f;" d="M714 29q0 14-10 25t-25 10-25-10-11-25 11-25 25-11 25 11 10 25z m143 0q0 14-10 25t-26 10-25-10-10-25 10-25 25-11 26 11 10 25z m72 125v-179q0-22-16-38t-38-16h-821q-23 0-38 16t-16 38v179q0 22 16 38t38 15h238q12-31 39-51t62-20h143q34 0 61 20t40 51h238q22 0 38-15t16-38z m-182 361q-9-22-33-22h-143v-250q0-15-10-25t-25-11h-143q-15 0-25 11t-11 25v250h-143q-23 0-33 22-9 22 8 39l250 250q10 10 25 10t25-10l250-250q18-17 8-39z" horiz-adv-x="928.6" />

<glyph glyph-name="briefcase" unicode="&#xe820;" d="M357 707h286v72h-286v-72z m643-357v-268q0-37-26-63t-63-26h-822q-36 0-63 26t-26 63v268h375v-89q0-15 11-25t25-11h178q15 0 25 11t11 25v89h375z m-429 0v-71h-142v71h142z m429 268v-214h-1000v214q0 37 26 63t63 26h197v89q0 23 15 38t38 16h322q22 0 38-16t15-38v-89h197q37 0 63-26t26-63z" horiz-adv-x="1000" />

<glyph glyph-name="videocam" unicode="&#xe821;" d="M1000 654v-608q0-23-22-32-7-3-14-3-15 0-25 10l-225 225v-92q0-67-47-114t-113-47h-393q-67 0-114 47t-47 114v392q0 67 47 114t114 47h393q66 0 113-47t47-114v-92l225 225q10 10 25 10 7 0 14-2 22-10 22-33z" horiz-adv-x="1000" />

<glyph glyph-name="eye" unicode="&#xe822;" d="M929 314q-85 132-213 197 34-58 34-125 0-103-73-177t-177-73-177 73-73 177q0 67 34 125-128-65-213-197 75-114 187-182t242-68 243 68 186 182z m-402 215q0 11-8 19t-19 7q-70 0-120-50t-50-119q0-11 8-19t19-8 19 8 8 19q0 48 34 82t82 34q11 0 19 8t8 19z m473-215q0-19-11-38-78-129-210-206t-279-77-279 77-210 206q-11 19-11 38t11 39q78 128 210 205t279 78 279-78 210-205q11-20 11-39z" horiz-adv-x="1000" />

<glyph glyph-name="heart-empty" unicode="&#xe823;" d="M929 517q0 46-12 80t-31 55-46 33-52 18-55 4-62-14-62-36-48-40-34-34q-10-13-27-13t-27 13q-14 15-34 34t-48 40-62 36-62 14-55-4-52-18-46-33-31-55-12-80q0-93 105-198l324-312 324 312q105 105 105 198z m71 0q0-123-128-251l-347-335q-10-10-25-10t-25 10l-348 336q-5 5-15 15t-31 37-38 54-30 67-13 77q0 123 71 192t196 70q34 0 70-12t67-33 54-38 42-38q20 20 42 38t54 38 67 33 70 12q125 0 196-70t71-192z" horiz-adv-x="1000" />

<glyph glyph-name="chart-bar" unicode="&#xe824;" d="M357 350v-286h-143v286h143z m214 286v-572h-142v572h142z m572-643v-72h-1143v858h71v-786h1072z m-357 500v-429h-143v429h143z m214 214v-643h-143v643h143z" horiz-adv-x="1142.9" />

<glyph glyph-name="star" unicode="&#xe825;" d="M929 489q0-12-15-27l-202-197 48-279q0-4 0-12 0-11-6-19t-17-9q-10 0-22 7l-251 132-250-132q-12-7-23-7-11 0-17 9t-6 19q0 4 1 12l48 279-203 197q-14 15-14 27 0 21 31 26l280 40 126 254q11 23 27 23t28-23l125-254 280-40q32-5 32-26z" horiz-adv-x="928.6" />

<glyph glyph-name="location" unicode="&#xe826;" d="M429 493q0 59-42 101t-101 42-101-42-42-101 42-101 101-42 101 42 42 101z m142 0q0-61-18-100l-203-432q-9-18-27-29t-37-11-38 11-26 29l-204 432q-18 39-18 100 0 118 84 202t202 84 202-84 83-202z" horiz-adv-x="571.4" />

<glyph glyph-name="lightbulb" unicode="&#xe827;" d="M411 529q0-8-6-13t-12-5-13 5-5 13q0 25-30 39t-59 14q-7 0-13 5t-5 13 5 13 13 5q28 0 55-9t49-30 21-50z m89 0q0 40-19 74t-50 57-69 35-76 12-76-12-69-35-50-57-20-74q0-57 38-101 6-6 17-18t17-19q72-85 79-166h127q8 81 79 166 6 6 17 19t17 18q38 44 38 101z m71 0q0-87-57-150-25-27-42-48t-33-54-19-60q26-15 26-46 0-20-13-35 13-15 13-36 0-29-25-45 8-13 8-26 0-26-18-40t-43-14q-11-25-34-39t-48-15-49 15-33 39q-26 0-44 14t-17 40q0 13 7 26-25 16-25 45 0 21 14 36-14 15-14 35 0 31 26 46-2 28-19 60t-33 54-41 48q-58 63-58 150 0 55 25 103t65 79 92 49 104 19 104-19 91-49 66-79 24-103z" horiz-adv-x="571.4" />

<glyph glyph-name="ok-circled2" unicode="&#xe828;" d="M654 396l-236-235q-11-11-25-11t-25 11l-164 164q-11 11-11 25t11 25l57 57q10 11 25 11t25-11l82-82 153 154q11 10 25 10t26-10l57-57q10-11 10-26t-10-25z m78-46q0 83-41 152t-110 111-152 41-153-41-110-111-41-152 41-152 110-111 153-41 152 41 110 111 41 152z m125 0q0-117-57-215t-156-156-215-58-216 58-155 156-58 215 58 215 155 156 216 58 215-58 156-156 57-215z" horiz-adv-x="857.1" />

<glyph glyph-name="search" unicode="&#xe829;" d="M643 386q0 103-73 176t-177 74-177-74-73-176 73-177 177-73 177 73 73 177z m286-465q0-29-22-50t-50-21q-30 0-50 21l-191 191q-100-69-223-69-80 0-153 31t-125 84-84 125-31 153 31 152 84 126 125 84 153 31 153-31 125-84 84-126 31-152q0-123-69-223l191-191q21-21 21-51z" horiz-adv-x="928.6" />

<glyph glyph-name="pencil-1" unicode="&#xe82a;" d="M203-7l50 51-131 131-51-51v-60h72v-71h60z m291 518q0 12-12 12-5 0-9-4l-303-302q-4-4-4-10 0-12 13-12 5 0 9 4l303 302q3 4 3 10z m-30 107l232-232-464-465h-232v233z m381-54q0-29-20-50l-93-93-232 233 93 92q20 21 50 21 29 0 51-21l131-131q20-22 20-51z" horiz-adv-x="857.1" />

<glyph glyph-name="lock" unicode="&#xe82b;" d="M582 437v-356q0-32-32-32h-518q-32 0-32 32v356q0 10 3 17t7 10 12 5 13 2 16 0 14-1v127h1q9 87 74 141t153 53 151-62 71-152h1l2-107q4 0 15 1t15 0 13-2 12-5 6-10 3-17z m-161 162q0 51-37 74t-91 23q-53 0-92-25t-39-77v-124h259v129z" horiz-adv-x="582" />

<glyph glyph-name="bell-o" unicode="&#xe82c;" d="M509-96q0 8-9 8-33 0-57 24t-23 57q0 9-9 9t-9-9q0-41 29-70t69-28q9 0 9 9z m-372 160h726q-149 168-149 465 0 28-13 58t-39 58-67 45-95 17-95-17-67-45-39-58-13-58q0-297-149-465z m827 0q0-29-21-50t-50-21h-250q0-59-42-101t-101-42-101 42-42 101h-250q-29 0-50 21t-21 50q28 24 51 49t47 67 42 89 27 115 11 145q0 84 66 157t171 89q-5 10-5 21 0 23 16 38t38 16 38-16 16-38q0-11-5-21 106-16 171-89t66-157q0-78 11-145t28-115 41-89 48-67 50-49z" horiz-adv-x="1000" />

<glyph glyph-name="comments" unicode="&#xe82d;" d="M786 421q0-77-53-143t-143-104-197-38q-48 0-98 9-70-49-155-72-21-5-48-9h-2q-6 0-12 5t-6 12q-1 1-1 3t1 4 1 3l1 3t2 3 2 3 3 3 2 2q3 3 13 14t15 16 12 17 14 21 11 25q-69 40-108 98t-40 125q0 78 53 144t143 104 197 38 197-38 143-104 53-144z m214-142q0-67-40-126t-108-98q5-14 11-25t14-21 13-16 14-17 13-14q0 0 2-2t3-3 2-3 2-3l1-3t1-3 1-4-1-3q-2-8-7-13t-12-4q-28 4-48 9-86 23-156 72-50-9-98-9-151 0-263 74 32-3 49-3 90 0 172 25t148 72q69 52 107 119t37 141q0 43-13 85 72-39 114-99t42-128z" horiz-adv-x="1000" />

<glyph glyph-name="trophy" unicode="&#xe82e;" d="M256 357q-42 91-42 207h-143v-53q0-44 53-91t132-63z m601 154v53h-143q0-116-41-207 79 16 131 63t53 91z m72 71v-71q0-40-24-80t-62-73-97-54-120-25q-23-30-53-53-21-19-29-40t-8-50q0-30 17-51t54-21q42 0 75-25t32-64v-36q0-8-5-13t-13-5h-464q-8 0-13 5t-5 13v36q0 39 33 64t74 25q38 0 55 21t17 51q0 28-8 50t-29 40q-30 23-53 53-64 3-121 25t-96 54-63 73-23 80v71q0 23 16 38t38 16h160v53q0 37 27 63t63 27h321q37 0 63-27t26-63v-53h161q22 0 38-16t16-38z" horiz-adv-x="928.6" />

<glyph glyph-name="home-1" unicode="&#xe82f;" d="M888 336q16-16 11-27t-27-11l-84 0 0-310q0-14-1-21t-8-13-23-6l-204 0 0 310-204 0 0-310-194 0q-28 0-35 10t-7 30l0 310-84 0q-22 0-27 11t11 27l400 402q16 16 38 16t38-16z" horiz-adv-x="900" />

<glyph glyph-name="cog" unicode="&#xe830;" d="M911 295l-133-56q-8-22-12-31l55-133-79-79-135 53q-9-4-31-12l-55-134-112 0-56 133q-11 4-33 13l-132-55-78 79 53 134q-1 3-4 9t-6 12-4 11l-131 55 0 112 131 56 14 33-54 132 78 79 133-54q22 9 33 13l55 132 112 0 56-132q14-5 31-13l133 55 80-79-54-135q6-12 12-30l133-56 0-112z m-447-111q69 0 118 48t49 118-49 119-118 50-119-50-49-119 49-118 119-48z" horiz-adv-x="928" />

<glyph glyph-name="print" unicode="&#xe831;" d="M214-7h500v143h-500v-143z m0 357h500v214h-89q-22 0-38 16t-16 38v89h-357v-357z m643-36q0 15-10 25t-26 11-25-11-10-25 10-25 25-10 26 10 10 25z m72 0v-232q0-7-6-12t-12-6h-125v-89q0-22-16-38t-38-16h-536q-22 0-37 16t-16 38v89h-125q-7 0-13 6t-5 12v232q0 44 32 76t75 31h36v304q0 22 16 38t37 16h375q23 0 50-12t42-26l85-85q15-16 27-43t11-49v-143h35q45 0 76-31t32-76z" horiz-adv-x="928.6" />

<glyph glyph-name="ok-squared-1" unicode="&#xe832;" d="M382 125l343 343q11 10 11 25t-11 25l-57 57q-11 11-25 11t-25-11l-261-261-118 118q-10 11-25 11t-25-11l-57-57q-10-10-10-25t10-25l200-200q11-10 25-10t25 10z m475 493v-536q0-66-47-113t-114-48h-535q-67 0-114 48t-47 113v536q0 66 47 113t114 48h535q67 0 114-48t47-113z" horiz-adv-x="857.1" />

<glyph glyph-name="download" unicode="&#xe833;" d="M714 100q0 15-10 25t-25 11-25-11-11-25 11-25 25-11 25 11 10 25z m143 0q0 15-10 25t-26 11-25-11-10-25 10-25 25-11 26 11 10 25z m72 125v-179q0-22-16-37t-38-16h-821q-23 0-38 16t-16 37v179q0 22 16 38t38 16h259l75-76q33-32 76-32t76 32l76 76h259q22 0 38-16t16-38z m-182 318q10-23-8-39l-250-250q-10-11-25-11t-25 11l-250 250q-17 16-8 39 10 21 33 21h143v250q0 15 11 25t25 11h143q14 0 25-11t10-25v-250h143q24 0 33-21z" horiz-adv-x="928.6" />

<glyph glyph-name="arrows-cw" unicode="&#xe834;" d="M843 261q0-3 0-4-36-150-150-243t-267-93q-81 0-157 31t-136 88l-72-72q-11-11-25-11t-25 11-11 25v250q0 14 11 25t25 11h250q14 0 25-11t10-25-10-25l-77-77q40-36 90-57t105-20q74 0 139 37t104 99q6 10 30 66 4 13 16 13h107q8 0 13-6t5-12z m14 446v-250q0-14-10-25t-26-11h-250q-14 0-25 11t-10 25 10 25l77 77q-82 77-194 77-75 0-140-37t-104-99q-6-10-29-66-5-13-17-13h-111q-7 0-13 6t-5 12v4q36 150 151 243t268 93q81 0 158-31t137-88l72 72q11 11 25 11t26-11 10-25z" horiz-adv-x="857.1" />

<glyph glyph-name="comment" unicode="&#xe835;" d="M700 700q42 0 71-29t29-71l0-350q0-40-29-70t-71-30l-200 0 0-150-200 150-200 0q-40 0-70 30t-30 70l0 350q0 42 30 71t70 29l600 0z" horiz-adv-x="800" />

<glyph glyph-name="pin" unicode="&#xe836;" d="M573 37q0-23-15-38t-37-15q-21 0-37 16l-169 169-315-236 236 315-168 169q-24 23-12 56 14 32 48 32 157 0 270 57 90 45 151 171 9 24 36 32t50-13l208-209q21-23 14-50t-32-36q-127-63-172-152-56-110-56-268z" horiz-adv-x="834" />

<glyph glyph-name="dollar" unicode="&#xe837;" d="M546 189q0-86-56-147t-144-77v-97q0-8-5-13t-13-5h-75q-7 0-13 5t-5 13v97q-37 5-71 18t-57 25-41 26-26 21-10 10q-9 12-1 23l58 76q3 5 12 6 9 1 14-5l1-1q63-55 135-70 21-4 42-4 45 0 79 24t35 68q0 16-9 30t-18 23-33 21-37 18-45 18q-21 9-34 14t-34 15-35 17-32 20-29 24-25 27-20 32-11 37-5 44q0 77 55 135t142 75v100q0 7 5 13t13 5h75q8 0 13-5t5-13v-98q32-3 62-13t48-19 36-20 21-17 9-7q9-11 3-22l-46-81q-4-9-12-9-8-2-15 4-2 2-9 7t-21 14-33 18-42 15-47 6q-53 0-87-24t-33-62q0-14 4-27t17-23 22-18 31-18 34-15 39-15q30-11 45-17t43-20 42-24 34-28 30-35 18-43 7-52z" horiz-adv-x="571.4" />

<glyph glyph-name="info-circled" unicode="&#xe838;" d="M571 82v89q0 8-5 13t-12 5h-54v286q0 8-5 13t-13 5h-178q-8 0-13-5t-5-13v-89q0-8 5-13t13-5h53v-179h-53q-8 0-13-5t-5-13v-89q0-8 5-13t13-5h250q7 0 12 5t5 13z m-71 500v89q0 8-5 13t-13 5h-107q-8 0-13-5t-5-13v-89q0-8 5-13t13-5h107q8 0 13 5t5 13z m357-232q0-117-57-215t-156-156-215-58-216 58-155 156-58 215 58 215 155 156 216 58 215-58 156-156 57-215z" horiz-adv-x="857.1" />

<glyph glyph-name="home-2" unicode="&#xe839;" d="M521 819q322-279 500-429 20-16 20-40 0-21-15-37t-36-15l-105 0 0-364q0-21-15-37t-36-16l-156 0q-22 0-37 16t-16 37l0 208-209 0 0-208q0-21-15-37t-36-16l-156 0q-21 0-37 16t-16 37l0 364-103 0q-22 0-37 15t-16 37 19 40z" horiz-adv-x="1041" />

<glyph glyph-name="gauge" unicode="&#xe83a;" d="M0 188q0 207 147 354t353 146 354-146 146-354q0-92-31-176l-137 0q43 82 43 176 0 154-109 265t-266 110-266-110-109-265q0-94 43-176l-137 0q-31 84-31 176z m250 180q0 25 19 44t44 18 43-18 19-44-19-44-43-19-44 19-19 44z m188 60q0 26 18 44t44 19 44-19 19-44-19-44-44-18-44 18-18 44z m13-416l0 49 49 246 49-246 0-49-98 0z m174 356q0 25 19 44t44 18 43-18 19-44-19-44-43-19-44 19-19 44z" horiz-adv-x="1000" />

<glyph glyph-name="bananas" unicode="&#xe84d;" d="M799 810c-13-2-27-16-31-40l-16-98-1 0c0 0 0 0 0 0l0 0c-2-1-4-1-7-3-20-10-30-29-41-47-4-6-7-13-12-19-14-21-30-42-47-60-4-5-7-8-10-12-48-49-106-85-171-108-94-33-201-33-300 1-6 2-13 4-19 6-7 3-15 6-24 9-16 6-36 11-55 11-12 0-24-2-34-8-9-5-16-12-21-22-21-38-5-69 16-96 19-25 40-48 64-66 45-36 96-63 150-81 44-15 89-23 134-26 41 1 82 7 120 19 41 12 78 30 112 53 51 36 92 81 122 135 2 4 4 8 6 12 11 21 20 44 28 66 2 5 4 12 5 19 5 19 12 44 30 66l-8 78c-2 15 0 32 6 46 7 20 21 36 38 44 6 3 12 4 18 4 1 0 1 0 1 0 2 0 10 0 21-1 4 27 9 57 10 60-11 35-81 57-84 58z m52-159c-16-8-21-31-20-47l11-99c0 0 0 0-1 0l0 0c-1-1-3-3-5-5-17-15-22-36-28-56-1-7-3-15-6-22-8-24-18-48-29-71-3-5-5-9-7-13-13-24-28-46-45-66-1-1-2-2-2-3-1 0-2-1-3-2-25-30-53-56-86-79-75-52-167-79-261-79-10 0-19 0-28 0-7 1-13 1-20 2-7 1-16 1-26 2-5 0-11 1-17 1-24 0-52-4-70-22-7-7-12-16-14-27-11-42 13-68 41-89 25-20 51-35 79-47 53-22 109-35 167-38 10-1 19-1 29-1 113 0 221 38 307 107 138 112 205 289 176 463-3 21-15 39-33 51 0 0-11 101-11 105-15 24-58 31-82 34 0 0 0 0 0 0-1 0-1 0-1 0-9 1-15 1-15 1z" horiz-adv-x="1000" />

<glyph glyph-name="poo" unicode="&#xe84e;" d="M833 183h-666c-92 0-167-75-167-166s75-167 167-167h666c92 0 167 75 167 167s-75 166-167 166z m-170 250h-330c-91 0-166-75-166-166 0-13 4-29 4-42h654c4 13 4 29 4 42 0 91-75 166-166 166z m8 130c-33 129-188 195-196 200-33 12-71-25-54-59 17-41 0-91-33-116-34-30-50-71-50-113h333c8 29 8 58 0 88z" horiz-adv-x="1000" />

<glyph glyph-name="question-bubble" unicode="&#xe860;" d="M1006 532c0 22-4 45-10 67-39 152-166 251-322 251-113 0-225 0-338 0-32 0-64-5-95-13-131-38-228-156-239-292-3-39-2-79-2-118 0-49 10-97 32-141 56-112 147-175 272-189 18-2 37-2 56-3 0-42 0-83 0-124 0-38-7-84 2-120 9 6 18 13 27 20 38 31 78 61 110 98 33 38 54 83 88 119 5 6 9 8 17 8 22 0 44 0 66 0 68 0 131 18 188 56 87 58 138 140 147 245 4 45 2 91 1 136z m-503-329c-29 0-54 25-54 54 1 29 26 54 56 54 29-1 53-26 53-55-1-29-26-54-55-53z m197 375c-4-52-32-89-79-110-10-5-20-10-29-15-28-15-51-35-52-70-24 0-48 0-71 0-11 45 9 103 49 130 16 11 35 19 52 29 13 8 25 16 28 32 7 29-4 52-33 60-54 16-105 7-150-29-9-8-18-16-27-25-21 26-43 51-65 77 36 37 77 64 126 77 60 14 119 12 175-14 61-27 81-84 76-142z" horiz-adv-x="1007" />

<glyph glyph-name="clock-solid" unicode="&#xe861;" d="M500 834c-268 0-484-216-484-484s216-484 484-484 484 216 484 484-216 484-484 484z m112-683l-173 125c-6 4-9 11-9 19v328c0 13 10 24 23 24h94c13 0 23-11 23-24v-268l124-91c11-7 13-22 5-33l-55-75c-7-11-22-13-32-5z" horiz-adv-x="1000" />

<glyph glyph-name="radiowaves-icon" unicode="&#xe864;" d="M340-81c-1 3-5 13-43 43l0 0c-78 61-136 140-167 229-18 53-23 82-25 146-1 49 0 61 5 92 12 69 38 135 78 195 23 35 80 94 116 120l0 0c7 5 30 23 36 36l0 0 0 2c8 20 1 42-16 56l0 1c-32 24-61 4-86-15l0 0c-18-13-48-40-68-60-55-56-92-111-122-181-56-131-63-279-19-416 14-43 54-124 80-159 23-33 58-71 93-103 61-55 82-55 90-55 17 0 32 8 42 22 9 14 12 31 6 46l0 1z m841 450c-2 64-14 127-36 187-23 61-55 118-97 168-24 31-73 77-106 102-27 20-54 36-85 12-15-12-18-25-16-42 1-25 10-31 37-53l0 0c34-25 51-41 77-69 63-71 105-160 119-256 4-31 4-102 0-133-8-54-30-123-55-167-32-58-80-113-135-156-33-26-42-33-43-57-2-17 2-28 13-40 11-11 23-15 34-15 18 0 34 11 42 16 48 32 104 88 142 141 38 53 66 112 85 174 18 61 27 125 24 188z m-755-219c-45 35-78 89-90 148-5 25-5 79 0 104 12 58 46 114 88 147 32 25 44 35 44 61 0 29-21 50-50 50-16 0-29-7-44-18-70-51-119-128-139-217-9-39-8-118 1-156 17-67 44-118 89-165 40-42 71-64 92-64 29 0 51 21 51 50 0 25-12 36-42 60z m420-59c28 29 54 64 70 95 24 48 37 103 38 158s-10 110-33 159c-26 54-62 100-106 134l0 0c-17 12-57 42-88 9-6-7-14-18-14-37 0-25 12-35 44-59l0-1c19-14 42-41 57-66 48-80 48-187 0-266-16-26-41-54-64-72-29-22-32-29-34-34-6-17-4-35 6-49 9-14 25-22 41-22 22 0 49 17 83 51z m-251 382c68 0 123-55 123-123s-55-124-123-124-124 55-124 124c0 34 14 65 36 87 22 23 53 36 88 36z" horiz-adv-x="1181" />

<glyph glyph-name="question-bubble-1" unicode="&#xe865;" d="M1006 532c0 22-4 45-10 67-39 152-166 251-322 251-113 0-225 0-338 0-32 0-64-5-95-13-131-38-228-156-239-292-3-39-2-79-2-118 0-49 10-97 32-141 56-112 147-175 272-189 18-2 37-2 56-3 0-42 0-83 0-124 0-38-7-84 2-120 9 6 18 13 27 20 38 31 78 61 110 98 33 38 54 83 88 119 5 6 9 8 17 8 22 0 44 0 66 0 68 0 131 18 188 56 87 58 138 140 147 245 4 45 2 91 1 136z m-503-329c-29 0-54 25-54 54 1 29 26 54 56 54 29-1 53-26 53-55-1-29-26-54-55-53z m197 375c-4-52-32-89-79-110-10-5-20-10-29-15-28-15-51-35-52-70-24 0-48 0-71 0-11 45 9 103 49 130 16 11 35 19 52 29 13 8 25 16 28 32 7 29-4 52-33 60-54 16-105 7-150-29-9-8-18-16-27-25-21 26-43 51-65 77 36 37 77 64 126 77 60 14 119 12 175-14 61-27 81-84 76-142z" horiz-adv-x="1007" />

<glyph glyph-name="clock-solid-1" unicode="&#xe866;" d="M500 834c-268 0-484-216-484-484s216-484 484-484 484 216 484 484-216 484-484 484z m112-683l-173 125c-6 4-9 11-9 19v328c0 13 10 24 23 24h94c13 0 23-11 23-24v-268l124-91c11-7 13-22 5-33l-55-75c-7-11-22-13-32-5z" horiz-adv-x="1000" />

<glyph glyph-name="round-quote" unicode="&#xe86c;" d="M517 633c-90-53-142-109-171-161l0 0c143-13 255-131 255-274 0-154-126-278-280-278-154 0-279 124-279 278 0 343 254 508 405 575 53 23 111-16 111-72 0-27-16-53-41-68z m692 0c-90-53-142-109-171-161l0 0c142-13 254-131 254-275 0-153-124-277-279-277-155 0-280 124-280 278 0 343 253 508 406 575 53 23 111-16 111-72 0-27-16-53-41-68z" horiz-adv-x="1333" />

<glyph glyph-name="round-chat" unicode="&#xe86d;" d="M772 819h-401c-167 0-302-133-302-296v-181c0-163 135-296 302-296h29c117 0 227-45 309-126l32-31c5-5 12-8 20-8 15 0 28 13 28 28v137c159 9 285 138 285 296v181c0 163-135 296-302 296z" horiz-adv-x="1143" />

<glyph glyph-name="file-circle-check-solid" unicode="&#xe86e;" d="M0 725c0 69 56 125 125 125h313v-250c0-35 27-62 62-62h250v-76c-144-41-250-173-250-331 0-115 57-217 144-280-6 0-13-1-19-1h-500c-69 0-125 56-125 125v750z m500-125v250l250-250h-250z m625-469c0-155-126-281-281-281-155 0-281 126-281 281 0 156 126 282 281 282 155 0 281-126 281-282z m-194 85l-118-119-57 56c-12 13-32 13-44 0-12-12-12-32 0-44l78-78c13-12 33-12 45 0l140 141c13 12 13 32 0 44-12 12-32 12-44 0h0z" horiz-adv-x="1125" />

<glyph glyph-name="map-solid" unicode="&#xe86f;" d="M750-80l-375 107v753l375-107v-753z m63 757l248 100c31 12 64-11 64-44v-654c0-19-12-36-29-43l-283-113v754z m-783-13l283 113v-754l-249-100c-30-12-64 11-64 44v654c0 19 12 36 30 43v0z" horiz-adv-x="1125" />

<glyph glyph-name="people-group-solid" unicode="&#xe870;" d="M359 678c0-60-49-109-109-109-60 0-109 49-109 109 0 61 49 110 109 110 60 0 109-49 109-110z m48-211c-58-52-94-127-94-211 0-67 21-128 62-176v-42c0-35-28-63-62-63h-125c-35 0-63 28-63 63v52c-74 35-125 110-125 198 0 120 98 218 219 218h62c45 0 91-14 126-39v0z m-282-97c-19-22-31-51-31-82 0-32 12-61 31-83v165z m750-332v42c39 48 63 109 63 176 0 84-37 159-95 211 36 25 79 39 126 39h62c121 0 219-98 219-218 0-88-51-163-125-198v-52c0-35-28-63-62-63h-125c-35 0-63 28-63 63z m250 167c18 22 31 51 31 83 0 31-13 60-31 82v-165z m-16 473c0-60-49-109-109-109-60 0-109 49-109 109 0 61 49 110 109 110 60 0 109-49 109-110z m-609-15c0 69 56 125 125 125 69 0 125-56 125-125 0-69-56-125-125-125-69 0-125 56-125 125z m375-407c0-87-51-162-125-197v-84c0-35-28-63-62-63h-125c-35 0-63 28-63 63v84c-74 35-125 110-125 197 0 121 98 219 219 219h62c121 0 219-98 219-219z m-375-82v165c-19-22-31-51-31-83 0-31 12-60 31-82z m250 165v-165c18 22 31 51 31 82 0 32-13 61-31 83z" horiz-adv-x="1250" />

<glyph glyph-name="book-open-reader-solid" unicode="&#xe871;" d="M0 422v-415c0-28 23-51 52-53 95-5 300-25 417-104v521c-115 78-313 99-411 104-31 2-58-23-58-53z m942 53c-98-6-296-26-409-104-2 0-2 0-2 0v-521c118 79 322 99 417 104 29 2 52 25 52 53v415c0 30-27 55-58 53z m-254 188c0 103-84 187-188 187s-187-84-187-187 84-188 187-188 188 84 188 188z" horiz-adv-x="1000" />

<glyph glyph-name="screwdriver-wrench-solid" unicode="&#xe872;" d="M648 412c55 0 107-21 146-60l39-38c78 34 139 104 159 188 11 47 10 92 0 134-5 21-32 28-47 13l-135-135h-147v146l134 135c16 15 9 42-13 47-41 10-87 11-133 0-108-26-192-118-210-227-2-17-3-33-3-48l162-162c16 5 32 7 48 7z m102-106c-45 45-112 54-167 27l-210 208 0 122-248 187-125-123 188-248 121 0 208-209c-27-54-18-121 27-166l229-229c28-29 74-29 103 0l103 103c28 28 28 74 0 103l-229 225z m-305-56l-115 116-291-291c-52-51-52-135 0-186 25-26 59-39 93-39s67 13 93 39l233 232c-18 41-23 86-13 129z m-320-322c-26 0-47 21-47 47 0 26 21 47 47 47s47-21 47-47c0-26-21-47-47-47z" horiz-adv-x="1000" />

<glyph glyph-name="file-excel-solid" unicode="&#xe878;" d="M438 600l0 250h-344c-52 0-94-42-94-94v-812c0-52 42-94 94-94h562c52 0 94 42 94 94v594h-248c-37 0-64 27-64 62z m93-266l-93-156 95-155c13-21-2-48-26-48h-52c-11 0-21 6-27 15l-53 87-53-87c-6-9-16-15-27-15h-52c-24 0-39 27-26 48l96 155-96 156c-13 21 2 47 26 47h52c11 0 21-5 27-15l53-86 53 86c6 10 16 15 27 15h52c24 0 39-26 24-47z m-31 516v-250h250l-250 250z" horiz-adv-x="750" />

<glyph glyph-name="table-solid" unicode="&#xe879;" d="M875 788c69 0 125-56 125-125v-625c0-69-56-126-125-126h-750c-69 0-125 57-125 126v625c0 69 56 125 125 125h750z m-437-438v188h-313v-188h313z m-313-125v-187h313v187h-313z m438-187h312v187h-312v-187z m312 312v188h-312v-188h312z" horiz-adv-x="1000" />

<glyph glyph-name="monkey" unicode="&#xe87a;" d="M602 169c-3-33-12-59-44-61-35-1-47 26-46 57 0 29 12 54 44 54 33 0 41-28 46-50z m-47 116c-21 14-60-16-63 21-3 33 30 49 63 49 33 1 67-14 66-47-3-45-46-6-66-23z m-115 185c30-5 47-19 47-44 1-29-17-47-45-46-25 0-42 16-43 42-1 29 18 42 41 48z m275-41c-3-31-17-49-46-49-25 0-43 16-44 41-1 29 16 46 45 47 27 1 38-18 45-39z m348-31c-40 21-47 50-52 86-16 110-67 200-158 266-95 68-235 98-368 78-80-10-155-38-213-79-91-66-142-156-157-266-6-37-12-65-53-86-50-25-69-76-60-133 9-56 55-108 111-112 41-2 54-23 71-53 83-145 203-240 376-239 16 0 32 1 47 3 151 13 258 104 334 238 15 26 28 46 61 51 3 1 7 1 10 2 0 0 0 0 0 0 56 3 102 56 111 111 9 57-10 108-60 133z m-69-174c6 39 12 75 18 115 46-44 41-82-18-115z m-419-202c-128-4-228 98-227 236 9 28-5 51-28 75-57 62-55 154 2 215 27 30 62 48 98 53 36 2 73-9 105-34 17-14 28-18 40-14 11-1 21 3 36 15 22 18 48 29 74 32 47 3 94-15 129-53 56-62 59-154 1-215-23-25-37-47-28-76 2-124-80-219-191-234-4 0-7 0-11 0z m-444 204c-59 32-64 70-18 114 6-40 12-76 18-114z" horiz-adv-x="1125" />

<glyph glyph-name="copy-solid" unicode="&#xe87b;" d="M750 663l0 187h-219c-51 0-93-42-93-94v-562c0-52 42-94 93-94h375c52 0 94 42 94 94v406h-186c-36 0-64 28-64 63z m63 187v-187h187l-187 187z m-438-687v437h-281c-52 0-94-42-94-94v-562c0-52 42-94 94-94h375c52 0 94 42 94 94l0 94h-63c-69 0-125 56-125 125z" horiz-adv-x="1000" />

<glyph glyph-name="tag" unicode="&#xf02b;" d="M250 600q0 30-21 51t-50 20-51-20-21-51 21-50 51-21 50 21 21 50z m595-321q0-30-20-51l-274-274q-22-21-51-21-30 0-50 21l-399 399q-21 21-36 57t-15 65v232q0 29 21 50t50 22h233q29 0 65-15t57-36l399-399q20-21 20-50z" horiz-adv-x="857.1" />

<glyph glyph-name="chevron-down" unicode="&#xf078;" d="M939 399l-414-413q-10-11-25-11t-25 11l-414 413q-11 11-11 26t11 25l93 92q10 11 25 11t25-11l296-296 296 296q11 11 25 11t26-11l92-92q11-11 11-25t-11-26z" horiz-adv-x="1000" />

<glyph glyph-name="link-ext" unicode="&#xf08e;" d="M786 332v-178q0-67-47-114t-114-47h-464q-67 0-114 47t-47 114v464q0 66 47 113t114 48h393q7 0 12-5t5-13v-36q0-8-5-13t-12-5h-393q-37 0-63-26t-27-63v-464q0-37 27-63t63-27h464q37 0 63 27t26 63v178q0 8 5 13t13 5h36q8 0 13-5t5-13z m214 482v-285q0-15-11-25t-25-11-25 11l-98 98-364-364q-5-6-13-6t-12 6l-64 64q-6 5-6 12t6 13l364 364-98 98q-11 11-11 25t11 25 25 11h285q15 0 25-11t11-25z" horiz-adv-x="1000" />

<glyph glyph-name="bookmark-empty" unicode="&#xf097;" d="M643 707h-572v-693l237 227 49 47 50-47 236-227v693z m7 72q12 0 24-5 19-8 29-23t11-35v-719q0-19-11-35t-29-23q-10-4-24-4-27 0-47 18l-246 236-246-236q-20-19-46-19-13 0-25 5-18 7-29 23t-11 35v719q0 19 11 35t29 23q12 5 25 5h585z" horiz-adv-x="714.3" />

<glyph glyph-name="twitter" unicode="&#xf099;" d="M904 622q-37-54-90-93 0-8 0-23 0-73-21-145t-64-139-103-117-144-82-181-30q-151 0-276 81 19-2 43-2 126 0 224 77-59 1-105 36t-64 89q19-3 34-3 24 0 48 6-63 13-104 62t-41 115v2q38-21 82-23-37 25-59 64t-22 86q0 49 25 91 68-83 164-133t208-55q-5 21-5 41 0 75 53 127t127 53q79 0 132-57 61 12 115 44-21-64-80-100 52 6 104 28z" horiz-adv-x="928.6" />

<glyph glyph-name="facebook" unicode="&#xf09a;" d="M535 843v-147h-87q-48 0-65-20t-17-60v-106h164l-22-165h-142v-424h-171v424h-142v165h142v122q0 104 58 161t155 57q82 0 127-7z" horiz-adv-x="571.4" />

<glyph glyph-name="rss" unicode="&#xf09e;" d="M214 100q0-45-31-76t-76-31-76 31-31 76 31 76 76 31 76-31 31-76z m286-69q1-15-9-26-10-12-27-12h-75q-14 0-24 9t-11 23q-12 128-103 219t-219 103q-14 1-23 11t-9 24v75q0 16 12 26 9 10 24 10h3q89-7 170-45t145-101q63-63 101-145t45-171z m286-1q1-15-10-26-10-11-26-11h-80q-14 0-25 10t-10 23q-7 120-57 228t-129 188-188 129-227 57q-14 1-24 11t-10 24v80q0 16 11 26 10 10 25 10h1q147-8 280-67t238-164q104-104 164-238t67-280z" horiz-adv-x="785.7" />

<glyph glyph-name="certificate" unicode="&#xf0a3;" d="M768 350l77-75q17-16 11-39-7-23-29-29l-105-27 30-103q6-23-11-39-16-18-39-11l-104 30-27-105q-5-23-28-30-7-1-11-1-17 0-28 13l-75 77-76-77q-15-17-39-12-23 7-28 30l-27 105-104-30q-23-7-39 11-17 16-10 39l29 103-105 27q-22 6-29 29-6 23 11 39l77 75-77 75q-17 16-11 39 7 23 29 29l105 27-29 103q-7 23 10 40 16 17 39 10l104-29 27 104q5 23 28 29 23 7 39-11l76-77 75 77q16 17 39 11 23-6 28-29l27-104 104 29q23 7 39-10 17-17 11-40l-30-103 105-27q22-6 29-29 6-23-11-39z" horiz-adv-x="857.1" />

<glyph glyph-name="filter" unicode="&#xf0b0;" d="M783 685q9-22-8-39l-275-275v-414q0-23-22-33-7-3-14-3-15 0-25 11l-143 143q-10 11-10 25v271l-275 275q-18 17-8 39 9 22 33 22h714q23 0 33-22z" horiz-adv-x="785.7" />

<glyph glyph-name="bars" unicode="&#xf0c9;" d="M857 100v-71q0-15-10-25t-26-11h-785q-15 0-25 11t-11 25v71q0 15 11 25t25 11h785q15 0 26-11t10-25z m0 286v-72q0-14-10-25t-26-10h-785q-15 0-25 10t-11 25v72q0 14 11 25t25 10h785q15 0 26-10t10-25z m0 285v-71q0-14-10-25t-26-11h-785q-15 0-25 11t-11 25v71q0 15 11 26t25 10h785q15 0 26-10t10-26z" horiz-adv-x="857.1" />

<glyph glyph-name="list-ul" unicode="&#xf0ca;" d="M214 64q0-44-31-76t-76-31-76 31-31 76 31 76 76 31 76-31 31-76z m0 286q0-45-31-76t-76-31-76 31-31 76 31 76 76 31 76-31 31-76z m786-232v-107q0-7-5-13t-13-5h-678q-8 0-13 5t-5 13v107q0 7 5 12t13 6h678q7 0 13-6t5-12z m-786 518q0-45-31-76t-76-31-76 31-31 76 31 76 76 31 76-31 31-76z m786-232v-108q0-7-5-12t-13-5h-678q-8 0-13 5t-5 12v108q0 7 5 12t13 5h678q7 0 13-5t5-12z m0 285v-107q0-7-5-12t-13-6h-678q-8 0-13 6t-5 12v107q0 8 5 13t13 5h678q7 0 13-5t5-13z" horiz-adv-x="1000" />

<glyph glyph-name="list-ol" unicode="&#xf0cb;" d="M213-54q0-45-31-70t-75-26q-60 0-96 37l31 49q28-25 60-25 16 0 28 8t12 24q0 35-59 31l-14 31q4 6 18 24t24 31 20 21v1q-9 0-27-1t-27 0v-30h-59v85h186v-49l-53-65q28-6 45-27t17-49z m1 350v-89h-202q-4 20-4 30 0 29 14 52t31 38 37 27 31 24 14 25q0 14-9 22t-22 7q-25 0-45-32l-47 33q13 28 40 44t59 16q40 0 68-23t28-63q0-28-19-51t-42-36-42-28-20-30h71v34h59z m786-178v-107q0-7-5-13t-13-5h-678q-8 0-13 5t-5 13v107q0 8 5 13t13 5h678q7 0 13-6t5-12z m-786 502v-56h-187v56h60q0 22 0 67t1 68v7h-1q-5-10-28-30l-40 42 76 71h59v-225h60z m786-216v-108q0-7-5-12t-13-5h-678q-8 0-13 5t-5 12v108q0 7 5 12t13 5h678q7 0 13-5t5-12z m0 285v-107q0-7-5-12t-13-6h-678q-8 0-13 6t-5 12v107q0 8 5 13t13 5h678q7 0 13-5t5-13z" horiz-adv-x="1000" />

<glyph glyph-name="google-plus" unicode="&#xf0d5;" d="M802 341q0-117-49-207t-138-142-206-51q-83 0-159 32t-131 87-87 131-32 159 32 159 87 131 131 87 159 32q160 0 274-107l-111-107q-65 63-163 63-69 0-127-34t-92-94-34-130 34-130 92-94 127-34q46 0 85 13t64 32 44 43 27 47 12 41h-232v141h386q7-36 7-68z m484 68v-118h-117v-116h-117v116h-117v118h117v116h117v-116h117z" horiz-adv-x="1285.7" />

<glyph glyph-name="envelope" unicode="&#xf0e0;" d="M1000 454v-443q0-37-26-63t-63-27h-822q-36 0-63 27t-26 63v443q25-27 56-49 202-137 278-192 32-24 51-37t53-27 61-13h2q28 0 61 13t53 27 51 37q95 68 278 192 32 22 56 49z m0 164q0-44-27-84t-68-69q-210-146-262-181-5-4-23-17t-30-22-29-18-32-15-28-5h-2q-12 0-27 5t-32 15-30 18-30 22-23 17q-51 35-147 101t-114 80q-35 23-65 64t-31 77q0 43 23 72t66 29h822q36 0 63-26t26-63z" horiz-adv-x="1000" />

<glyph glyph-name="linkedin" unicode="&#xf0e1;" d="M195 501v-553h-184v553h184z m12 171q0-41-29-68t-75-27h-1q-46 0-74 27t-28 68q0 41 29 68t75 27 74-27 29-68z m650-407v-317h-183v296q0 59-23 92t-71 33q-35 0-58-19t-36-48q-6-17-6-45v-309h-184q1 223 1 361t0 165l-1 27h184v-80h-1q11 18 23 31t31 29 49 24 64 9q95 0 153-63t58-186z" horiz-adv-x="857.1" />

<glyph glyph-name="comment-empty" unicode="&#xf0e5;" d="M500 636q-114 0-213-39t-157-105-59-142q0-62 40-119t113-98l48-28-15-53q-13-51-39-97 85 36 154 96l24 21 32-3q38-5 72-5 114 0 213 39t157 105 59 142-59 142-157 105-213 39z m500-286q0-97-67-179t-182-130-251-48q-39 0-81 4-110-97-257-135-27-8-63-12h-3q-8 0-15 6t-9 15v1q-2 2 0 6t1 6 2 5l4 5t4 5 4 5q4 5 17 19t20 22 17 22 18 28 15 33 15 42q-88 50-138 123t-51 157q0 97 67 179t182 130 251 48 251-48 182-130 67-179z" horiz-adv-x="1000" />

<glyph glyph-name="bell-alt" unicode="&#xf0f3;" d="M509-96q0 8-9 8-33 0-57 24t-23 57q0 9-9 9t-9-9q0-41 29-70t69-28q9 0 9 9z m455 160q0-29-21-50t-50-21h-250q0-59-42-101t-101-42-101 42-42 101h-250q-29 0-50 21t-21 50q28 24 51 49t47 67 42 89 27 115 11 145q0 84 66 157t171 89q-5 10-5 21 0 23 16 38t38 16 38-16 16-38q0-11-5-21 106-16 171-89t66-157q0-78 11-145t28-115 41-89 48-67 50-49z" horiz-adv-x="1000" />

<glyph glyph-name="building-1" unicode="&#xf0f7;" d="M214 118v-36q0-7-5-12t-13-6h-35q-7 0-13 6t-5 12v36q0 7 5 12t13 6h35q8 0 13-6t5-12z m0 143v-36q0-7-5-13t-13-5h-35q-7 0-13 5t-5 13v36q0 7 5 12t13 6h35q8 0 13-6t5-12z m143 0v-36q0-7-5-13t-13-5h-35q-8 0-13 5t-5 13v36q0 7 5 12t13 6h35q8 0 13-6t5-12z m-143 143v-36q0-7-5-13t-13-5h-35q-7 0-13 5t-5 13v36q0 7 5 12t13 5h35q8 0 13-5t5-12z m429-286v-36q0-7-5-12t-13-6h-36q-7 0-12 6t-6 12v36q0 7 6 12t12 6h36q7 0 13-6t5-12z m-143 143v-36q0-7-5-13t-13-5h-36q-7 0-12 5t-5 13v36q0 7 5 12t12 6h36q7 0 13-6t5-12z m-143 143v-36q0-7-5-13t-13-5h-35q-8 0-13 5t-5 13v36q0 7 5 12t13 5h35q8 0 13-5t5-12z m-143 142v-35q0-7-5-13t-13-5h-35q-7 0-13 5t-5 13v35q0 8 5 13t13 5h35q8 0 13-5t5-13z m429-285v-36q0-7-5-13t-13-5h-36q-7 0-12 5t-6 13v36q0 7 6 12t12 6h36q7 0 13-6t5-12z m-143 143v-36q0-7-5-13t-13-5h-36q-7 0-12 5t-5 13v36q0 7 5 12t12 5h36q7 0 13-5t5-12z m-143 142v-35q0-7-5-13t-13-5h-35q-8 0-13 5t-5 13v35q0 8 5 13t13 5h35q8 0 13-5t5-13z m-143 143v-35q0-8-5-13t-13-5h-35q-7 0-13 5t-5 13v35q0 8 5 13t13 5h35q8 0 13-5t5-13z m429-285v-36q0-7-5-13t-13-5h-36q-7 0-12 5t-6 13v36q0 7 6 12t12 5h36q7 0 13-5t5-12z m-143 142v-35q0-7-5-13t-13-5h-36q-7 0-12 5t-5 13v35q0 8 5 13t12 5h36q7 0 13-5t5-13z m-143 143v-35q0-8-5-13t-13-5h-35q-8 0-13 5t-5 13v35q0 8 5 13t13 5h35q8 0 13-5t5-13z m286-143v-35q0-7-5-13t-13-5h-36q-7 0-12 5t-6 13v35q0 8 6 13t12 5h36q7 0 13-5t5-13z m-143 143v-35q0-8-5-13t-13-5h-36q-7 0-12 5t-5 13v35q0 8 5 13t12 5h36q7 0 13-5t5-13z m143 0v-35q0-8-5-13t-13-5h-36q-7 0-12 5t-6 13v35q0 8 6 13t12 5h36q7 0 13-5t5-13z m-143-768h214v858h-643v-858h215v125q0 8 5 13t13 5h178q7 0 13-5t5-13v-125z m286 893v-928q0-15-11-25t-25-11h-714q-15 0-25 11t-11 25v928q0 15 11 25t25 11h714q15 0 25-11t11-25z" horiz-adv-x="785.7" />

<glyph glyph-name="angle-left" unicode="&#xf104;" d="M350 546q0-7-6-12l-219-220 219-219q6-6 6-13t-6-13l-28-28q-5-5-12-5t-13 5l-260 261q-6 5-6 12t6 13l260 260q5 6 13 6t12-6l28-28q6-5 6-13z" horiz-adv-x="357.1" />

<glyph glyph-name="angle-right" unicode="&#xf105;" d="M332 314q0-7-5-12l-261-261q-5-5-12-5t-13 5l-28 28q-6 6-6 13t6 13l219 219-219 220q-6 5-6 12t6 13l28 28q5 6 13 6t12-6l261-260q5-5 5-13z" horiz-adv-x="357.1" />

<glyph glyph-name="angle-up" unicode="&#xf106;" d="M600 189q0-7-6-12l-28-28q-5-6-12-6t-13 6l-220 219-219-219q-5-6-13-6t-12 6l-28 28q-6 5-6 12t6 13l260 260q5 6 12 6t13-6l260-260q6-5 6-13z" horiz-adv-x="642.9" />

<glyph glyph-name="angle-down" unicode="&#xf107;" d="M600 439q0-7-6-12l-260-261q-5-5-13-5t-12 5l-260 261q-6 5-6 12t6 13l28 28q5 6 12 6t13-6l219-219 220 219q5 6 13 6t12-6l28-28q6-5 6-13z" horiz-adv-x="642.9" />

<glyph glyph-name="quote-left" unicode="&#xf10d;" d="M429 314v-214q0-45-32-76t-76-31h-214q-44 0-76 31t-31 76v393q0 58 23 111t61 91 91 61 111 23h35q15 0 26-11t10-25v-72q0-14-10-25t-26-10h-35q-59 0-101-42t-42-101v-18q0-22 16-38t37-16h125q45 0 76-31t32-76z m500 0v-214q0-45-32-76t-76-31h-214q-44 0-76 31t-31 76v393q0 58 23 111t61 91 91 61 111 23h35q15 0 26-11t10-25v-72q0-14-10-25t-26-10h-35q-59 0-101-42t-42-101v-18q0-22 16-38t37-16h125q45 0 76-31t32-76z" horiz-adv-x="928.6" />

<glyph glyph-name="reply" unicode="&#xf112;" d="M1000 225q0-93-71-252-1-4-6-13t-7-17-7-12q-7-10-16-10-8 0-13 6t-5 14q0 5 1 15t2 13q3 38 3 69 0 56-10 101t-27 77-45 56-59 39-74 24-86 12-98 3h-125v-143q0-14-10-25t-26-11-25 11l-285 286q-11 10-11 25t11 25l285 286q11 10 25 10t26-10 10-25v-143h125q398 0 488-225 30-75 30-186z" horiz-adv-x="1000" />

<glyph glyph-name="smile-o" unicode="&#xf118;" d="M633 250q-21-67-77-109t-127-41-128 41-77 109q-4 14 3 27t21 18q14 4 27-2t17-22q14-44 52-72t85-28 84 28 52 72q4 15 18 22t27 2 21-18 2-27z m-276 243q0-30-21-51t-50-21-51 21-21 51 21 50 51 21 50-21 21-50z m286 0q0-30-21-51t-51-21-50 21-21 51 21 50 50 21 51-21 21-50z m143-143q0 73-29 139t-76 114-114 76-138 28-139-28-114-76-76-114-29-139 29-139 76-113 114-77 139-28 138 28 114 77 76 113 29 139z m71 0q0-117-57-215t-156-156-215-58-216 58-155 156-58 215 58 215 155 156 216 58 215-58 156-156 57-215z" horiz-adv-x="857.1" />

<glyph glyph-name="question" unicode="&#xf128;" d="M393 149v-134q0-9-7-15t-15-7h-134q-9 0-16 7t-7 15v134q0 9 7 16t16 6h134q9 0 15-6t7-16z m176 335q0-30-8-56t-20-43-31-33-32-25-34-19q-23-13-38-37t-15-37q0-10-7-18t-16-9h-134q-8 0-14 11t-6 20v26q0 46 37 87t79 60q33 16 47 32t14 42q0 24-26 41t-60 18q-36 0-60-16-20-14-60-64-7-9-17-9-7 0-14 4l-91 70q-8 6-9 14t3 16q89 148 259 148 45 0 90-17t81-46 59-72 23-88z" horiz-adv-x="571.4" />

<glyph glyph-name="info" unicode="&#xf129;" d="M357 100v-71q0-15-10-25t-26-11h-285q-15 0-25 11t-11 25v71q0 15 11 25t25 11h35v214h-35q-15 0-25 11t-11 25v71q0 15 11 25t25 11h214q15 0 25-11t11-25v-321h35q15 0 26-11t10-25z m-71 643v-107q0-15-11-25t-25-11h-143q-14 0-25 11t-11 25v107q0 14 11 25t25 11h143q15 0 25-11t11-25z" horiz-adv-x="357.1" />

<glyph glyph-name="exclamation" unicode="&#xf12a;" d="M286 154v-125q0-15-11-25t-25-11h-143q-14 0-25 11t-11 25v125q0 14 11 25t25 10h143q15 0 25-10t11-25z m17 589l-16-429q-1-14-12-25t-25-10h-143q-14 0-25 10t-12 25l-15 429q-1 14 10 25t24 11h179q14 0 25-11t10-25z" horiz-adv-x="357.1" />

<glyph glyph-name="ellipsis-v" unicode="&#xf142;" d="M214 154v-108q0-22-15-37t-38-16h-107q-23 0-38 16t-16 37v108q0 22 16 38t38 15h107q22 0 38-15t15-38z m0 285v-107q0-22-15-38t-38-15h-107q-23 0-38 15t-16 38v107q0 23 16 38t38 16h107q22 0 38-16t15-38z m0 286v-107q0-22-15-38t-38-16h-107q-23 0-38 16t-16 38v107q0 22 16 38t38 16h107q22 0 38-16t15-38z" horiz-adv-x="214.3" />

<glyph glyph-name="ok-squared" unicode="&#xf14a;" d="M382 125l343 343q11 10 11 25t-11 25l-57 57q-11 11-25 11t-25-11l-261-261-118 118q-10 11-25 11t-25-11l-57-57q-10-10-10-25t10-25l200-200q11-10 25-10t25 10z m475 493v-536q0-66-47-113t-114-48h-535q-67 0-114 48t-47 113v536q0 66 47 113t114 48h535q67 0 114-48t47-113z" horiz-adv-x="857.1" />

<glyph glyph-name="usd" unicode="&#xf155;" d="M546 189q0-86-56-147t-144-77v-97q0-8-5-13t-13-5h-75q-7 0-13 5t-5 13v97q-37 5-71 18t-57 25-41 26-26 21-10 10q-9 12-1 23l58 76q3 5 12 6 9 1 14-5l1-1q63-55 135-70 21-4 42-4 45 0 79 24t35 68q0 16-9 30t-18 23-33 21-37 18-45 18q-21 9-34 14t-34 15-35 17-32 20-29 24-25 27-20 32-11 37-5 44q0 77 55 135t142 75v100q0 7 5 13t13 5h75q8 0 13-5t5-13v-98q32-3 62-13t48-19 36-20 21-17 9-7q9-11 3-22l-46-81q-4-9-12-9-8-2-15 4-2 2-9 7t-21 14-33 18-42 15-47 6q-53 0-87-24t-33-62q0-14 4-27t17-23 22-18 31-18 34-15 39-15q30-11 45-17t43-20 42-24 34-28 30-35 18-43 7-52z" horiz-adv-x="571.4" />

<glyph glyph-name="doc-inv" unicode="&#xf15b;" d="M571 564v264q13-8 21-16l227-228q8-7 16-20h-264z m-71-18q0-22 16-37t38-16h303v-589q0-23-15-38t-38-16h-750q-23 0-38 16t-16 38v892q0 23 16 38t38 16h446v-304z" horiz-adv-x="857.1" />

<glyph glyph-name="youtube-play" unicode="&#xf16a;" d="M397 221l270 139-270 141v-280z m103 481q94 0 181-3t128-5l41-2q0 0 9-1t13-2 13-2 16-5 16-7 17-11 16-15q4-3 9-10t16-33 15-56q4-36 7-76t3-64v-98q1-81-10-162-4-30-14-55t-18-35l-8-9q-7-8-16-15t-17-10-16-7-16-5-13-2-13-2-9-1q-140-11-350-11-115 2-201 4t-111 4l-28 3-20 2q-20 3-30 5t-29 12-31 23q-4 3-9 10t-16 33-15 56q-4 36-7 76t-3 64v98q-1 81 10 162 4 31 14 55t18 35l8 9q8 9 16 15t17 11 16 7 16 5 13 2 13 2 9 1q140 10 350 10z" horiz-adv-x="1000" />

<glyph glyph-name="apple" unicode="&#xf179;" d="M777 172q-21-70-68-139-72-110-144-110-27 0-78 18-48 18-84 18-34 0-79-19-45-19-74-19-85 0-168 145-82 146-82 281 0 127 63 208 63 81 159 81 40 0 98-17 58-17 77-17 25 0 80 19 57 19 97 19 66 0 119-36 29-20 58-56-44-37-64-66-36-52-36-115 0-69 38-125t88-70z m-209 655q0-34-17-76-16-42-52-77-30-30-60-40-20-7-58-10 2 83 44 143 41 60 139 83 1-2 2-6t1-6q0-2 0-6t1-5z" horiz-adv-x="785.7" />

<glyph glyph-name="windows" unicode="&#xf17a;" d="M381 289v-364l-381 53v311h381z m0 414v-367h-381v315z m548-414v-439l-507 70v369h507z m0 490v-443h-507v373z" horiz-adv-x="928.6" />

<glyph glyph-name="building" unicode="&#xf1ad;" d="M750 850q15 0 25-11t11-25v-928q0-15-11-25t-25-11h-714q-15 0-25 11t-11 25v928q0 15 11 25t25 11h714z m-464-161v-35q0-8 5-13t13-5h35q8 0 13 5t5 13v35q0 8-5 13t-13 5h-35q-8 0-13-5t-5-13z m0-143v-35q0-8 5-13t13-5h35q8 0 13 5t5 13v35q0 8-5 13t-13 5h-35q-8 0-13-5t-5-13z m0-142v-36q0-8 5-13t13-5h35q8 0 13 5t5 13v36q0 7-5 12t-13 5h-35q-8 0-13-5t-5-12z m0-143v-36q0-8 5-13t13-5h35q8 0 13 5t5 13v36q0 8-5 13t-13 5h-35q-8 0-13-5t-5-13z m-72-179v36q0 8-5 13t-13 5h-35q-8 0-13-5t-5-13v-36q0-8 5-13t13-5h35q8 0 13 5t5 13z m0 143v36q0 8-5 13t-13 5h-35q-8 0-13-5t-5-13v-36q0-8 5-13t13-5h35q8 0 13 5t5 13z m0 143v36q0 7-5 12t-13 5h-35q-8 0-13-5t-5-12v-36q0-8 5-13t13-5h35q8 0 13 5t5 13z m0 143v35q0 8-5 13t-13 5h-35q-8 0-13-5t-5-13v-35q0-8 5-13t13-5h35q8 0 13 5t5 13z m0 143v35q0 8-5 13t-13 5h-35q-8 0-13-5t-5-13v-35q0-8 5-13t13-5h35q8 0 13 5t5 13z m286-715v107q0 8-5 13t-13 5h-178q-8 0-13-5t-5-13v-107q0-8 5-13t13-5h178q8 0 13 5t5 13z m0 286v36q0 8-5 13t-13 5h-36q-7 0-12-5t-5-13v-36q0-8 5-13t12-5h36q8 0 13 5t5 13z m0 143v36q0 7-5 12t-13 5h-36q-7 0-12-5t-5-12v-36q0-8 5-13t12-5h36q8 0 13 5t5 13z m0 143v35q0 8-5 13t-13 5h-36q-7 0-12-5t-5-13v-35q0-8 5-13t12-5h36q8 0 13 5t5 13z m0 143v35q0 8-5 13t-13 5h-36q-7 0-12-5t-5-13v-35q0-8 5-13t12-5h36q8 0 13 5t5 13z m143-572v36q0 8-5 13t-13 5h-36q-7 0-12-5t-6-13v-36q0-8 6-13t12-5h36q8 0 13 5t5 13z m0 143v36q0 8-5 13t-13 5h-36q-7 0-12-5t-6-13v-36q0-8 6-13t12-5h36q8 0 13 5t5 13z m0 143v36q0 7-5 12t-13 5h-36q-7 0-12-5t-6-12v-36q0-8 6-13t12-5h36q8 0 13 5t5 13z m0 143v35q0 8-5 13t-13 5h-36q-7 0-12-5t-6-13v-35q0-8 6-13t12-5h36q8 0 13 5t5 13z m0 143v35q0 8-5 13t-13 5h-36q-7 0-12-5t-6-13v-35q0-8 6-13t12-5h36q8 0 13 5t5 13z" horiz-adv-x="857.1" />

<glyph glyph-name="file-pdf" unicode="&#xf1c1;" d="M819 638q16-16 27-42t11-50v-642q0-23-15-38t-38-16h-750q-23 0-38 16t-16 38v892q0 23 16 38t38 16h500q22 0 49-11t42-27z m-248 136v-210h210q-5 17-12 23l-175 175q-6 7-23 12z m215-853v572h-232q-23 0-38 16t-16 37v233h-429v-858h715z m-287 331q18-14 47-31 33 4 65 4 82 0 99-27 9-13 1-29 0-1-1-1l-1-2v0q-3-21-39-21-27 0-64 11t-73 29q-123-13-219-46-85-146-135-146-8 0-15 4l-14 7q0 0-3 2-6 6-4 20 5 23 32 51t73 54q8 5 13-3 1-1 1-2 29 47 60 110 38 76 58 146-13 46-17 89t4 71q6 22 23 22h12q13 0 20-8 10-12 5-38-1-3-2-4 0-2 0-5v-17q-1-68-8-107 31-91 82-133z m-321-229q29 13 76 88-29-22-49-47t-27-41z m222 513q-9-23-2-73 1 4 4 24 0 2 4 24 1 3 3 5-1 0-1 1-1 1-1 2 0 12-7 20 0-1 0-1v-2z m-70-368q76 30 159 45-1 0-7 5t-9 8q-43 37-71 98-15-48-46-110-17-31-26-46z m361 9q-13 13-78 13 42-16 69-16 8 0 10 1 0 0-1 2z" horiz-adv-x="857.1" />

<glyph glyph-name="header" unicode="&#xf1dc;" d="M939-79q-25 0-74 2t-75 2q-24 0-73-2t-74-2q-13 0-21 12t-7 25q0 18 9 26t22 9 29 4 25 9q18 11 18 78l0 218q0 12-1 17-7 3-28 3h-376q-22 0-29-3 0-5 0-17l-1-207q0-79 21-91 9-6 26-8t32-2 25-8 11-26q0-14-6-26t-21-13q-26 0-78 2t-77 2q-24 0-71-2t-71-2q-13 0-20 12t-7 25q0 17 9 25t20 10 26 4 24 9q18 13 18 80l-1 31v454q0 2 1 15t0 20-1 21-2 24-4 20-6 18-9 10q-8 5-25 7t-29 1-23 7-10 26q0 14 6 26t20 13q26 0 78-2t77-2q23 0 71 2t70 2q14 0 21-13t7-26q0-17-9-25t-22-8-27-2-24-7q-20-12-20-90l1-178q0-12 0-18 7-2 22-2h390q14 0 21 2 1 6 1 18l0 178q0 78-19 90-10 6-33 7t-37 7-14 28q0 14 7 26t21 13q24 0 74-2t73-2q24 0 72 2t72 2q14 0 21-13t7-26q0-17-10-25t-22-8-29-2-24-7q-20-13-20-90l1-526q0-66 19-78 9-6 25-8t30-2 23-9 10-25q0-14-6-26t-20-13z" horiz-adv-x="1000" />

<glyph glyph-name="share-alt" unicode="&#xf1e0;" d="M679 279q74 0 126-53t52-126-52-126-126-53-127 53-52 126q0 7 1 19l-201 100q-51-48-121-48-75 0-127 53t-52 126 52 126 127 53q70 0 121-48l201 100q-1 12-1 19 0 74 52 126t127 53 126-53 52-126-52-126-126-53q-71 0-122 48l-201-100q1-12 1-19t-1-19l201-100q51 48 122 48z" horiz-adv-x="857.1" />

<glyph glyph-name="diamond" unicode="&#xf219;" d="M118 421l348-371-167 371h-181z m453-430l195 430h-389z m-271 502l114 214h-146l-161-214h193z m377-443l348 371h-181z m-296 443h381l-114 214h-153z m462 0h193l-161 214h-146z m78 271l215-286q7-10 7-23t-10-22l-535-572q-10-11-27-11t-26 11l-535 572q-9 9-10 22t7 23l215 286q10 15 28 15h643q18 0 28-15z" horiz-adv-x="1142.9" />

<glyph glyph-name="calendar-check-o" unicode="&#xf274;" d="M727 312l-286-286q-5-5-12-5t-13 5l-161 161q-5 6-5 13t5 12l26 26q5 5 12 5t13-5l123-123 247 248q6 5 13 5t13-5l25-26q5-5 5-12t-5-13z m-656-391h786v572h-786v-572z m215 679v161q0 8-5 13t-13 5h-36q-8 0-13-5t-5-13v-161q0-8 5-13t13-5h36q8 0 13 5t5 13z m428 0v161q0 8-5 13t-13 5h-35q-8 0-13-5t-5-13v-161q0-8 5-13t13-5h35q8 0 13 5t5 13z m215 36v-715q0-29-22-50t-50-21h-786q-29 0-50 21t-21 50v715q0 29 21 50t50 21h72v54q0 37 26 63t63 26h36q37 0 63-26t26-63v-54h214v54q0 37 27 63t63 26h35q37 0 64-26t26-63v-54h71q29 0 50-21t22-50z" horiz-adv-x="1000" />

<glyph glyph-name="map-pin" unicode="&#xf276;" d="M286 243q37 0 71 8v-365q0-15-10-25t-26-11h-71q-14 0-25 11t-11 25v365q35-8 72-8z m0 607q118 0 202-84t83-202-83-202-202-83-202 83-84 202 84 202 202 84z m0-125q8 0 13 5t5 13-5 13-13 5q-82 0-139-58t-58-139q0-7 5-12t13-6 13 6 5 12q0 67 47 114t114 47z" horiz-adv-x="571.4" />

<glyph glyph-name="commenting-o" unicode="&#xf27b;" d="M357 350q0-30-21-50t-50-21-51 21-21 50 21 51 51 20 50-20 21-51z m214 0q0-30-20-50t-51-21-50 21-21 50 21 51 50 20 51-20 20-51z m215 0q0-30-21-50t-51-21-50 21-21 50 21 51 50 20 51-20 21-51z m-286 286q-114 0-213-39t-157-105-59-142q0-62 40-119t113-98l48-28-15-53q-13-51-39-97 85 36 154 96l24 21 32-3q38-5 72-5 114 0 213 39t157 105 59 142-59 142-157 105-213 39z m500-286q0-97-67-179t-182-130-251-48q-39 0-81 4-110-97-257-135-27-8-63-12h-3q-8 0-15 6t-9 15v1q-2 2 0 6t1 6 2 5l4 5t4 5 4 5q4 5 17 19t20 22 17 22 18 28 15 33 15 42q-88 50-138 123t-51 157q0 73 40 139t106 114 160 76 194 28 194-28 160-76 106-114 40-139z" horiz-adv-x="1000" />

<glyph glyph-name="question-circle-o" unicode="&#xf29c;" d="M491 180v-89q0-8-5-13t-13-5h-89q-8 0-13 5t-5 13v89q0 8 5 13t13 5h89q8 0 13-5t5-13z m143 277q0-28-8-50t-26-39-29-24-33-20q-18-10-26-16t-14-13-7-16v-18q0-8-5-13t-13-5h-89q-8 0-13 5t-5 13v38q0 19 6 36t13 26 22 20 23 14 25 12q29 14 42 24t12 27q0 24-24 40t-54 17q-31 0-53-15-16-12-44-47-5-6-14-6-6 0-11 3l-60 46q-6 4-7 11t3 13q68 107 195 107 72 0 133-50t61-120z m-205 250q-73 0-139-28t-114-76-76-114-29-139 29-139 76-113 114-77 139-28 138 28 114 77 76 113 29 139-29 139-76 114-114 76-138 28z m428-357q0-117-57-215t-156-156-215-58-216 58-155 156-58 215 58 215 155 156 216 58 215-58 156-156 57-215z" horiz-adv-x="857.1" />

<glyph glyph-name="podcast" unicode="&#xf2ce;" d="M555 185q0-48-10-110-17-120-30-175-13-50-85-50t-85 50q-13 55-31 175-9 61-9 110 0 94 125 94t125-94z m302 236q0-133-75-242t-195-156q-4-2-8 2t-4 8q4 27 6 37 2 18 3 26 1 5 5 7 89 45 143 130t54 188q0 101-51 185t-138 131-188 41q-69-4-132-34t-108-78-72-113-26-134q1-103 56-188t143-129q4-2 5-7 2-12 4-25 0-5 2-18t4-20q0-5-4-8t-9-2q-82 33-145 95t-97 147-29 179q4 79 36 152t87 127 125 88 152 39q92 6 176-26t146-90 98-139 36-173z m-302 18q0-52-37-88t-88-37-89 37-36 88 36 89 89 36 88-36 37-89z m160-18q0-68-29-127t-82-99q-5-3-9-1t-6 8q-3 29-16 51-4 6 2 11 32 30 51 71t18 86q0 62-33 114t-88 79-118 21q-74-9-128-63t-60-129q-6-52 13-99t55-80q5-5 1-11-13-23-16-52-1-5-5-7t-9 1q-53 41-83 102t-29 131q2 73 39 136t98 101 135 42q80 4 149-34t110-104 40-148z" horiz-adv-x="857.1" />

<glyph glyph-name="facebook-square" unicode="&#xf308;" d="M696 779q67 0 114-48t47-113v-536q0-66-47-113t-114-48h-104v333h111l16 129h-127v83q0 31 13 46t51 16l68 1v115q-35 5-100 5-75 0-121-44t-45-127v-95h-112v-129h112v-333h-297q-67 0-114 48t-47 113v536q0 66 47 113t114 48h535z" horiz-adv-x="857.1" />

<glyph glyph-name="graduation-cap" unicode="&#xf800;" d="M166 238l334-168 276 136q-4-22-8-47t-6-35-11-23-24-23-45-22q-40-18-80-41t-63-34-39-11-40 13-64 37-80 40q-72 32-103 69t-47 109z m810 246q24-14 24-33t-24-33l-78-44-308 102q-22 36-90 36-40 0-67-16t-27-40 27-40 67-16q26 0 36 4l292-68-268-152q-60-32-120 0l-416 234q-24 14-24 33t24 33l416 234q60 32 120 0z m-128-442q18 116 13 182t-19 90l-14 22 70 38q6-8 12-28t17-101-7-197q-4-26-22-30t-35 5-15 19z" horiz-adv-x="1000" />

<glyph glyph-name="group" unicode="&#xf839;" d="M0 106l0 134q0 26 18 32l171 80q-66 39-68 131 0 56 35 103 37 41 90 43 31 0 63-19-49-125 23-237-12-11-25-19l-114-55q-48-23-52-84l0-143-114 0q-25 0-27 34z m193-59l0 168q0 27 22 37l152 70 57 28q-37 23-60 66t-22 94q0 76 46 130t110 54 109-54 45-130q0-105-78-158l61-30 146-70q24-10 24-37l0-168q-2-37-37-41l-541 0q-14 2-24 14t-10 27z m473 330q68 106 22 231 31 19 66 21 49 0 90-43 35-41 35-103 0-82-65-131l168-80q18-10 18-32l0-134q0-32-27-34l-118 0 0 143q0 57-50 84l-110 53q-15 8-29 25z" horiz-adv-x="1000" />

<glyph glyph-name="round-dollar" unicode="&#xf869;" d="M500 850c-276 0-500-224-500-500 0-276 224-500 500-500 276 0 500 224 500 500 0 276-224 500-500 500z m31-716v-34c0-17-14-31-31-31-17 0-31 14-31 31v34c-32 5-62 18-83 38-13 11-15 31-3 44 11 13 31 14 44 2 18-15 44-24 73-24 51 0 94 28 94 62 0 34-43 63-94 63-86 0-156 56-156 125 0 60 54 111 125 122v34c0 17 14 31 31 31 17 0 31-14 31-31v-34c32-5 62-18 84-38 12-11 14-31 2-44-11-13-31-14-44-2-18 15-44 24-73 24-51 0-94-28-94-62 0-34 43-63 94-63 86 0 156-56 156-125 0-60-53-111-125-122z" horiz-adv-x="1000" />
</font>
</defs>
</svg>
