<?xml version="1.0" standalone="no"?>
<!DOCTYPE svg PUBLIC "-//W3C//DTD SVG 1.1//EN" "http://www.w3.org/Graphics/SVG/1.1/DTD/svg11.dtd" >
<svg xmlns="http://www.w3.org/2000/svg" xmlns:xlink="http://www.w3.org/1999/xlink" version="1.1">
<metadata></metadata>
<defs>
<font id="latoheavy" horiz-adv-x="1160" >
<font-face units-per-em="2000" ascent="1610" descent="-390" />
<missing-glyph horiz-adv-x="475" />
<glyph horiz-adv-x="0" />
<glyph horiz-adv-x="0" />
<glyph horiz-adv-x="666" />
<glyph unicode=" "  horiz-adv-x="475" />
<glyph unicode="&#x09;" horiz-adv-x="475" />
<glyph unicode="&#xa0;" horiz-adv-x="475" />
<glyph unicode="!" horiz-adv-x="572" d="M416 1451v-572q0 -91 -9.5 -180t-26.5 -185h-186q-17 96 -26.5 185t-9.5 180v572h258zM121 145q0 33 12.5 62.5t34.5 51t51.5 34t64.5 12.5q34 0 63.5 -12.5t51.5 -34t35 -51t13 -62.5q0 -34 -13 -63t-35 -50.5t-51.5 -33.5t-63.5 -12q-35 0 -64.5 12t-51.5 33.5 t-34.5 50.5t-12.5 63z" />
<glyph unicode="&#x22;" horiz-adv-x="811" d="M334 1451v-287l-24 -157q-8 -48 -28.5 -74t-67.5 -26q-41 0 -63 26t-32 74l-25 157v287h240zM716 1451v-287l-24 -157q-8 -48 -28.5 -74t-67.5 -26q-41 0 -63 26t-32 74l-25 157v287h240z" />
<glyph unicode="#" d="M689 855h-187l-46 -257h187zM1141 1051l-21 -114q-8 -42 -35 -62t-86 -20h-83l-46 -257h126q42 0 59.5 -25t8.5 -85l-14 -86h-208l-74 -402h-127q-19 0 -35.5 9t-28 24.5t-16 35.5t0.5 43l53 290h-186l-54 -304q-10 -53 -45 -75.5t-79 -22.5h-122l73 402h-103 q-42 0 -59.5 24.5t-8.5 84.5l14 87h185l46 257h-207l21 114q8 42 35.5 62t86.5 20h91l58 309q8 42 40.5 66.5t75.5 24.5h126l-74 -400h187l74 400h123q43 0 68.5 -26.5t18.5 -66.5l-57 -307h198z" />
<glyph unicode="$" d="M639 214q96 14 144 65.5t48 137.5q0 34 -12 59.5t-33 45.5t-50 35.5t-63 27.5zM562 1234q-51 -7 -87 -22.5t-58.5 -37.5t-33 -48.5t-10.5 -56.5q0 -34 11.5 -60.5t32.5 -47.5t50 -37.5t64 -29.5zM696 840q48 -14 96 -30.5t92 -37.5t82 -49t66.5 -65.5t44.5 -86.5t16 -112 q0 -93 -31.5 -175.5t-92.5 -146t-149 -103.5t-202 -48l-12 -136q-2 -26 -22 -47t-52 -21h-101l19 211q-57 8 -112.5 24.5t-106.5 40t-96 53t-81 64.5l85 125q11 16 30 26.5t39 10.5q23 0 48 -14t55.5 -33.5t69 -39.5t89.5 -31l38 415q-48 13 -95.5 29.5t-91.5 38.5 t-81.5 51.5t-65.5 70.5t-44 94.5t-16 123.5q0 78 31 151.5t90.5 131.5t146.5 95.5t200 43.5l11 119q2 26 22.5 46.5t51.5 20.5h102l-18 -196q108 -19 185 -62t132 -97l-68 -100q-14 -23 -30 -33.5t-38 -10.5q-15 0 -35.5 8.5t-45.5 21t-55.5 25.5t-64.5 22z" />
<glyph unicode="%" horiz-adv-x="1654" d="M755 1100q0 -81 -28 -147t-75.5 -113.5t-109.5 -73t-129 -25.5q-74 0 -136 25.5t-107.5 73t-71 113.5t-25.5 147q0 84 25.5 151.5t71 115t107.5 73.5t136 26t137 -26t108.5 -73.5t71 -115t25.5 -151.5zM543 1100q0 54 -10 90.5t-27.5 58.5t-41.5 31.5t-51 9.5t-50.5 -9.5 t-40 -31.5t-26 -58.5t-9.5 -90.5q0 -53 9.5 -88t26 -56.5t40 -30.5t50.5 -9t51 9t41.5 30.5t27.5 56.5t10 88zM1225 1409q14 16 33.5 29t54.5 13h201l-1085 -1411q-14 -17 -34 -28.5t-49 -11.5h-205zM1581 341q0 -81 -28 -147t-75.5 -113.5t-109.5 -73t-129 -25.5 q-74 0 -136 25.5t-107.5 73t-71 113.5t-25.5 147q0 84 25.5 151.5t71 115t107.5 73t136 25.5t137 -25.5t108.5 -73t71 -115t25.5 -151.5zM1369 341q0 54 -10 90.5t-27.5 58.5t-41.5 31.5t-51 9.5t-50.5 -9.5t-40 -31.5t-26 -58.5t-9.5 -90.5q0 -53 9.5 -88t26 -56.5 t40 -30.5t50.5 -9t51 9t41.5 30.5t27.5 56.5t10 88z" />
<glyph unicode="&#x26;" horiz-adv-x="1456" d="M477 663q-69 -50 -99 -110t-30 -127q0 -52 17 -93.5t47 -71t71 -45.5t88 -16q78 0 144.5 22.5t121.5 64.5zM1456 0h-271q-21 0 -37.5 2t-30.5 8t-27 16t-27 25l-82 86q-96 -73 -211.5 -113t-247.5 -40q-85 0 -167 29.5t-146 84t-103 132t-39 174.5q0 67 21 127t59.5 111 t91 93t115.5 72q-51 74 -73.5 144.5t-22.5 139.5q0 76 28 144.5t81 120t130.5 81.5t176.5 30q92 0 164 -27.5t122 -73.5t78.5 -105t34.5 -123l-176 -36q-49 -10 -71 40q-20 52 -55.5 85.5t-96.5 33.5q-38 0 -68 -13.5t-50.5 -36.5t-31 -53.5t-10.5 -64.5q0 -28 5.5 -54 t18 -52.5t33.5 -54.5t51 -60l373 -390q31 61 49 128.5t24 138.5q3 26 17.5 41t39.5 15h173q0 -138 -38.5 -261t-107.5 -226z" />
<glyph unicode="'" horiz-adv-x="429" d="M334 1451v-287l-24 -157q-8 -48 -28.5 -74t-67.5 -26q-41 0 -63 26t-32 74l-25 157v287h240z" />
<glyph unicode="(" horiz-adv-x="555" d="M305 627q0 -203 47.5 -401t135.5 -371q12 -22 13.5 -38.5t-3 -29.5t-14 -22t-21.5 -16l-122 -73q-74 114 -126 229t-85 233.5t-48.5 240t-15.5 248.5q0 126 15.5 248t48.5 240t85 233.5t126 228.5l122 -72q12 -7 21.5 -16t14 -22t3 -30t-13.5 -39q-88 -172 -135.5 -370 t-47.5 -401z" />
<glyph unicode=")" horiz-adv-x="555" d="M250 627q0 203 -47.5 401t-135.5 370q-12 22 -13.5 39t3 30t14 22t20.5 16l123 72q73 -113 125 -228.5t85 -233.5t48.5 -240t15.5 -248q0 -127 -15.5 -248.5t-48.5 -240t-85 -233.5t-125 -229l-123 73q-11 7 -20.5 16t-14 22t-3 29.5t13.5 38.5q88 173 135.5 371 t47.5 401z" />
<glyph unicode="*" horiz-adv-x="850" d="M604 1203q-18 -11 -36.5 -18.5t-37.5 -11.5q37 -6 74 -29l153 -91l-64 -109l-153 91q-18 11 -34 22.5t-28 25.5q12 -35 12 -76v-180h-131v178q0 20 2.5 39.5t8.5 36.5q-23 -26 -60 -46l-152 -89l-65 109l153 89q19 11 37.5 18.5t37.5 10.5q-19 3 -38 11t-37 19l-153 91 l64 108l153 -91q37 -20 61 -47q-12 34 -12 75v181h131v-179q0 -20 -2.5 -39.5t-8.5 -36.5q12 14 27.5 25t33.5 21l152 89l65 -108z" />
<glyph unicode="+" d="M1071 571h-380v-405h-224v405h-378v201h378v404h224v-404h380v-201z" />
<glyph unicode="," horiz-adv-x="473" d="M113 -246q-11 9 -15.5 18t-4.5 22q0 9 6.5 19.5t15.5 19.5q11 12 27 29.5t32 39t29.5 47.5t20.5 55q-33 1 -60 14t-46 34t-29.5 49.5t-10.5 61.5q0 30 11 56t31.5 45t49 30t63.5 11q41 0 71.5 -14.5t50.5 -38.5t30 -56.5t10 -68.5q0 -49 -15 -103.5t-45 -109.5 t-73.5 -107.5t-100.5 -95.5z" />
<glyph unicode="-" horiz-adv-x="747" d="M109 719h528v-226h-528v226z" />
<glyph unicode="." horiz-adv-x="476" d="M75 145q0 33 12.5 62.5t34.5 51t51.5 34t64.5 12.5q34 0 64 -12.5t52 -34t34.5 -51t12.5 -62.5q0 -34 -12.5 -63t-34.5 -50.5t-52 -33.5t-64 -12q-35 0 -64.5 12t-51.5 33.5t-34.5 50.5t-12.5 63z" />
<glyph unicode="/" horiz-adv-x="944" d="M317 4q-19 -50 -60.5 -75.5t-84.5 -25.5h-117l577 1493q17 45 54 70t85 25h118z" />
<glyph unicode="0" d="M1115 726q0 -190 -41 -330t-113 -231.5t-170.5 -136t-212.5 -44.5t-212 44.5t-169 136t-111.5 231.5t-40.5 330t40.5 329.5t111.5 231t169 136t212 44.5t212.5 -44.5t170.5 -136t113 -231t41 -329.5zM830 726q0 154 -21.5 254t-56.5 158t-80.5 81t-93.5 23t-92.5 -23 t-79 -81t-55.5 -158t-21 -254q0 -155 21 -255t55.5 -158t79 -81t92.5 -23t93.5 23t80.5 81t56.5 158t21.5 255z" />
<glyph unicode="1" d="M1042 203v-203h-814v203h288v794q0 26 1 53t3 55l-190 -158q-20 -15 -39 -19t-36 -0.5t-30 12t-20 17.5l-87 117l446 378h227v-1249h251z" />
<glyph unicode="2" d="M979 253q45 0 70.5 -25t25.5 -66v-162h-1006v90q0 26 11 56.5t37 55.5l430 431q55 55 97 105.5t70 99t42 98.5t14 105q0 97 -50 147.5t-141 50.5q-40 0 -73.5 -11.5t-60 -31.5t-45.5 -47t-28 -59q-18 -50 -48.5 -66.5t-86.5 -7.5l-146 26q16 106 60 186t110 133t151 79.5 t183 26.5q103 0 187.5 -30.5t144.5 -85t93 -131.5t33 -170q0 -80 -23 -148t-62.5 -129.5t-91.5 -119.5t-110 -117l-308 -315q51 15 101 23.5t94 8.5h326z" />
<glyph unicode="3" d="M99 1042q16 106 60 186t110 133t150.5 79.5t182.5 26.5q104 0 186.5 -29.5t139.5 -80.5t87.5 -119t30.5 -146q0 -69 -14.5 -121.5t-43 -91.5t-70 -66t-95.5 -45q250 -82 250 -333q0 -111 -41 -195.5t-110 -141.5t-160.5 -85.5t-191.5 -28.5q-106 0 -187 24t-142.5 72 t-105.5 120.5t-77 169.5l122 50q48 20 89.5 11t59.5 -44q20 -38 42.5 -70t50.5 -55.5t63.5 -36.5t81.5 -13q58 0 101 19t72 49.5t43.5 69t14.5 76.5q0 50 -9 90.5t-41.5 69t-96 44t-172.5 15.5v194q91 0 149 15t91 42t45.5 65t12.5 83q0 95 -49.5 145t-140.5 50 q-40 0 -73.5 -11.5t-60 -31.5t-45.5 -47t-28 -59q-19 -50 -49 -66.5t-87 -7.5z" />
<glyph unicode="4" d="M704 554v432q0 34 2.5 72.5t7.5 80.5l-420 -585h410zM1112 554v-156q0 -22 -14.5 -37.5t-40.5 -15.5h-113v-345h-240v345h-599q-26 0 -47.5 16t-26.5 42l-29 138l680 911h262v-898h168z" />
<glyph unicode="5" d="M423 931q45 9 86.5 13t80.5 4q114 0 201.5 -34.5t147 -94.5t89.5 -141t30 -174q0 -116 -41 -211.5t-113.5 -164t-173 -106.5t-219.5 -38q-69 0 -132 14.5t-117.5 39t-101.5 56.5t-84 67l85 116q27 37 70 37q27 0 53 -16t59 -35.5t77 -35.5t107 -16q65 0 113 21.5t79.5 59 t47 89t15.5 110.5q0 113 -64.5 174.5t-187.5 61.5q-101 0 -203 -38l-171 48l122 714h728v-116q0 -29 -8.5 -52.5t-28 -41t-50 -27t-74.5 -9.5h-375z" />
<glyph unicode="6" d="M542 930l-44 -53q38 17 82 26t95 9q81 0 158 -27t137 -81t96.5 -135.5t36.5 -191.5q0 -101 -37.5 -191t-106 -157t-164 -106t-212.5 -39q-119 0 -213 37.5t-160 105.5t-101 162.5t-35 208.5q0 105 41.5 213t126.5 222l337 454q20 26 59 45t89 19h245zM578 206 q54 0 100 19t79 53t52 79.5t19 99.5q0 59 -18 106t-51 79.5t-79 49.5t-102 17q-53 0 -97 -18.5t-75.5 -52t-49 -79.5t-17.5 -101q0 -57 15 -103.5t45 -79.5t74.5 -51t104.5 -18z" />
<glyph unicode="7" d="M1097 1451v-118q0 -52 -11.5 -84t-22.5 -54l-528 -1103q-20 -38 -54 -65t-92 -27h-200l541 1077q20 38 41 69t47 59h-669q-24 0 -43.5 19t-19.5 43v184h1011z" />
<glyph unicode="8" d="M580 195q57 0 99.5 17t70.5 46.5t42 70t14 87.5q0 108 -55.5 167.5t-170.5 59.5t-170.5 -59.5t-55.5 -167.5q0 -47 14 -87.5t42 -70t70.5 -46.5t99.5 -17zM580 1263q-51 0 -87.5 -16t-60 -42.5t-34.5 -61.5t-11 -73q0 -41 9 -79.5t31 -68.5t59 -48t94 -18t94 18t59 48 t31 68.5t9 79.5q0 38 -11 73t-34.5 61.5t-60 42.5t-87.5 16zM838 756q132 -44 192 -132.5t60 -212.5q0 -97 -37 -176t-104 -134.5t-161 -86t-208 -30.5t-208 30.5t-161 86t-104 134.5t-37 176q0 124 60 212.5t192 132.5q-103 45 -153.5 126t-50.5 193q0 84 34 155.5 t95.5 124t146.5 82.5t186 30t186 -30t146.5 -82.5t95.5 -124t34 -155.5q0 -112 -50.5 -193t-153.5 -126z" />
<glyph unicode="9" d="M350 1012q0 -115 56.5 -175t165.5 -60q55 0 98.5 17.5t72.5 48.5t44.5 74t15.5 94q0 57 -17 100.5t-47.5 73.5t-72.5 45.5t-93 15.5q-52 0 -93 -17.5t-70 -49t-44.5 -74.5t-15.5 -93zM641 557q15 19 29 37l28 36q-48 -28 -104.5 -42.5t-119.5 -14.5q-73 0 -144.5 26 t-128.5 78t-92 130.5t-35 184.5q0 97 36 183.5t102 151t158.5 102.5t205.5 38q114 0 205 -35.5t154 -99.5t97 -152.5t34 -194.5q0 -69 -11 -131t-32 -118t-50.5 -109t-66.5 -104l-323 -461q-20 -26 -57.5 -44t-85.5 -18h-254z" />
<glyph unicode=":" horiz-adv-x="522" d="M98 145q0 33 12.5 62.5t34.5 51t51.5 34t64.5 12.5q34 0 64 -12.5t52 -34t34.5 -51t12.5 -62.5q0 -34 -12.5 -63t-34.5 -50.5t-52 -33.5t-64 -12q-35 0 -64.5 12t-51.5 33.5t-34.5 50.5t-12.5 63zM98 845q0 33 12.5 62.5t34.5 51t51.5 34t64.5 12.5q34 0 64 -12.5t52 -34 t34.5 -51t12.5 -62.5q0 -34 -12.5 -63t-34.5 -50.5t-52 -33.5t-64 -12q-35 0 -64.5 12t-51.5 33.5t-34.5 50.5t-12.5 63z" />
<glyph unicode=";" horiz-adv-x="549" d="M152 -246q-11 9 -15.5 18t-4.5 22q0 9 6.5 19.5t15.5 19.5q11 12 27 29.5t32 39t29.5 47.5t20.5 55q-33 1 -60 14t-46 34t-29.5 49.5t-10.5 61.5q0 30 11 56t31.5 45t49 30t63.5 11q41 0 71.5 -14.5t50.5 -38.5t30 -56.5t10 -68.5q0 -49 -15 -103.5t-45 -109.5 t-73.5 -107.5t-100.5 -95.5zM109 845q0 33 12.5 62.5t34.5 51t51.5 34t64.5 12.5q34 0 64 -12.5t52 -34t34.5 -51t12.5 -62.5q0 -34 -12.5 -63t-34.5 -50.5t-52 -33.5t-64 -12q-35 0 -64.5 12t-51.5 33.5t-34.5 50.5t-12.5 63z" />
<glyph unicode="&#x3c;" d="M574 712q-24 -12 -51.5 -21t-57.5 -17q60 -14 109 -38l327 -171q26 -12 36.5 -30t10.5 -40v-194l-801 419v109l801 418v-194q0 -21 -10.5 -39t-36.5 -30z" />
<glyph unicode="=" d="M132 593h896v-201h-896v201zM132 952h896v-201h-896v201z" />
<glyph unicode="&#x3e;" d="M1013 729v-109l-801 -419v194q0 22 10.5 40t36.5 30l327 171q25 12 52 21.5t58 16.5q-31 7 -58 16.5t-52 21.5l-327 172q-26 12 -36.5 30t-10.5 39v194z" />
<glyph unicode="?" horiz-adv-x="930" d="M66 1319q36 31 77.5 58t90 47t105 31.5t121.5 11.5q90 0 163 -24.5t125 -70t80.5 -109.5t28.5 -143q0 -76 -21.5 -131.5t-54 -96.5t-71.5 -71t-74 -56t-60.5 -51.5t-31.5 -56.5l-25 -143h-189l-19 162q-7 48 12 83.5t51 65t71.5 57t74 59t58 71t23.5 93.5q0 66 -45.5 105 t-120.5 39q-55 0 -92.5 -12t-64.5 -26.5t-46 -26.5t-36 -12q-38 0 -57 33zM253 145q0 33 12.5 62.5t34.5 51t51.5 34t64.5 12.5q34 0 64 -12.5t52 -34t34.5 -51t12.5 -62.5q0 -34 -12.5 -63t-34.5 -50.5t-52 -33.5t-64 -12q-35 0 -64.5 12t-51.5 33.5t-34.5 50.5t-12.5 63z " />
<glyph unicode="@" horiz-adv-x="1692" d="M1018 796q-14 2 -28.5 3t-29.5 1q-57 0 -107 -25.5t-87.5 -69t-59 -100.5t-21.5 -120q0 -62 25 -94.5t73 -32.5q24 0 48 7.5t46 26t39.5 49t29.5 77.5zM1158 547q-14 -59 -14.5 -97.5t10.5 -60.5t31.5 -30.5t47.5 -8.5q39 0 74 26t61 72.5t41 110t15 138.5 q0 127 -39 224.5t-109.5 162.5t-169.5 98.5t-218 33.5q-87 0 -165.5 -22t-145.5 -62.5t-121 -97.5t-92 -127t-58.5 -150.5t-20.5 -168.5q0 -162 50 -285t137.5 -205t206.5 -123.5t258 -41.5q78 0 144.5 8.5t122 22.5t99.5 32t77 37q29 16 50.5 9.5t31.5 -32.5l38 -97 q-103 -68 -242.5 -111t-320.5 -43q-184 0 -340 57.5t-269.5 165t-177.5 261t-64 345.5q0 106 28 207t79 190t123.5 163.5t161.5 128t192.5 83.5t217.5 30q95 0 186.5 -21.5t173 -63t150 -102t118 -137.5t77 -169.5t27.5 -199.5t-32 -200.5t-89 -163.5t-135.5 -110 t-171.5 -40q-66 0 -120 30t-78 99q-59 -69 -124.5 -98.5t-141.5 -29.5q-64 0 -111.5 22t-79.5 61.5t-48 93.5t-16 117q0 57 14.5 115.5t43.5 113t73 102.5t103 83.5t133.5 56t165.5 20.5q41 0 75 -3t64 -9t56.5 -15t53.5 -20z" />
<glyph unicode="A" horiz-adv-x="1404" d="M918 551l-157 444q-14 35 -29.5 82t-29.5 102q-14 -56 -29.5 -103.5t-29.5 -82.5l-156 -442h431zM1422 0h-233q-39 0 -63.5 18.5t-36.5 47.5l-98 277h-578l-98 -277q-10 -25 -35 -45.5t-63 -20.5h-235l567 1451h307z" />
<glyph unicode="B" horiz-adv-x="1327" d="M709 230q72 0 118.5 17.5t74.5 46.5t39 66.5t11 77.5q0 44 -13 79t-42 59.5t-75.5 37.5t-114.5 13h-255v-397h257zM452 1223v-392h197q63 0 112 10.5t82 33.5t50.5 60.5t17.5 90.5q0 54 -14.5 92t-44.5 61t-76 33.5t-109 10.5h-215zM667 1451q146 0 249.5 -27.5t169 -78 t95.5 -122.5t30 -161q0 -50 -14.5 -96t-45 -86.5t-78.5 -73.5t-114 -56q148 -35 219 -114t71 -205q0 -92 -35.5 -171t-103.5 -137t-167.5 -90.5t-228.5 -32.5h-562v1451h515z" />
<glyph unicode="C" horiz-adv-x="1318" d="M1140 357q25 0 42 -18l119 -127q-88 -112 -218.5 -170t-310.5 -58q-163 0 -293 55.5t-221 154.5t-140 235t-49 297q0 108 23.5 205.5t68.5 179.5t108.5 148t143.5 112.5t174.5 71t201.5 24.5q80 0 151.5 -14t133.5 -39t114.5 -60.5t94.5 -77.5l-101 -138q-9 -13 -23 -23 t-38 -10t-48.5 17t-60 38t-89 38t-135.5 17q-91 0 -167 -33t-130.5 -95.5t-84.5 -153.5t-30 -207q0 -117 32.5 -208.5t89 -154.5t132 -95.5t161.5 -32.5q51 0 92.5 5t77 17t67 31t63.5 48q11 9 23 15t26 6z" />
<glyph unicode="D" horiz-adv-x="1522" d="M1453 726q0 -159 -53.5 -292.5t-151 -229.5t-234.5 -150t-304 -54h-558v1451h558q167 0 304 -54t234.5 -150.5t151 -229.5t53.5 -291zM1145 726q0 114 -30 205t-86 154t-136.5 97t-182.5 34h-256v-981h256q102 0 182.5 33.5t136.5 97t86 154.5t30 206z" />
<glyph unicode="E" horiz-adv-x="1148" d="M454 1216v-373h484v-227h-484v-381h622v-235h-924v1451h924v-235h-622z" />
<glyph unicode="F" horiz-adv-x="1132" d="M454 1216v-401h522v-236h-522v-579h-302v1451h924v-235h-622z" />
<glyph unicode="G" horiz-adv-x="1449" d="M858 739h498v-599q-111 -81 -236.5 -118.5t-265.5 -37.5q-179 0 -324 55.5t-248 154.5t-159 235t-56 297q0 163 53.5 299t152.5 234t239.5 153t314.5 55q90 0 168 -14.5t144 -40t121 -60.5t100 -77l-87 -134q-20 -32 -52 -39t-70 16q-36 22 -70.5 39.5t-73.5 30.5t-85 20 t-106 7q-101 0 -183 -35t-139.5 -99t-88.5 -154t-31 -201q0 -120 34 -214.5t96 -159.5t148.5 -99t192.5 -34q72 0 128.5 14.5t110.5 39.5v244h-164q-29 0 -45.5 15.5t-16.5 39.5v167z" />
<glyph unicode="H" horiz-adv-x="1547" d="M1395 1451v-1451h-302v625h-639v-625h-302v1451h302v-616h639v616h302z" />
<glyph unicode="I" horiz-adv-x="606" d="M454 0h-302v1451h302v-1451z" />
<glyph unicode="J" horiz-adv-x="864" d="M726 520q0 -122 -30 -220.5t-90.5 -169t-151.5 -108.5t-212 -38q-55 0 -108.5 6.5t-112.5 20.5l8 88l8 88q3 24 19 38.5t46 14.5q17 0 43.5 -6t65.5 -6q54 0 94 15t67 49t40.5 88.5t13.5 132.5v938h300v-931z" />
<glyph unicode="K" horiz-adv-x="1390" d="M452 852h59q74 0 107 46l367 491q26 35 57 48.5t76 13.5h260l-462 -595q-45 -58 -93 -83q35 -14 63 -36.5t54 -59.5l474 -677h-267q-26 0 -44.5 4t-32.5 11t-24 17.5t-19 24.5l-373 522q-19 27 -45 38.5t-73 11.5h-84v-629h-300v1451h300v-599z" />
<glyph unicode="L" horiz-adv-x="1044" d="M1013 244v-244h-861v1451h300v-1207h561z" />
<glyph unicode="M" horiz-adv-x="1903" d="M1752 1451v-1451h-265v891q0 28 1.5 60t5.5 65l-415 -787q-34 -65 -105 -65h-42q-35 0 -62 16.5t-43 48.5l-417 790q3 -35 5 -67.5t2 -60.5v-891h-265v1451h228q19 0 34 -1t26.5 -5.5t21 -14t18.5 -26.5l406 -774q19 -35 35.5 -72t31.5 -76q15 40 31.5 78t35.5 73 l403 771q9 17 19 26.5t21.5 14t26 5.5t34.5 1h228z" />
<glyph unicode="N" horiz-adv-x="1547" d="M1395 1451v-1451h-155q-35 0 -59 11.5t-47 39.5l-723 920q3 -35 4.5 -69t1.5 -63v-839h-265v1451h158q19 0 32.5 -1.5t24.5 -7t21 -14.5t22 -24l728 -924q-4 38 -6 73.5t-2 67.5v830h265z" />
<glyph unicode="O" horiz-adv-x="1622" d="M1554 726q0 -159 -53.5 -295t-151 -235t-234.5 -155.5t-304 -56.5t-304 56.5t-235 155.5t-151.5 235t-53.5 295t53.5 294.5t151.5 234.5t235 155.5t304 56.5t304 -56.5t234.5 -156t151 -235t53.5 -293.5zM1247 726q0 114 -30 204.5t-86.5 154t-137 97t-182.5 33.5 t-183 -33.5t-137.5 -97t-86.5 -154t-30 -204.5q0 -115 30 -205.5t86.5 -153.5t137.5 -96.5t183 -33.5t182.5 33.5t137 96.5t86.5 153.5t30 205.5z" />
<glyph unicode="P" horiz-adv-x="1254" d="M642 729q141 0 206.5 68t65.5 186q0 54 -16.5 98.5t-50 76t-84.5 48.5t-121 17h-190v-494h190zM642 1451q149 0 257.5 -35t178.5 -97.5t103.5 -148.5t33.5 -187q0 -107 -35 -196t-106 -153t-179 -99.5t-253 -35.5h-190v-499h-300v1451h490z" />
<glyph unicode="Q" horiz-adv-x="1623" d="M375 726q0 -115 30 -205.5t86.5 -153.5t137.5 -96.5t183 -33.5t182.5 33.5t137 96.5t86.5 153.5t30 205.5q0 114 -30 204.5t-86.5 154t-137 97t-182.5 33.5t-183 -33.5t-137.5 -97t-86.5 -154t-30 -204.5zM1633 -278h-247q-54 0 -96.5 14t-78.5 52l-197 219 q-97 -23 -202 -23q-167 0 -304 56.5t-235 155.5t-151.5 235t-53.5 295t53.5 294.5t151.5 234.5t235 155.5t304 56.5t304 -56.5t234.5 -156t151 -235t53.5 -293.5q0 -96 -19.5 -183.5t-56.5 -164t-91 -141.5t-122 -114z" />
<glyph unicode="R" horiz-adv-x="1299" d="M606 764q73 0 126 18.5t87 51t50 76.5t16 96q0 103 -68.5 160t-208.5 57h-156v-459h154zM1309 0h-271q-76 0 -110 58l-276 445q-17 26 -37.5 38t-60.5 12h-102v-553h-300v1451h456q152 0 260 -31.5t177 -87.5t101 -133.5t32 -170.5q0 -72 -20.5 -136.5t-59.5 -117.5 t-96 -94t-130 -66q29 -16 54 -38.5t45 -53.5z" />
<glyph unicode="S" horiz-adv-x="1102" d="M938 1173q-14 -23 -28.5 -33.5t-37.5 -10.5q-22 0 -47.5 15.5t-59.5 33.5t-78 33.5t-103 15.5q-104 0 -156 -46.5t-52 -121.5q0 -48 28.5 -79.5t75 -54.5t105.5 -41t121 -39.5t121 -50.5t105.5 -73t75 -107.5t28.5 -154.5q0 -99 -34.5 -185.5t-99.5 -151t-160.5 -101.5 t-216.5 -37q-69 0 -137.5 14t-132 39t-119.5 60t-98 78l88 142q11 16 29 26.5t38 10.5q27 0 57 -20t69 -44t90.5 -44t123.5 -20q105 0 162.5 48t57.5 143q0 55 -28.5 89t-74.5 57t-105 39.5t-121 36.5t-121 48t-105 74t-74.5 114t-28.5 169q0 81 32 157t94 135t152.5 95 t207.5 36q131 0 242.5 -40.5t188.5 -112.5z" />
<glyph unicode="T" horiz-adv-x="1208" d="M1179 1209h-424v-1209h-301v1209h-424v242h1149v-242z" />
<glyph unicode="U" horiz-adv-x="1491" d="M746 240q73 0 131 24.5t98 69.5t61 109t21 144v864h300v-864q0 -132 -42.5 -242.5t-121.5 -190.5t-192 -125t-255 -45t-255.5 45t-192.5 125t-121.5 190.5t-42.5 242.5v864h300v-864q0 -80 21 -144t61 -109t98 -69.5t132 -24.5z" />
<glyph unicode="V" horiz-adv-x="1404" d="M1422 1451l-584 -1451h-272l-584 1451h242q39 0 63.5 -18.5t36.5 -47.5l314 -836q18 -47 35.5 -102.5t32.5 -116.5q13 61 28.5 116.5t33.5 102.5l312 836q10 25 35.5 45.5t63.5 20.5h243z" />
<glyph unicode="W" horiz-adv-x="2115" d="M2104 1451l-450 -1451h-271l-297 949q-7 20 -14 44t-13 51q-6 -27 -13 -51t-14 -44l-300 -949h-272l-449 1451h252q39 0 65.5 -18t34.5 -48l225 -818q8 -34 16.5 -73.5t16.5 -83.5q9 45 19 84t22 73l262 818q8 25 34.5 45.5t64.5 20.5h88q39 0 63.5 -18.5t36.5 -47.5 l261 -818q12 -32 22 -69.5t19 -79.5q8 42 15.5 79.5t15.5 69.5l225 818q7 26 34 46t65 20h236z" />
<glyph unicode="X" horiz-adv-x="1359" d="M1361 0h-300q-30 0 -48.5 15t-29.5 35l-314 534q-5 -11 -9.5 -21.5t-10.5 -19.5l-298 -493q-13 -19 -30.5 -34.5t-44.5 -15.5h-280l475 747l-457 704h300q30 0 44 -8t25 -26l312 -513q5 12 11 24.5t14 25.5l280 458q12 20 26.5 29.5t35.5 9.5h287l-461 -691z" />
<glyph unicode="Y" horiz-adv-x="1316" d="M808 558v-558h-300v558l-527 893h264q39 0 62.5 -18.5t37.5 -47.5l238 -457q24 -46 43.5 -86t34.5 -80q14 40 32.5 80.5t41.5 85.5l236 457q12 24 36 45t62 21h266z" />
<glyph unicode="Z" horiz-adv-x="1214" d="M1165 1341q0 -23 -7.5 -46.5t-21.5 -43.5l-716 -1016h725v-235h-1110v117q0 21 7 41.5t20 37.5l718 1020h-694v235h1079v-110z" />
<glyph unicode="[" horiz-adv-x="633" d="M388 1376v-1516h125q32 0 52.5 -20.5t20.5 -48.5v-106h-428v1867h428v-107q0 -28 -20.5 -48.5t-52.5 -20.5h-125z" />
<glyph unicode="\" horiz-adv-x="944" d="M55 1491h117q49 0 86 -25t54 -70l577 -1493h-117q-44 0 -85 25.5t-61 75.5z" />
<glyph unicode="]" horiz-adv-x="633" d="M475 -315h-427v106q0 28 20 48.5t52 20.5h125v1516h-125q-32 0 -52 20.5t-20 48.5v107h427v-1867z" />
<glyph unicode="^" d="M1075 676h-202q-25 0 -41.5 12t-26.5 32l-174 363q-17 35 -30 65.5t-23 61.5q-9 -31 -21 -61.5t-27 -65.5l-161 -363q-8 -19 -26 -31.5t-45 -12.5h-213l401 775h179z" />
<glyph unicode="_" horiz-adv-x="939" d="M863 -122v-176h-788v176h788z" />
<glyph unicode="`" horiz-adv-x="800" d="M316 1467q43 0 64.5 -14t37.5 -42l139 -244h-156q-31 0 -50.5 8.5t-39.5 29.5l-253 262h258z" />
<glyph unicode="a" horiz-adv-x="1024" d="M653 431q-101 -5 -168 -17.5t-106.5 -32.5t-56 -45.5t-16.5 -55.5q0 -60 33.5 -85t93.5 -25q69 0 119.5 24.5t100.5 76.5v160zM91 888q91 82 201 122.5t238 40.5q92 0 164.5 -30t123 -83.5t77.5 -127.5t27 -162v-648h-126q-39 0 -59.5 11t-33.5 46l-22 66 q-39 -34 -75.5 -60t-75.5 -43.5t-83.5 -26.5t-99.5 -9q-68 0 -124 18t-96.5 53.5t-62.5 88.5t-22 122q0 57 29 114t99.5 103.5t188 77t294.5 34.5v53q0 97 -41 142.5t-118 45.5q-57 0 -95 -13.5t-66.5 -29t-53.5 -29t-58 -13.5q-29 0 -48.5 14.5t-32.5 34.5z" />
<glyph unicode="b" horiz-adv-x="1142" d="M390 272q39 -45 84.5 -63t94.5 -18q51 0 92.5 18.5t71.5 59t46 105.5t16 157q0 82 -13 139.5t-38.5 94.5t-62.5 54t-86 17q-65 0 -112.5 -28.5t-92.5 -83.5v-452zM390 912q61 61 135 98t166 37q89 0 160.5 -35.5t122 -101.5t78 -159.5t27.5 -209.5q0 -125 -31.5 -227.5 t-89.5 -175.5t-138.5 -113t-179.5 -40q-48 0 -86 9.5t-70 26.5t-59 40.5t-51 52.5l-11 -62q-7 -29 -23 -40.5t-43 -11.5h-183v1491h276v-579z" />
<glyph unicode="c" horiz-adv-x="968" d="M862 801q-12 -16 -24 -24.5t-34 -8.5q-20 0 -38.5 11.5t-42.5 25t-57 25t-82 11.5q-62 0 -107.5 -22.5t-75.5 -64.5t-44.5 -102t-14.5 -135q0 -158 63.5 -242t173.5 -84q38 0 65.5 6.5t48 16.5t35.5 22t28.5 22t27 16.5t30.5 6.5q32 0 50 -24l79 -100q-44 -51 -94 -84.5 t-103.5 -53t-108.5 -27t-109 -7.5q-95 0 -180 35.5t-149 103.5t-101.5 167t-37.5 226q0 113 33 210t97 168t158.5 111.5t218.5 40.5q118 0 207 -38t160 -110z" />
<glyph unicode="d" horiz-adv-x="1142" d="M751 763q-39 45 -84.5 63t-96.5 18q-50 0 -91 -19t-70.5 -59.5t-45.5 -103.5t-16 -150q0 -86 13 -146t37.5 -97t59.5 -53.5t78 -16.5q73 0 122.5 29t93.5 82v453zM1027 1491v-1491h-170q-53 0 -68 48l-23 90q-31 -34 -65.5 -62t-74.5 -48.5t-86 -31.5t-100 -11 q-83 0 -152 35t-119.5 102.5t-78.5 165.5t-28 224q0 115 31.5 214t89.5 171t140 113t182 41q84 0 141.5 -25t104.5 -68v533h276z" />
<glyph unicode="e" horiz-adv-x="1072" d="M768 637q0 43 -11.5 82t-36.5 69t-63 47.5t-91 17.5q-99 0 -155 -56t-73 -160h430zM334 473q13 -145 82.5 -212t181.5 -67q57 0 98.5 13.5t73 30t57 30t50.5 13.5q32 0 50 -24l80 -100q-44 -51 -97 -84.5t-110 -53t-115 -27t-112 -7.5q-108 0 -201.5 35.5t-163 105 t-109.5 172.5t-40 239q0 105 34.5 198t99.5 162t158 109.5t210 40.5q99 0 182.5 -31.5t144 -91.5t94 -147.5t33.5 -199.5q0 -31 -3 -51t-10 -32t-19 -16.5t-31 -4.5h-618z" />
<glyph unicode="f" horiz-adv-x="724" d="M189 0v833l-80 14q-31 6 -50.5 22t-19.5 46v110h150v68q0 88 27.5 159.5t78.5 121t125 76.5t167 27q36 0 68.5 -4.5t65.5 -13.5l-6 -136q-2 -31 -26.5 -40.5t-54.5 -9.5q-42 0 -75.5 -9t-56.5 -30.5t-35 -58t-12 -90.5v-60h256v-192h-247v-833h-275z" />
<glyph unicode="g" horiz-adv-x="1063" d="M498 554q85 0 125.5 43t40.5 111q0 71 -40.5 111.5t-125.5 40.5t-125 -40.5t-40 -111.5q0 -67 40.5 -110.5t124.5 -43.5zM759 -42q0 27 -17 44t-45.5 27t-67.5 14.5t-83 7t-91 4.5t-92 7q-35 -21 -57.5 -49.5t-22.5 -64.5q0 -25 11.5 -46t38.5 -36t71 -23.5t110 -8.5 q68 0 115 9t76 25.5t41.5 39.5t12.5 50zM1033 997v-101q0 -24 -13.5 -38t-44.5 -21l-84 -17q17 -49 17 -105q0 -77 -31.5 -138.5t-86.5 -105t-130 -67t-162 -23.5q-55 0 -103 9q-42 -26 -42 -57q0 -29 28.5 -42t75 -18.5t106 -7t121 -6.5t121 -17.5t106 -41t75 -75.5 t28.5 -121q0 -69 -34 -134t-98.5 -116t-158.5 -82t-214 -31q-119 0 -206.5 22.5t-145 60t-85.5 86.5t-28 102q0 69 42 117t116 77q-39 22 -62.5 57.5t-23.5 92.5q0 46 33.5 97t103.5 85q-79 42 -125 112.5t-46 164.5q0 77 31.5 139t87.5 105.5t132 66.5t165 23 q132 0 233 -52h302z" />
<glyph unicode="h" horiz-adv-x="1134" d="M390 930q29 26 60.5 47.5t67 37t76 24t87.5 8.5q84 0 149 -29t109.5 -81t67 -124t22.5 -158v-655h-275v655q0 86 -40 133.5t-118 47.5q-58 0 -109 -25t-97 -70v-741h-276v1491h276v-561z" />
<glyph unicode="i" horiz-adv-x="520" d="M398 1031v-1031h-276v1031h276zM431 1324q0 -35 -14 -65t-37.5 -53t-55 -36t-67.5 -13q-34 0 -64.5 13t-53.5 36t-36.5 53t-13.5 65t13.5 65.5t36.5 53.5t53.5 36t64.5 13q36 0 67.5 -13t55 -36t37.5 -53.5t14 -65.5z" />
<glyph unicode="j" horiz-adv-x="520" d="M398 1031v-1051q0 -70 -18 -131.5t-58.5 -107.5t-106 -73t-161.5 -27q-36 0 -67.5 5t-64.5 14l10 146q2 20 14.5 28t49.5 8t61 6.5t38.5 22.5t20.5 42.5t6 66.5v1051h276zM431 1324q0 -35 -14 -65t-37.5 -53t-55 -36t-67.5 -13q-34 0 -64.5 13t-53.5 36t-36.5 53 t-13.5 65t13.5 65.5t36.5 53.5t53.5 36t64.5 13q36 0 67.5 -13t55 -36t37.5 -53.5t14 -65.5z" />
<glyph unicode="k" horiz-adv-x="1091" d="M390 1491v-846h46q26 0 41 7.5t30 27.5l228 304q17 23 38.5 35t54.5 12h252l-296 -376q-35 -47 -81 -74q23 -16 40 -37t33 -47l319 -497h-248q-32 0 -55 10.5t-38 37.5l-232 379q-14 24 -29 31t-45 7h-58v-465h-276v1491h276z" />
<glyph unicode="l" horiz-adv-x="508" d="M392 1491v-1491h-276v1491h276z" />
<glyph unicode="m" horiz-adv-x="1687" d="M114 0v1031h170q52 0 69 -48l16 -67q27 28 55.5 52t61.5 41.5t71.5 27.5t83.5 10q95 0 157 -50.5t94 -134.5q25 49 61.5 84.5t80 57.5t92 32.5t97.5 10.5q87 0 154 -26t112.5 -76.5t69.5 -123.5t24 -166v-655h-276v655q0 181 -155 181q-35 0 -64.5 -11.5t-52 -34.5 t-35 -57t-12.5 -78v-655h-276v655q0 98 -38.5 139.5t-113.5 41.5q-48 0 -90.5 -22.5t-79.5 -62.5v-751h-276z" />
<glyph unicode="n" horiz-adv-x="1134" d="M370 911q31 30 64.5 55t71 43t81 28t94.5 10q84 0 149 -29t109.5 -81t67 -124t22.5 -158v-655h-275v655q0 86 -40 133.5t-118 47.5q-58 0 -109 -25t-97 -70v-741h-276v1031h170q52 0 69 -48z" />
<glyph unicode="o" horiz-adv-x="1155" d="M579 1047q116 0 211 -37t163 -105.5t105 -166.5t37 -221t-37 -221.5t-105 -167.5t-163 -106t-211 -37q-117 0 -212.5 37t-163.5 106t-105.5 167.5t-37.5 221.5t37.5 221t105.5 166.5t163.5 105.5t212.5 37zM579 192q118 0 175 81.5t57 242.5q0 160 -57 241.5t-175 81.5 q-121 0 -178 -81.5t-57 -241.5q0 -161 57 -242.5t178 -81.5z" />
<glyph unicode="p" horiz-adv-x="1142" d="M390 272q39 -45 84.5 -63t97.5 -18q50 0 91 19t70.5 59.5t45.5 103.5t16 150q0 86 -13.5 146t-38 97t-59.5 53.5t-78 16.5q-73 0 -122.5 -28.5t-93.5 -83.5v-452zM374 896q31 34 66 62.5t75 49t86 32t100 11.5q83 0 152.5 -35.5t119.5 -103t78 -165.5t28 -224 q0 -116 -31.5 -214.5t-89.5 -170.5t-139.5 -112.5t-181.5 -40.5q-84 0 -142.5 25t-104.5 68v-411h-276v1364h170q52 0 69 -48z" />
<glyph unicode="q" horiz-adv-x="1141" d="M751 763q-39 45 -84.5 63t-96.5 18q-50 0 -91 -19t-70.5 -59.5t-45.5 -103.5t-16 -150q0 -86 13 -146t37.5 -97t59.5 -53.5t78 -16.5q73 0 122.5 29t93.5 82v453zM1027 1031v-1364h-276v455q-60 -62 -135 -99.5t-176 -37.5q-83 0 -152 35t-119.5 102.5t-78.5 165.5 t-28 224q0 115 31.5 214t89.5 171t140 113t182 41q47 0 86 -8.5t71.5 -23.5t60 -37t53.5 -49l13 50q15 48 68 48h170z" />
<glyph unicode="r" horiz-adv-x="754" d="M373 861q49 88 113 139t150 51q70 0 114 -33l-18 -204q-5 -20 -15.5 -27.5t-28.5 -7.5q-16 0 -46 4.5t-56 4.5q-38 0 -67.5 -11t-52.5 -31t-41.5 -49t-34.5 -66v-631h-276v1031h163q42 0 58 -15t23 -52z" />
<glyph unicode="s" horiz-adv-x="885" d="M755 819q-11 -17 -22.5 -24.5t-31.5 -7.5t-41 10t-47 21.5t-59.5 21.5t-77.5 10q-67 0 -104 -27.5t-37 -72.5q0 -31 21 -52t55.5 -36.5t78.5 -29t90.5 -29.5t90.5 -37t78.5 -52.5t55.5 -76t21 -107.5q0 -75 -27.5 -138.5t-80.5 -109.5t-132 -72t-182 -26q-53 0 -105 9.5 t-99 27t-88 40.5t-71 50l64 103q11 18 27.5 28t42.5 10q25 0 46 -12.5t47 -27t61.5 -27t88.5 -12.5q40 0 69 9t47 24.5t26.5 35t8.5 40.5q0 34 -21.5 55.5t-56 37.5t-79.5 29t-91.5 29t-91 38t-79 55.5t-56 82.5t-21.5 119q0 64 25 121.5t75 101.5t124.5 70t172.5 26 q110 0 200 -36t148 -94z" />
<glyph unicode="t" horiz-adv-x="755" d="M470 -16q-70 0 -124 20.5t-91 58.5t-56 92t-19 122v556h-97q-22 0 -37.5 14t-15.5 42v108l165 30l56 267q11 45 61 45h144v-314h266v-192h-266v-538q0 -43 20.5 -68t58.5 -25q20 0 34 4.5t24 10t18.5 10t17.5 4.5q12 0 20 -5.5t16 -18.5l83 -132q-57 -45 -129 -68 t-149 -23z" />
<glyph unicode="u" horiz-adv-x="1133" d="M1019 1031v-1031h-170q-53 0 -68 48l-18 72q-31 -30 -64 -55t-70.5 -43t-81 -28t-94.5 -10q-84 0 -149.5 29t-109.5 81t-67 124t-23 158v655h276v-655q0 -86 39.5 -133.5t117.5 -47.5q58 0 109 25.5t97 69.5v741h276z" />
<glyph unicode="v" horiz-adv-x="1066" d="M1063 1031l-405 -1031h-250l-405 1031h229q30 0 50 -14t28 -36l173 -510q17 -52 30 -101.5t23 -99.5q11 50 24.5 99.5t31.5 101.5l179 510q7 22 27 36t47 14h218z" />
<glyph unicode="w" horiz-adv-x="1619" d="M1607 1031l-324 -1031h-223q-17 0 -30.5 11t-20.5 37l-168 558q-10 32 -17.5 63.5t-13.5 63.5q-7 -32 -14.5 -64.5t-17.5 -64.5l-170 -556q-14 -48 -60 -48h-212l-324 1031h220q30 0 50.5 -14t27.5 -36l127 -510q12 -49 21 -95t17 -91q12 45 25.5 91t28.5 95l151 512 q7 21 27 35t47 14h122q29 0 49.5 -14t27.5 -35l146 -512q14 -48 27 -94.5t24 -93.5q8 46 17.5 92.5t22.5 95.5l133 510q7 22 27 36t47 14h210z" />
<glyph unicode="x" horiz-adv-x="1064" d="M1065 0h-265q-30 0 -48.5 15t-29.5 35l-203 339q-9 -34 -26 -60l-174 -279q-12 -19 -29.5 -34.5t-44.5 -15.5h-246l350 532l-336 499h265q30 0 44 -8t25 -26l202 -327q5 17 13 34.5t19 34.5l155 253q24 39 62 39h253l-336 -487z" />
<glyph unicode="y" horiz-adv-x="1064" d="M1070 1031l-556 -1308q-13 -28 -31.5 -42t-58.5 -14h-205l195 416l-414 948h242q33 0 51 -15t26 -35l196 -493q11 -29 19.5 -58.5t16.5 -58.5q18 59 41 118l182 492q8 22 29 36t46 14h221z" />
<glyph unicode="z" horiz-adv-x="925" d="M867 919q0 -29 -10 -56.5t-26 -44.5l-463 -610h486v-208h-805v114q0 17 9.5 43t26.5 49l467 617h-474v208h789v-112z" />
<glyph unicode="{" horiz-adv-x="616" d="M500 1376q-67 0 -100.5 -41.5t-33.5 -114.5q0 -55 5 -105t11.5 -96.5t11.5 -91.5t5 -91q0 -38 -10.5 -72.5t-30.5 -63t-49.5 -50t-66.5 -32.5q37 -11 66.5 -32.5t49.5 -50t30.5 -63t10.5 -71.5q0 -46 -5 -91.5t-11.5 -92t-11.5 -96.5t-5 -105q0 -72 33.5 -114t100.5 -42 h5q7 0 17 -3t19 -10t15.5 -17t6.5 -25v-120h-53q-99 0 -171.5 25t-120 70.5t-70 110t-22.5 142.5q0 48 6 94.5t13.5 93t14 92t6.5 91.5q0 60 -26 98t-88 38v156q62 0 88 38t26 98q0 46 -6.5 91.5t-14 92t-13.5 93t-6 94.5q0 78 22.5 142.5t70 110.5t120 71t171.5 25h53v-121 q0 -15 -6.5 -25t-15.5 -17t-19 -10t-17 -3h-5z" />
<glyph unicode="|" horiz-adv-x="530" d="M158 1552h214v-1894h-214v1894z" />
<glyph unicode="}" horiz-adv-x="616" d="M564 540q-62 0 -88 -38t-26 -98q0 -46 6 -91.5t13.5 -92t14 -93t6.5 -94.5q0 -78 -22.5 -142.5t-70 -110t-120 -70.5t-171.5 -25h-53v120q0 15 6 25t15 17t19 10t18 3h5q67 0 100.5 42t33.5 114q0 55 -5 105t-11.5 96.5t-11.5 92t-5 91.5q0 37 10.5 71.5t30.5 63t49.5 50 t67.5 32.5q-38 11 -67.5 32.5t-49.5 50t-30.5 63t-10.5 72.5q0 46 5 91t11.5 91.5t11.5 96.5t5 105q0 73 -33.5 114.5t-100.5 41.5h-5q-8 0 -18 3t-19 10t-15 17t-6 25v121h53q99 0 171.5 -25t120 -71t70 -110.5t22.5 -142.5q0 -48 -6.5 -94.5t-14 -93t-13.5 -92t-6 -91.5 q0 -60 26 -98t88 -38v-156z" />
<glyph unicode="~" d="M741 661q53 0 81.5 33.5t28.5 96.5h222q0 -81 -21 -145.5t-61.5 -110.5t-99 -70.5t-132.5 -24.5q-53 0 -101 13t-90 28t-77.5 28t-65.5 13q-53 0 -81.5 -33.5t-28.5 -96.5h-222q0 81 21 146t61.5 110.5t99 70.5t132.5 25q53 0 101 -13t90 -28.5t77.5 -28.5t65.5 -13z" />
<glyph unicode="&#xad;" horiz-adv-x="747" d="M109 719h528v-226h-528v226z" />
<glyph unicode="&#x2000;" horiz-adv-x="825" />
<glyph unicode="&#x2001;" horiz-adv-x="1650" />
<glyph unicode="&#x2002;" horiz-adv-x="825" />
<glyph unicode="&#x2003;" horiz-adv-x="1650" />
<glyph unicode="&#x2004;" horiz-adv-x="550" />
<glyph unicode="&#x2005;" horiz-adv-x="412" />
<glyph unicode="&#x2006;" horiz-adv-x="275" />
<glyph unicode="&#x2007;" horiz-adv-x="275" />
<glyph unicode="&#x2008;" horiz-adv-x="206" />
<glyph unicode="&#x2009;" horiz-adv-x="330" />
<glyph unicode="&#x200a;" horiz-adv-x="125" />
<glyph unicode="&#x2010;" horiz-adv-x="747" d="M109 719h528v-226h-528v226z" />
<glyph unicode="&#x2011;" horiz-adv-x="747" d="M109 719h528v-226h-528v226z" />
<glyph unicode="&#x2012;" horiz-adv-x="747" d="M109 719h528v-226h-528v226z" />
<glyph unicode="&#x2013;" horiz-adv-x="1219" d="M109 719h1000v-226h-1000v226z" />
<glyph unicode="&#x2014;" horiz-adv-x="1599" d="M116 699h1368v-192h-1368v192z" />
<glyph unicode="&#x2018;" horiz-adv-x="447" d="M152 922q-51 82 -68.5 170t-2.5 173.5t62.5 164.5t127.5 142l86 -52q12 -7 16.5 -16t4 -18.5t-4.5 -18.5t-10 -15q-19 -22 -38.5 -61.5t-28 -90t0.5 -109.5t47 -119q20 -31 11 -54.5t-37 -32.5z" />
<glyph unicode="&#x2019;" horiz-adv-x="447" d="M301 1547q51 -82 68.5 -170t2.5 -173.5t-62.5 -164.5t-127.5 -142l-86 52q-12 7 -16.5 16.5t-4 19t4.5 18t10 14.5q19 22 38.5 61.5t27.5 90t-1 109.5t-46 119q-20 31 -11 54.5t36 32.5z" />
<glyph unicode="&#x201a;" horiz-adv-x="438" d="M279 316q51 -82 68.5 -170t2.5 -173.5t-62.5 -164.5t-127.5 -142l-86 52q-12 7 -16.5 16.5t-4 19t4.5 18t10 14.5q19 22 38.5 61.5t27.5 90t-1 109.5t-46 119q-20 31 -11 54.5t36 32.5z" />
<glyph unicode="&#x201c;" horiz-adv-x="791" d="M152 922q-51 82 -68.5 170t-2.5 173.5t62.5 164.5t127.5 142l86 -52q12 -7 16.5 -16t4 -18.5t-4.5 -18.5t-10 -15q-19 -22 -38.5 -61.5t-28 -90t0.5 -109.5t47 -119q20 -31 11 -54.5t-37 -32.5zM496 922q-51 82 -68.5 170t-2.5 173.5t62.5 164.5t127.5 142l86 -52 q12 -7 16.5 -16t4 -18.5t-4.5 -18.5t-10 -15q-19 -22 -38.5 -61.5t-28 -90t0.5 -109.5t47 -119q20 -31 11 -54.5t-37 -32.5z" />
<glyph unicode="&#x201d;" horiz-adv-x="791" d="M301 1547q51 -82 68.5 -170t2.5 -173.5t-62.5 -164.5t-127.5 -142l-86 52q-12 7 -16.5 16.5t-4 19t4.5 18t10 14.5q19 22 38.5 61.5t27.5 90t-1 109.5t-46 119q-20 31 -11 54.5t36 32.5zM645 1547q51 -82 68.5 -170t2.5 -173.5t-62.5 -164.5t-127.5 -142l-86 52 q-12 7 -16.5 16.5t-4 19t4.5 18t10 14.5q19 22 38.5 61.5t27.5 90t-1 109.5t-46 119q-20 31 -11 54.5t36 32.5z" />
<glyph unicode="&#x2022;" d="M117 593q0 94 36.5 177.5t99.5 145.5t147 98t179 36q96 0 180.5 -36t147.5 -98t99.5 -145.5t36.5 -177.5t-36.5 -176.5t-99.5 -144.5t-147.5 -98t-180.5 -36q-95 0 -179 36t-147 98t-99.5 144.5t-36.5 176.5z" />
<glyph unicode="&#x2026;" horiz-adv-x="1561" d="M75 145q0 33 12.5 62.5t34.5 51t51.5 34t64.5 12.5q34 0 64 -12.5t52 -34t34.5 -51t12.5 -62.5q0 -34 -12.5 -63t-34.5 -50.5t-52 -33.5t-64 -12q-35 0 -64.5 12t-51.5 33.5t-34.5 50.5t-12.5 63zM1159 145q0 33 12.5 62.5t34.5 51t51.5 34t64.5 12.5q34 0 64 -12.5 t52 -34t34.5 -51t12.5 -62.5q0 -34 -12.5 -63t-34.5 -50.5t-52 -33.5t-64 -12q-35 0 -64.5 12t-51.5 33.5t-34.5 50.5t-12.5 63zM617 145q0 33 12.5 62.5t34.5 51t51.5 34t64.5 12.5q34 0 64 -12.5t52 -34t34.5 -51t12.5 -62.5q0 -34 -12.5 -63t-34.5 -50.5t-52 -33.5 t-64 -12q-35 0 -64.5 12t-51.5 33.5t-34.5 50.5t-12.5 63z" />
<glyph unicode="&#x202f;" horiz-adv-x="330" />
<glyph unicode="&#x205f;" horiz-adv-x="412" />
<glyph unicode="&#x25fc;" horiz-adv-x="1030" d="M0 1030h1030v-1030h-1030v1030z" />
<hkern u1="&#x20;" u2="y" k="50" />
<hkern u1="&#x20;" u2="w" k="40" />
<hkern u1="&#x20;" u2="v" k="48" />
<hkern u1="&#x20;" u2="Y" k="83" />
<hkern u1="&#x20;" u2="W" k="7" />
<hkern u1="&#x20;" u2="V" k="76" />
<hkern u1="&#x20;" u2="T" k="61" />
<hkern u1="&#x20;" u2="J" k="57" />
<hkern u1="&#x20;" u2="A" k="68" />
<hkern u1="&#x22;" u2="&#x2f;" k="99" />
<hkern u1="&#x22;" u2="&#x2c;" k="214" />
<hkern u1="&#x22;" u2="&#x26;" k="36" />
<hkern u1="&#x26;" u2="&#x201d;" k="10" />
<hkern u1="&#x26;" u2="&#x2019;" k="10" />
<hkern u1="&#x26;" u2="y" k="5" />
<hkern u1="&#x26;" u2="x" k="-52" />
<hkern u1="&#x26;" u2="v" k="5" />
<hkern u1="&#x26;" u2="Z" k="-27" />
<hkern u1="&#x26;" u2="Y" k="119" />
<hkern u1="&#x26;" u2="X" k="-64" />
<hkern u1="&#x26;" u2="W" k="66" />
<hkern u1="&#x26;" u2="V" k="89" />
<hkern u1="&#x26;" u2="T" k="103" />
<hkern u1="&#x26;" u2="J" k="-31" />
<hkern u1="&#x26;" u2="A" k="-76" />
<hkern u1="&#x26;" u2="&#x27;" k="46" />
<hkern u1="&#x26;" u2="&#x22;" k="46" />
<hkern u1="&#x27;" u2="&#x2f;" k="99" />
<hkern u1="&#x27;" u2="&#x2c;" k="214" />
<hkern u1="&#x27;" u2="&#x26;" k="36" />
<hkern u1="&#x28;" u2="y" k="5" />
<hkern u1="&#x28;" u2="w" k="34" />
<hkern u1="&#x28;" u2="v" k="41" />
<hkern u1="&#x28;" u2="u" k="42" />
<hkern u1="&#x28;" u2="t" k="40" />
<hkern u1="&#x28;" u2="s" k="35" />
<hkern u1="&#x28;" u2="r" k="4" />
<hkern u1="&#x28;" u2="q" k="55" />
<hkern u1="&#x28;" u2="p" k="4" />
<hkern u1="&#x28;" u2="o" k="58" />
<hkern u1="&#x28;" u2="n" k="4" />
<hkern u1="&#x28;" u2="m" k="4" />
<hkern u1="&#x28;" u2="j" k="-55" />
<hkern u1="&#x28;" u2="f" k="32" />
<hkern u1="&#x28;" u2="e" k="58" />
<hkern u1="&#x28;" u2="d" k="55" />
<hkern u1="&#x28;" u2="c" k="58" />
<hkern u1="&#x28;" u2="a" k="36" />
<hkern u1="&#x28;" u2="Y" k="-22" />
<hkern u1="&#x28;" u2="V" k="-22" />
<hkern u1="&#x28;" u2="Q" k="40" />
<hkern u1="&#x28;" u2="O" k="40" />
<hkern u1="&#x28;" u2="G" k="40" />
<hkern u1="&#x28;" u2="C" k="40" />
<hkern u1="&#x2a;" u2="s" k="35" />
<hkern u1="&#x2a;" u2="q" k="57" />
<hkern u1="&#x2a;" u2="o" k="53" />
<hkern u1="&#x2a;" u2="g" k="38" />
<hkern u1="&#x2a;" u2="e" k="53" />
<hkern u1="&#x2a;" u2="d" k="57" />
<hkern u1="&#x2a;" u2="c" k="53" />
<hkern u1="&#x2a;" u2="a" k="34" />
<hkern u1="&#x2a;" u2="J" k="132" />
<hkern u1="&#x2a;" u2="A" k="113" />
<hkern u1="&#x2c;" u2="&#x201d;" k="223" />
<hkern u1="&#x2c;" u2="&#x201c;" k="224" />
<hkern u1="&#x2c;" u2="&#x2019;" k="223" />
<hkern u1="&#x2c;" u2="&#x2018;" k="224" />
<hkern u1="&#x2c;" u2="y" k="79" />
<hkern u1="&#x2c;" u2="w" k="45" />
<hkern u1="&#x2c;" u2="v" k="70" />
<hkern u1="&#x2c;" u2="Y" k="157" />
<hkern u1="&#x2c;" u2="W" k="99" />
<hkern u1="&#x2c;" u2="V" k="139" />
<hkern u1="&#x2c;" u2="U" k="34" />
<hkern u1="&#x2c;" u2="T" k="130" />
<hkern u1="&#x2c;" u2="Q" k="37" />
<hkern u1="&#x2c;" u2="O" k="37" />
<hkern u1="&#x2c;" u2="G" k="37" />
<hkern u1="&#x2c;" u2="C" k="37" />
<hkern u1="&#x2c;" u2="&#x27;" k="214" />
<hkern u1="&#x2c;" u2="&#x22;" k="214" />
<hkern u1="&#x2e;" u2="&#x201d;" k="223" />
<hkern u1="&#x2e;" u2="&#x201c;" k="224" />
<hkern u1="&#x2e;" u2="&#x2019;" k="223" />
<hkern u1="&#x2e;" u2="&#x2018;" k="224" />
<hkern u1="&#x2e;" u2="y" k="79" />
<hkern u1="&#x2e;" u2="w" k="43" />
<hkern u1="&#x2e;" u2="v" k="69" />
<hkern u1="&#x2e;" u2="Y" k="158" />
<hkern u1="&#x2e;" u2="W" k="99" />
<hkern u1="&#x2e;" u2="V" k="137" />
<hkern u1="&#x2e;" u2="U" k="33" />
<hkern u1="&#x2e;" u2="T" k="129" />
<hkern u1="&#x2e;" u2="Q" k="36" />
<hkern u1="&#x2e;" u2="O" k="36" />
<hkern u1="&#x2e;" u2="G" k="36" />
<hkern u1="&#x2e;" u2="C" k="36" />
<hkern u1="&#x2e;" u2="&#x27;" k="214" />
<hkern u1="&#x2e;" u2="&#x22;" k="214" />
<hkern u1="&#x2f;" u2="z" k="48" />
<hkern u1="&#x2f;" u2="x" k="31" />
<hkern u1="&#x2f;" u2="u" k="55" />
<hkern u1="&#x2f;" u2="t" k="35" />
<hkern u1="&#x2f;" u2="s" k="82" />
<hkern u1="&#x2f;" u2="r" k="60" />
<hkern u1="&#x2f;" u2="q" k="96" />
<hkern u1="&#x2f;" u2="p" k="60" />
<hkern u1="&#x2f;" u2="o" k="98" />
<hkern u1="&#x2f;" u2="n" k="60" />
<hkern u1="&#x2f;" u2="m" k="60" />
<hkern u1="&#x2f;" u2="g" k="89" />
<hkern u1="&#x2f;" u2="f" k="32" />
<hkern u1="&#x2f;" u2="e" k="98" />
<hkern u1="&#x2f;" u2="d" k="96" />
<hkern u1="&#x2f;" u2="c" k="98" />
<hkern u1="&#x2f;" u2="a" k="85" />
<hkern u1="&#x2f;" u2="Y" k="-14" />
<hkern u1="&#x2f;" u2="V" k="-13" />
<hkern u1="&#x2f;" u2="Q" k="29" />
<hkern u1="&#x2f;" u2="O" k="29" />
<hkern u1="&#x2f;" u2="J" k="107" />
<hkern u1="&#x2f;" u2="G" k="29" />
<hkern u1="&#x2f;" u2="C" k="29" />
<hkern u1="&#x2f;" u2="A" k="120" />
<hkern u1="&#x2f;" u2="&#x2f;" k="474" />
<hkern u1="&#x3a;" u2="Y" k="85" />
<hkern u1="&#x3a;" u2="W" k="30" />
<hkern u1="&#x3a;" u2="V" k="48" />
<hkern u1="&#x3a;" u2="T" k="102" />
<hkern u1="&#x3b;" u2="Y" k="86" />
<hkern u1="&#x3b;" u2="W" k="30" />
<hkern u1="&#x3b;" u2="V" k="48" />
<hkern u1="&#x3b;" u2="T" k="99" />
<hkern u1="&#x40;" u2="Y" k="73" />
<hkern u1="&#x40;" u2="V" k="33" />
<hkern u1="&#x40;" u2="T" k="41" />
<hkern u1="A" u2="&#x7d;" k="5" />
<hkern u1="A" u2="]" k="33" />
<hkern u1="A" u2="\" k="120" />
<hkern u1="A" u2="&#x2a;" k="113" />
<hkern u1="A" u2="&#x20;" k="68" />
<hkern u1="B" u2="&#x7d;" k="5" />
<hkern u1="B" u2="]" k="6" />
<hkern u1="C" u2="&#x2a;" k="-12" />
<hkern u1="D" u2="&#x7d;" k="41" />
<hkern u1="D" u2="]" k="49" />
<hkern u1="D" u2="&#x2f;" k="37" />
<hkern u1="D" u2="&#x2c;" k="37" />
<hkern u1="D" u2="&#x29;" k="36" />
<hkern u1="F" u2="&#x3b;" k="26" />
<hkern u1="F" u2="&#x3a;" k="26" />
<hkern u1="F" u2="&#x2f;" k="98" />
<hkern u1="F" u2="&#x2c;" k="162" />
<hkern u1="F" u2="&#x20;" k="49" />
<hkern u1="G" u2="]" k="4" />
<hkern u1="J" u2="&#x2f;" k="28" />
<hkern u1="J" u2="&#x2c;" k="6" />
<hkern u1="L" u2="\" k="144" />
<hkern u1="L" u2="&#x2a;" k="205" />
<hkern u1="L" u2="&#x20;" k="60" />
<hkern u1="O" u2="&#x7d;" k="40" />
<hkern u1="O" u2="]" k="47" />
<hkern u1="O" u2="&#x2f;" k="36" />
<hkern u1="O" u2="&#x2c;" k="36" />
<hkern u1="O" u2="&#x29;" k="34" />
<hkern u1="P" u2="]" k="5" />
<hkern u1="P" u2="&#x2f;" k="90" />
<hkern u1="P" u2="&#x2c;" k="178" />
<hkern u1="P" u2="&#x26;" k="4" />
<hkern u1="P" u2="&#x20;" k="56" />
<hkern u1="Q" u2="&#x201a;" k="-12" />
<hkern u1="Q" u2="&#x7d;" k="-12" />
<hkern u1="Q" u2="]" k="-16" />
<hkern u1="Q" u2="&#x2f;" k="36" />
<hkern u1="Q" u2="&#x2c;" k="36" />
<hkern u1="Q" u2="&#x29;" k="20" />
<hkern u1="S" u2="]" k="4" />
<hkern u1="T" u2="&#x40;" k="73" />
<hkern u1="T" u2="&#x3b;" k="99" />
<hkern u1="T" u2="&#x3a;" k="102" />
<hkern u1="T" u2="&#x2f;" k="129" />
<hkern u1="T" u2="&#x2c;" k="130" />
<hkern u1="T" u2="&#x26;" k="56" />
<hkern u1="T" u2="&#x20;" k="61" />
<hkern u1="U" u2="&#x2f;" k="39" />
<hkern u1="U" u2="&#x2c;" k="33" />
<hkern u1="V" u2="&#x7d;" k="-23" />
<hkern u1="V" u2="]" k="-28" />
<hkern u1="V" u2="\" k="-13" />
<hkern u1="V" u2="&#x40;" k="56" />
<hkern u1="V" u2="&#x3b;" k="46" />
<hkern u1="V" u2="&#x3a;" k="48" />
<hkern u1="V" u2="&#x2f;" k="139" />
<hkern u1="V" u2="&#x2c;" k="139" />
<hkern u1="V" u2="&#x29;" k="-22" />
<hkern u1="V" u2="&#x26;" k="64" />
<hkern u1="V" u2="&#x20;" k="75" />
<hkern u1="W" u2="&#x40;" k="32" />
<hkern u1="W" u2="&#x3b;" k="28" />
<hkern u1="W" u2="&#x3a;" k="30" />
<hkern u1="W" u2="&#x2f;" k="106" />
<hkern u1="W" u2="&#x2c;" k="99" />
<hkern u1="W" u2="&#x26;" k="47" />
<hkern u1="W" u2="&#x20;" k="7" />
<hkern u1="Y" u2="&#x7d;" k="-23" />
<hkern u1="Y" u2="]" k="-28" />
<hkern u1="Y" u2="\" k="-14" />
<hkern u1="Y" u2="&#x40;" k="100" />
<hkern u1="Y" u2="&#x3b;" k="84" />
<hkern u1="Y" u2="&#x3a;" k="85" />
<hkern u1="Y" u2="&#x2f;" k="159" />
<hkern u1="Y" u2="&#x2c;" k="158" />
<hkern u1="Y" u2="&#x29;" k="-22" />
<hkern u1="Y" u2="&#x26;" k="89" />
<hkern u1="Y" u2="&#x20;" k="83" />
<hkern u1="[" u2="z" k="44" />
<hkern u1="[" u2="y" k="40" />
<hkern u1="[" u2="x" k="39" />
<hkern u1="[" u2="w" k="47" />
<hkern u1="[" u2="v" k="57" />
<hkern u1="[" u2="u" k="54" />
<hkern u1="[" u2="t" k="52" />
<hkern u1="[" u2="s" k="58" />
<hkern u1="[" u2="r" k="50" />
<hkern u1="[" u2="q" k="65" />
<hkern u1="[" u2="p" k="50" />
<hkern u1="[" u2="o" k="68" />
<hkern u1="[" u2="n" k="50" />
<hkern u1="[" u2="m" k="50" />
<hkern u1="[" u2="j" k="-67" />
<hkern u1="[" u2="f" k="46" />
<hkern u1="[" u2="e" k="68" />
<hkern u1="[" u2="d" k="65" />
<hkern u1="[" u2="c" k="68" />
<hkern u1="[" u2="a" k="57" />
<hkern u1="[" u2="Y" k="-28" />
<hkern u1="[" u2="V" k="-28" />
<hkern u1="[" u2="S" k="5" />
<hkern u1="[" u2="Q" k="48" />
<hkern u1="[" u2="O" k="48" />
<hkern u1="[" u2="G" k="48" />
<hkern u1="[" u2="C" k="48" />
<hkern u1="[" u2="A" k="35" />
<hkern u1="\" u2="&#x201d;" k="92" />
<hkern u1="\" u2="&#x2019;" k="92" />
<hkern u1="\" u2="y" k="77" />
<hkern u1="\" u2="w" k="60" />
<hkern u1="\" u2="v" k="83" />
<hkern u1="\" u2="t" k="49" />
<hkern u1="\" u2="f" k="38" />
<hkern u1="\" u2="Y" k="160" />
<hkern u1="\" u2="W" k="106" />
<hkern u1="\" u2="V" k="139" />
<hkern u1="\" u2="U" k="38" />
<hkern u1="\" u2="T" k="130" />
<hkern u1="\" u2="Q" k="40" />
<hkern u1="\" u2="O" k="40" />
<hkern u1="\" u2="G" k="40" />
<hkern u1="\" u2="C" k="40" />
<hkern u1="\" u2="&#x27;" k="100" />
<hkern u1="\" u2="&#x22;" k="100" />
<hkern u1="a" u2="&#x7d;" k="50" />
<hkern u1="a" u2="]" k="56" />
<hkern u1="a" u2="\" k="91" />
<hkern u1="a" u2="&#x3f;" k="50" />
<hkern u1="a" u2="&#x2a;" k="42" />
<hkern u1="a" u2="&#x29;" k="34" />
<hkern u1="b" u2="&#x7d;" k="59" />
<hkern u1="b" u2="]" k="65" />
<hkern u1="b" u2="\" k="91" />
<hkern u1="b" u2="&#x3f;" k="63" />
<hkern u1="b" u2="&#x2f;" k="29" />
<hkern u1="b" u2="&#x2a;" k="51" />
<hkern u1="b" u2="&#x29;" k="56" />
<hkern u1="c" u2="&#x7d;" k="50" />
<hkern u1="c" u2="]" k="56" />
<hkern u1="c" u2="\" k="67" />
<hkern u1="c" u2="&#x3f;" k="31" />
<hkern u1="c" u2="&#x2a;" k="3" />
<hkern u1="c" u2="&#x29;" k="34" />
<hkern u1="e" u2="&#x7d;" k="57" />
<hkern u1="e" u2="]" k="61" />
<hkern u1="e" u2="\" k="88" />
<hkern u1="e" u2="&#x3f;" k="52" />
<hkern u1="e" u2="&#x2a;" k="45" />
<hkern u1="e" u2="&#x29;" k="45" />
<hkern u1="f" u2="&#x7d;" k="-13" />
<hkern u1="f" u2="]" k="-18" />
<hkern u1="f" u2="&#x2f;" k="60" />
<hkern u1="f" u2="&#x2c;" k="42" />
<hkern u1="f" u2="&#x29;" k="-12" />
<hkern u1="f" u2="&#x20;" k="39" />
<hkern u1="g" u2="\" k="40" />
<hkern u1="h" u2="&#x7d;" k="49" />
<hkern u1="h" u2="]" k="55" />
<hkern u1="h" u2="\" k="89" />
<hkern u1="h" u2="&#x3f;" k="49" />
<hkern u1="h" u2="&#x2a;" k="40" />
<hkern u1="h" u2="&#x29;" k="34" />
<hkern u1="k" u2="&#x7d;" k="6" />
<hkern u1="k" u2="]" k="38" />
<hkern u1="k" u2="\" k="43" />
<hkern u1="m" u2="&#x7d;" k="49" />
<hkern u1="m" u2="]" k="55" />
<hkern u1="m" u2="\" k="89" />
<hkern u1="m" u2="&#x3f;" k="49" />
<hkern u1="m" u2="&#x2a;" k="40" />
<hkern u1="m" u2="&#x29;" k="34" />
<hkern u1="n" u2="&#x7d;" k="49" />
<hkern u1="n" u2="]" k="55" />
<hkern u1="n" u2="\" k="89" />
<hkern u1="n" u2="&#x3f;" k="49" />
<hkern u1="n" u2="&#x2a;" k="40" />
<hkern u1="n" u2="&#x29;" k="34" />
<hkern u1="o" u2="&#x7d;" k="62" />
<hkern u1="o" u2="]" k="68" />
<hkern u1="o" u2="\" k="98" />
<hkern u1="o" u2="&#x3f;" k="64" />
<hkern u1="o" u2="&#x2a;" k="53" />
<hkern u1="o" u2="&#x29;" k="58" />
<hkern u1="p" u2="&#x7d;" k="59" />
<hkern u1="p" u2="]" k="65" />
<hkern u1="p" u2="\" k="91" />
<hkern u1="p" u2="&#x3f;" k="63" />
<hkern u1="p" u2="&#x2f;" k="29" />
<hkern u1="p" u2="&#x2a;" k="51" />
<hkern u1="p" u2="&#x29;" k="56" />
<hkern u1="q" u2="&#x7d;" k="44" />
<hkern u1="q" u2="]" k="50" />
<hkern u1="q" u2="\" k="59" />
<hkern u1="q" u2="&#x3f;" k="29" />
<hkern u1="q" u2="&#x29;" k="4" />
<hkern u1="r" u2="&#x7d;" k="45" />
<hkern u1="r" u2="]" k="51" />
<hkern u1="r" u2="&#x2f;" k="83" />
<hkern u1="r" u2="&#x2c;" k="80" />
<hkern u1="r" u2="&#x29;" k="40" />
<hkern u1="r" u2="&#x20;" k="41" />
<hkern u1="s" u2="&#x7d;" k="49" />
<hkern u1="s" u2="]" k="59" />
<hkern u1="s" u2="\" k="71" />
<hkern u1="s" u2="&#x3f;" k="38" />
<hkern u1="s" u2="&#x2a;" k="4" />
<hkern u1="s" u2="&#x29;" k="44" />
<hkern u1="t" u2="\" k="30" />
<hkern u1="u" u2="&#x7d;" k="44" />
<hkern u1="u" u2="]" k="50" />
<hkern u1="u" u2="\" k="59" />
<hkern u1="u" u2="&#x3f;" k="29" />
<hkern u1="u" u2="&#x29;" k="4" />
<hkern u1="v" u2="&#x7d;" k="51" />
<hkern u1="v" u2="]" k="57" />
<hkern u1="v" u2="&#x2f;" k="83" />
<hkern u1="v" u2="&#x2c;" k="69" />
<hkern u1="v" u2="&#x29;" k="41" />
<hkern u1="v" u2="&#x20;" k="48" />
<hkern u1="w" u2="&#x7d;" k="40" />
<hkern u1="w" u2="]" k="47" />
<hkern u1="w" u2="&#x2f;" k="60" />
<hkern u1="w" u2="&#x2c;" k="44" />
<hkern u1="w" u2="&#x29;" k="34" />
<hkern u1="w" u2="&#x20;" k="40" />
<hkern u1="x" u2="&#x7d;" k="6" />
<hkern u1="x" u2="]" k="39" />
<hkern u1="x" u2="\" k="31" />
<hkern u1="y" u2="&#x7d;" k="48" />
<hkern u1="y" u2="]" k="53" />
<hkern u1="y" u2="&#x2f;" k="83" />
<hkern u1="y" u2="&#x2c;" k="73" />
<hkern u1="y" u2="&#x29;" k="38" />
<hkern u1="y" u2="&#x20;" k="50" />
<hkern u1="z" u2="&#x7d;" k="39" />
<hkern u1="z" u2="]" k="44" />
<hkern u1="z" u2="\" k="43" />
<hkern u1="&#x7b;" u2="z" k="40" />
<hkern u1="&#x7b;" u2="y" k="35" />
<hkern u1="&#x7b;" u2="x" k="6" />
<hkern u1="&#x7b;" u2="w" k="40" />
<hkern u1="&#x7b;" u2="v" k="51" />
<hkern u1="&#x7b;" u2="u" k="48" />
<hkern u1="&#x7b;" u2="t" k="45" />
<hkern u1="&#x7b;" u2="s" k="53" />
<hkern u1="&#x7b;" u2="r" k="42" />
<hkern u1="&#x7b;" u2="q" k="59" />
<hkern u1="&#x7b;" u2="p" k="42" />
<hkern u1="&#x7b;" u2="o" k="62" />
<hkern u1="&#x7b;" u2="n" k="42" />
<hkern u1="&#x7b;" u2="m" k="42" />
<hkern u1="&#x7b;" u2="j" k="-62" />
<hkern u1="&#x7b;" u2="f" k="41" />
<hkern u1="&#x7b;" u2="e" k="62" />
<hkern u1="&#x7b;" u2="d" k="59" />
<hkern u1="&#x7b;" u2="c" k="62" />
<hkern u1="&#x7b;" u2="a" k="50" />
<hkern u1="&#x7b;" u2="Y" k="-23" />
<hkern u1="&#x7b;" u2="V" k="-23" />
<hkern u1="&#x7b;" u2="S" k="5" />
<hkern u1="&#x7b;" u2="Q" k="43" />
<hkern u1="&#x7b;" u2="O" k="43" />
<hkern u1="&#x7b;" u2="J" k="4" />
<hkern u1="&#x7b;" u2="G" k="43" />
<hkern u1="&#x7b;" u2="C" k="43" />
<hkern u1="&#x7b;" u2="A" k="5" />
<hkern u1="&#x2018;" u2="&#x2c;" k="224" />
<hkern u1="&#x2019;" u2="&#x40;" k="6" />
<hkern u1="&#x2019;" u2="&#x2f;" k="108" />
<hkern u1="&#x2019;" u2="&#x2c;" k="223" />
<hkern u1="&#x2019;" u2="&#x26;" k="38" />
<hkern u1="&#x2019;" u2="&#x20;" k="5" />
<hkern u1="&#x201c;" u2="&#x2c;" k="224" />
<hkern u1="&#x201d;" u2="&#x40;" k="6" />
<hkern u1="&#x201d;" u2="&#x2f;" k="108" />
<hkern u1="&#x201d;" u2="&#x2c;" k="223" />
<hkern u1="&#x201d;" u2="&#x26;" k="38" />
<hkern u1="&#x201d;" u2="&#x20;" k="5" />
<hkern g1="B" 	g2="i,j" 	k="17" />
<hkern g1="B" 	g2="Y" 	k="51" />
<hkern g1="B" 	g2="V" 	k="31" />
<hkern g1="B" 	g2="t" 	k="26" />
<hkern g1="B" 	g2="y" 	k="20" />
<hkern g1="B" 	g2="f" 	k="28" />
<hkern g1="B" 	g2="u" 	k="17" />
<hkern g1="B" 	g2="m,n,p,r" 	k="18" />
<hkern g1="B" 	g2="l" 	k="16" />
<hkern g1="B" 	g2="T" 	k="8" />
<hkern g1="B" 	g2="W" 	k="21" />
<hkern g1="B" 	g2="b,h,k" 	k="16" />
<hkern g1="B" 	g2="d,q" 	k="14" />
<hkern g1="B" 	g2="v" 	k="20" />
<hkern g1="B" 	g2="w" 	k="3" />
<hkern g1="B" 	g2="c,e,o" 	k="14" />
<hkern g1="B" 	g2="J" 	k="4" />
<hkern g1="B" 	g2="X" 	k="19" />
<hkern g1="B" 	g2="g" 	k="35" />
<hkern g1="B" 	g2="A" 	k="24" />
<hkern g1="B" 	g2="s" 	k="34" />
<hkern g1="B" 	g2="x" 	k="31" />
<hkern g1="B" 	g2="a" 	k="15" />
<hkern g1="B" 	g2="z" 	k="28" />
<hkern g1="C" 	g2="t" 	k="34" />
<hkern g1="C" 	g2="y" 	k="33" />
<hkern g1="C" 	g2="f" 	k="30" />
<hkern g1="C" 	g2="u" 	k="13" />
<hkern g1="C" 	g2="m,n,p,r" 	k="2" />
<hkern g1="C" 	g2="d,q" 	k="17" />
<hkern g1="C" 	g2="C,G,O,Q" 	k="32" />
<hkern g1="C" 	g2="v" 	k="32" />
<hkern g1="C" 	g2="w" 	k="21" />
<hkern g1="C" 	g2="c,e,o" 	k="22" />
<hkern g1="C" 	g2="g" 	k="23" />
<hkern g1="D" 	g2="i,j" 	k="16" />
<hkern g1="D" 	g2="Y" 	k="90" />
<hkern g1="D" 	g2="V" 	k="52" />
<hkern g1="D" 	g2="t" 	k="1" />
<hkern g1="D" 	g2="y" 	k="10" />
<hkern g1="D" 	g2="f" 	k="12" />
<hkern g1="D" 	g2="u" 	k="13" />
<hkern g1="D" 	g2="m,n,p,r" 	k="16" />
<hkern g1="D" 	g2="l" 	k="15" />
<hkern g1="D" 	g2="T" 	k="44" />
<hkern g1="D" 	g2="W" 	k="33" />
<hkern g1="D" 	g2="b,h,k" 	k="15" />
<hkern g1="D" 	g2="d,q" 	k="13" />
<hkern g1="D" 	g2="v" 	k="1" />
<hkern g1="D" 	g2="c,e,o" 	k="12" />
<hkern g1="D" 	g2="J" 	k="57" />
<hkern g1="D" 	g2="X" 	k="55" />
<hkern g1="D" 	g2="g" 	k="19" />
<hkern g1="D" 	g2="A" 	k="47" />
<hkern g1="D" 	g2="s" 	k="15" />
<hkern g1="D" 	g2="x" 	k="30" />
<hkern g1="D" 	g2="a" 	k="24" />
<hkern g1="D" 	g2="z" 	k="21" />
<hkern g1="D" 	g2="quotesinglbase" 	k="36" />
<hkern g1="D" 	g2="period,ellipsis" 	k="35" />
<hkern g1="D" 	g2="Z" 	k="31" />
<hkern g1="E" 	g2="i,j" 	k="1" />
<hkern g1="E" 	g2="t" 	k="38" />
<hkern g1="E" 	g2="y" 	k="29" />
<hkern g1="E" 	g2="f" 	k="35" />
<hkern g1="E" 	g2="u" 	k="29" />
<hkern g1="E" 	g2="m,n,p,r" 	k="19" />
<hkern g1="E" 	g2="l" 	k="2" />
<hkern g1="E" 	g2="b,h,k" 	k="2" />
<hkern g1="E" 	g2="d,q" 	k="33" />
<hkern g1="E" 	g2="C,G,O,Q" 	k="30" />
<hkern g1="E" 	g2="v" 	k="30" />
<hkern g1="E" 	g2="w" 	k="23" />
<hkern g1="E" 	g2="c,e,o" 	k="39" />
<hkern g1="E" 	g2="g" 	k="27" />
<hkern g1="E" 	g2="s" 	k="13" />
<hkern g1="E" 	g2="a" 	k="3" />
<hkern g1="F" 	g2="i,j" 	k="1" />
<hkern g1="F" 	g2="t" 	k="44" />
<hkern g1="F" 	g2="y" 	k="23" />
<hkern g1="F" 	g2="f" 	k="44" />
<hkern g1="F" 	g2="u" 	k="68" />
<hkern g1="F" 	g2="m,n,p,r" 	k="79" />
<hkern g1="F" 	g2="l" 	k="16" />
<hkern g1="F" 	g2="b,h,k" 	k="16" />
<hkern g1="F" 	g2="d,q" 	k="90" />
<hkern g1="F" 	g2="C,G,O,Q" 	k="13" />
<hkern g1="F" 	g2="v" 	k="24" />
<hkern g1="F" 	g2="w" 	k="19" />
<hkern g1="F" 	g2="c,e,o" 	k="91" />
<hkern g1="F" 	g2="J" 	k="158" />
<hkern g1="F" 	g2="g" 	k="98" />
<hkern g1="F" 	g2="A" 	k="120" />
<hkern g1="F" 	g2="s" 	k="94" />
<hkern g1="F" 	g2="x" 	k="37" />
<hkern g1="F" 	g2="a" 	k="132" />
<hkern g1="F" 	g2="z" 	k="69" />
<hkern g1="F" 	g2="quotesinglbase" 	k="166" />
<hkern g1="F" 	g2="period,ellipsis" 	k="164" />
<hkern g1="F" 	g2="S" 	k="9" />
<hkern g1="F" 	g2="hyphen,emdash" 	k="29" />
<hkern g1="G" 	g2="i,j" 	k="2" />
<hkern g1="G" 	g2="Y" 	k="40" />
<hkern g1="G" 	g2="V" 	k="30" />
<hkern g1="G" 	g2="t" 	k="28" />
<hkern g1="G" 	g2="y" 	k="33" />
<hkern g1="G" 	g2="f" 	k="31" />
<hkern g1="G" 	g2="u" 	k="15" />
<hkern g1="G" 	g2="m,n,p,r" 	k="14" />
<hkern g1="G" 	g2="l" 	k="2" />
<hkern g1="G" 	g2="T" 	k="1" />
<hkern g1="G" 	g2="W" 	k="12" />
<hkern g1="G" 	g2="b,h,k" 	k="2" />
<hkern g1="G" 	g2="d,q" 	k="11" />
<hkern g1="G" 	g2="v" 	k="31" />
<hkern g1="G" 	g2="w" 	k="17" />
<hkern g1="G" 	g2="c,e,o" 	k="12" />
<hkern g1="G" 	g2="g" 	k="19" />
<hkern g1="G" 	g2="A" 	k="19" />
<hkern g1="G" 	g2="s" 	k="11" />
<hkern g1="G" 	g2="x" 	k="15" />
<hkern g1="G" 	g2="a" 	k="2" />
<hkern g1="G" 	g2="z" 	k="14" />
<hkern g1="H,I,M,N" 	g2="i,j" 	k="14" />
<hkern g1="H,I,M,N" 	g2="t" 	k="27" />
<hkern g1="H,I,M,N" 	g2="y" 	k="21" />
<hkern g1="H,I,M,N" 	g2="f" 	k="32" />
<hkern g1="H,I,M,N" 	g2="u" 	k="20" />
<hkern g1="H,I,M,N" 	g2="m,n,p,r" 	k="15" />
<hkern g1="H,I,M,N" 	g2="l" 	k="15" />
<hkern g1="H,I,M,N" 	g2="b,h,k" 	k="15" />
<hkern g1="H,I,M,N" 	g2="d,q" 	k="29" />
<hkern g1="H,I,M,N" 	g2="v" 	k="20" />
<hkern g1="H,I,M,N" 	g2="w" 	k="12" />
<hkern g1="H,I,M,N" 	g2="c,e,o" 	k="31" />
<hkern g1="H,I,M,N" 	g2="g" 	k="33" />
<hkern g1="H,I,M,N" 	g2="s" 	k="24" />
<hkern g1="H,I,M,N" 	g2="x" 	k="2" />
<hkern g1="H,I,M,N" 	g2="a" 	k="24" />
<hkern g1="H,I,M,N" 	g2="z" 	k="20" />
<hkern g1="J" 	g2="i,j" 	k="16" />
<hkern g1="J" 	g2="t" 	k="23" />
<hkern g1="J" 	g2="y" 	k="14" />
<hkern g1="J" 	g2="f" 	k="26" />
<hkern g1="J" 	g2="u" 	k="28" />
<hkern g1="J" 	g2="m,n,p,r" 	k="27" />
<hkern g1="J" 	g2="l" 	k="17" />
<hkern g1="J" 	g2="b,h,k" 	k="17" />
<hkern g1="J" 	g2="d,q" 	k="31" />
<hkern g1="J" 	g2="v" 	k="14" />
<hkern g1="J" 	g2="w" 	k="2" />
<hkern g1="J" 	g2="c,e,o" 	k="32" />
<hkern g1="J" 	g2="J" 	k="26" />
<hkern g1="J" 	g2="g" 	k="43" />
<hkern g1="J" 	g2="A" 	k="23" />
<hkern g1="J" 	g2="s" 	k="37" />
<hkern g1="J" 	g2="x" 	k="16" />
<hkern g1="J" 	g2="a" 	k="35" />
<hkern g1="J" 	g2="z" 	k="32" />
<hkern g1="J" 	g2="quotesinglbase" 	k="3" />
<hkern g1="J" 	g2="period,ellipsis" 	k="4" />
<hkern g1="K" 	g2="t" 	k="86" />
<hkern g1="K" 	g2="y" 	k="106" />
<hkern g1="K" 	g2="f" 	k="56" />
<hkern g1="K" 	g2="u" 	k="51" />
<hkern g1="K" 	g2="d,q" 	k="56" />
<hkern g1="K" 	g2="C,G,O,Q" 	k="70" />
<hkern g1="K" 	g2="v" 	k="104" />
<hkern g1="K" 	g2="w" 	k="84" />
<hkern g1="K" 	g2="c,e,o" 	k="73" />
<hkern g1="K" 	g2="s" 	k="2" />
<hkern g1="K" 	g2="a" 	k="2" />
<hkern g1="K" 	g2="hyphen,emdash" 	k="48" />
<hkern g1="L" 	g2="Y" 	k="191" />
<hkern g1="L" 	g2="U" 	k="36" />
<hkern g1="L" 	g2="V" 	k="170" />
<hkern g1="L" 	g2="t" 	k="89" />
<hkern g1="L" 	g2="y" 	k="177" />
<hkern g1="L" 	g2="quotedbl,quotesingle" 	k="203" />
<hkern g1="L" 	g2="f" 	k="75" />
<hkern g1="L" 	g2="u" 	k="36" />
<hkern g1="L" 	g2="quoteright,quotedblright" 	k="201" />
<hkern g1="L" 	g2="T" 	k="175" />
<hkern g1="L" 	g2="W" 	k="134" />
<hkern g1="L" 	g2="d,q" 	k="32" />
<hkern g1="L" 	g2="C,G,O,Q" 	k="44" />
<hkern g1="L" 	g2="quoteleft,quotedblleft" 	k="202" />
<hkern g1="L" 	g2="v" 	k="173" />
<hkern g1="L" 	g2="w" 	k="138" />
<hkern g1="L" 	g2="c,e,o" 	k="43" />
<hkern g1="L" 	g2="s" 	k="3" />
<hkern g1="L" 	g2="hyphen,emdash" 	k="127" />
<hkern g1="O,Q" 	g2="i,j" 	k="15" />
<hkern g1="O,Q" 	g2="Y" 	k="88" />
<hkern g1="O,Q" 	g2="V" 	k="50" />
<hkern g1="O,Q" 	g2="t" 	k="1" />
<hkern g1="O,Q" 	g2="y" 	k="10" />
<hkern g1="O,Q" 	g2="f" 	k="12" />
<hkern g1="O,Q" 	g2="u" 	k="12" />
<hkern g1="O,Q" 	g2="m,n,p,r" 	k="16" />
<hkern g1="O,Q" 	g2="l" 	k="15" />
<hkern g1="O,Q" 	g2="T" 	k="43" />
<hkern g1="O,Q" 	g2="W" 	k="33" />
<hkern g1="O,Q" 	g2="b,h,k" 	k="15" />
<hkern g1="O,Q" 	g2="d,q" 	k="12" />
<hkern g1="O,Q" 	g2="v" 	k="1" />
<hkern g1="O,Q" 	g2="c,e,o" 	k="11" />
<hkern g1="O,Q" 	g2="J" 	k="56" />
<hkern g1="O,Q" 	g2="X" 	k="52" />
<hkern g1="O,Q" 	g2="g" 	k="19" />
<hkern g1="O,Q" 	g2="A" 	k="46" />
<hkern g1="O,Q" 	g2="s" 	k="15" />
<hkern g1="O,Q" 	g2="x" 	k="30" />
<hkern g1="O,Q" 	g2="a" 	k="24" />
<hkern g1="O,Q" 	g2="z" 	k="20" />
<hkern g1="O,Q" 	g2="quotesinglbase" 	k="35" />
<hkern g1="O,Q" 	g2="period,ellipsis" 	k="37" />
<hkern g1="O,Q" 	g2="Z" 	k="30" />
<hkern g1="P" 	g2="i,j" 	k="1" />
<hkern g1="P" 	g2="Y" 	k="40" />
<hkern g1="P" 	g2="V" 	k="26" />
<hkern g1="P" 	g2="u" 	k="2" />
<hkern g1="P" 	g2="m,n,p,r" 	k="14" />
<hkern g1="P" 	g2="l" 	k="2" />
<hkern g1="P" 	g2="b,h,k" 	k="2" />
<hkern g1="P" 	g2="d,q" 	k="44" />
<hkern g1="P" 	g2="c,e,o" 	k="44" />
<hkern g1="P" 	g2="J" 	k="158" />
<hkern g1="P" 	g2="X" 	k="23" />
<hkern g1="P" 	g2="g" 	k="31" />
<hkern g1="P" 	g2="A" 	k="101" />
<hkern g1="P" 	g2="s" 	k="23" />
<hkern g1="P" 	g2="a" 	k="30" />
<hkern g1="P" 	g2="quotesinglbase" 	k="182" />
<hkern g1="P" 	g2="period,ellipsis" 	k="182" />
<hkern g1="P" 	g2="hyphen,emdash" 	k="12" />
<hkern g1="R" 	g2="i,j" 	k="14" />
<hkern g1="R" 	g2="Y" 	k="72" />
<hkern g1="R" 	g2="U" 	k="13" />
<hkern g1="R" 	g2="V" 	k="48" />
<hkern g1="R" 	g2="t" 	k="39" />
<hkern g1="R" 	g2="y" 	k="40" />
<hkern g1="R" 	g2="f" 	k="34" />
<hkern g1="R" 	g2="u" 	k="40" />
<hkern g1="R" 	g2="m,n,p,r" 	k="14" />
<hkern g1="R" 	g2="l" 	k="13" />
<hkern g1="R" 	g2="T" 	k="34" />
<hkern g1="R" 	g2="W" 	k="35" />
<hkern g1="R" 	g2="b,h,k" 	k="13" />
<hkern g1="R" 	g2="d,q" 	k="52" />
<hkern g1="R" 	g2="C,G,O,Q" 	k="23" />
<hkern g1="R" 	g2="v" 	k="38" />
<hkern g1="R" 	g2="w" 	k="30" />
<hkern g1="R" 	g2="c,e,o" 	k="68" />
<hkern g1="R" 	g2="g" 	k="11" />
<hkern g1="R" 	g2="s" 	k="16" />
<hkern g1="R" 	g2="a" 	k="17" />
<hkern g1="S" 	g2="i,j" 	k="2" />
<hkern g1="S" 	g2="Y" 	k="35" />
<hkern g1="S" 	g2="V" 	k="31" />
<hkern g1="S" 	g2="t" 	k="44" />
<hkern g1="S" 	g2="y" 	k="50" />
<hkern g1="S" 	g2="f" 	k="47" />
<hkern g1="S" 	g2="u" 	k="17" />
<hkern g1="S" 	g2="m,n,p,r" 	k="18" />
<hkern g1="S" 	g2="l" 	k="13" />
<hkern g1="S" 	g2="W" 	k="11" />
<hkern g1="S" 	g2="b,h,k" 	k="13" />
<hkern g1="S" 	g2="d,q" 	k="1" />
<hkern g1="S" 	g2="v" 	k="46" />
<hkern g1="S" 	g2="w" 	k="30" />
<hkern g1="S" 	g2="c,e,o" 	k="2" />
<hkern g1="S" 	g2="J" 	k="1" />
<hkern g1="S" 	g2="X" 	k="2" />
<hkern g1="S" 	g2="g" 	k="27" />
<hkern g1="S" 	g2="A" 	k="31" />
<hkern g1="S" 	g2="s" 	k="23" />
<hkern g1="S" 	g2="x" 	k="47" />
<hkern g1="S" 	g2="a" 	k="13" />
<hkern g1="S" 	g2="z" 	k="32" />
<hkern g1="T" 	g2="i,j" 	k="10" />
<hkern g1="T" 	g2="t" 	k="134" />
<hkern g1="T" 	g2="y" 	k="167" />
<hkern g1="T" 	g2="f" 	k="109" />
<hkern g1="T" 	g2="u" 	k="177" />
<hkern g1="T" 	g2="m,n,p,r" 	k="194" />
<hkern g1="T" 	g2="l" 	k="18" />
<hkern g1="T" 	g2="b,h,k" 	k="18" />
<hkern g1="T" 	g2="d,q" 	k="235" />
<hkern g1="T" 	g2="C,G,O,Q" 	k="42" />
<hkern g1="T" 	g2="v" 	k="169" />
<hkern g1="T" 	g2="w" 	k="170" />
<hkern g1="T" 	g2="c,e,o" 	k="239" />
<hkern g1="T" 	g2="J" 	k="124" />
<hkern g1="T" 	g2="g" 	k="235" />
<hkern g1="T" 	g2="A" 	k="142" />
<hkern g1="T" 	g2="s" 	k="218" />
<hkern g1="T" 	g2="x" 	k="168" />
<hkern g1="T" 	g2="a" 	k="218" />
<hkern g1="T" 	g2="z" 	k="182" />
<hkern g1="T" 	g2="quotesinglbase" 	k="127" />
<hkern g1="T" 	g2="period,ellipsis" 	k="129" />
<hkern g1="T" 	g2="S" 	k="1" />
<hkern g1="T" 	g2="hyphen,emdash" 	k="122" />
<hkern g1="U" 	g2="i,j" 	k="17" />
<hkern g1="U" 	g2="t" 	k="21" />
<hkern g1="U" 	g2="y" 	k="13" />
<hkern g1="U" 	g2="f" 	k="26" />
<hkern g1="U" 	g2="u" 	k="30" />
<hkern g1="U" 	g2="m,n,p,r" 	k="34" />
<hkern g1="U" 	g2="l" 	k="16" />
<hkern g1="U" 	g2="b,h,k" 	k="16" />
<hkern g1="U" 	g2="d,q" 	k="33" />
<hkern g1="U" 	g2="v" 	k="13" />
<hkern g1="U" 	g2="w" 	k="2" />
<hkern g1="U" 	g2="c,e,o" 	k="34" />
<hkern g1="U" 	g2="J" 	k="44" />
<hkern g1="U" 	g2="g" 	k="46" />
<hkern g1="U" 	g2="A" 	k="37" />
<hkern g1="U" 	g2="s" 	k="41" />
<hkern g1="U" 	g2="x" 	k="19" />
<hkern g1="U" 	g2="a" 	k="43" />
<hkern g1="U" 	g2="z" 	k="35" />
<hkern g1="U" 	g2="quotesinglbase" 	k="31" />
<hkern g1="U" 	g2="period,ellipsis" 	k="33" />
<hkern g1="V" 	g2="t" 	k="69" />
<hkern g1="V" 	g2="y" 	k="46" />
<hkern g1="V" 	g2="f" 	k="62" />
<hkern g1="V" 	g2="u" 	k="104" />
<hkern g1="V" 	g2="m,n,p,r" 	k="114" />
<hkern g1="V" 	g2="l" 	k="2" />
<hkern g1="V" 	g2="b,h,k" 	k="2" />
<hkern g1="V" 	g2="d,q" 	k="154" />
<hkern g1="V" 	g2="C,G,O,Q" 	k="50" />
<hkern g1="V" 	g2="v" 	k="50" />
<hkern g1="V" 	g2="w" 	k="49" />
<hkern g1="V" 	g2="c,e,o" 	k="163" />
<hkern g1="V" 	g2="J" 	k="138" />
<hkern g1="V" 	g2="g" 	k="158" />
<hkern g1="V" 	g2="A" 	k="118" />
<hkern g1="V" 	g2="s" 	k="151" />
<hkern g1="V" 	g2="x" 	k="56" />
<hkern g1="V" 	g2="a" 	k="154" />
<hkern g1="V" 	g2="z" 	k="100" />
<hkern g1="V" 	g2="quotesinglbase" 	k="135" />
<hkern g1="V" 	g2="period,ellipsis" 	k="137" />
<hkern g1="V" 	g2="S" 	k="38" />
<hkern g1="V" 	g2="hyphen,emdash" 	k="64" />
<hkern g1="W" 	g2="i,j" 	k="11" />
<hkern g1="W" 	g2="t" 	k="62" />
<hkern g1="W" 	g2="y" 	k="38" />
<hkern g1="W" 	g2="f" 	k="58" />
<hkern g1="W" 	g2="u" 	k="84" />
<hkern g1="W" 	g2="m,n,p,r" 	k="95" />
<hkern g1="W" 	g2="l" 	k="17" />
<hkern g1="W" 	g2="b,h,k" 	k="17" />
<hkern g1="W" 	g2="d,q" 	k="118" />
<hkern g1="W" 	g2="C,G,O,Q" 	k="33" />
<hkern g1="W" 	g2="v" 	k="40" />
<hkern g1="W" 	g2="w" 	k="38" />
<hkern g1="W" 	g2="c,e,o" 	k="126" />
<hkern g1="W" 	g2="J" 	k="124" />
<hkern g1="W" 	g2="g" 	k="122" />
<hkern g1="W" 	g2="A" 	k="99" />
<hkern g1="W" 	g2="s" 	k="122" />
<hkern g1="W" 	g2="x" 	k="44" />
<hkern g1="W" 	g2="a" 	k="128" />
<hkern g1="W" 	g2="z" 	k="84" />
<hkern g1="W" 	g2="quotesinglbase" 	k="97" />
<hkern g1="W" 	g2="period,ellipsis" 	k="99" />
<hkern g1="W" 	g2="S" 	k="18" />
<hkern g1="W" 	g2="hyphen,emdash" 	k="38" />
<hkern g1="X" 	g2="t" 	k="89" />
<hkern g1="X" 	g2="y" 	k="97" />
<hkern g1="X" 	g2="f" 	k="66" />
<hkern g1="X" 	g2="u" 	k="64" />
<hkern g1="X" 	g2="m,n,p,r" 	k="20" />
<hkern g1="X" 	g2="l" 	k="2" />
<hkern g1="X" 	g2="b,h,k" 	k="2" />
<hkern g1="X" 	g2="d,q" 	k="65" />
<hkern g1="X" 	g2="C,G,O,Q" 	k="54" />
<hkern g1="X" 	g2="v" 	k="96" />
<hkern g1="X" 	g2="w" 	k="86" />
<hkern g1="X" 	g2="c,e,o" 	k="82" />
<hkern g1="X" 	g2="g" 	k="12" />
<hkern g1="X" 	g2="s" 	k="13" />
<hkern g1="X" 	g2="a" 	k="16" />
<hkern g1="X" 	g2="hyphen,emdash" 	k="47" />
<hkern g1="Y" 	g2="t" 	k="116" />
<hkern g1="Y" 	g2="y" 	k="108" />
<hkern g1="Y" 	g2="f" 	k="109" />
<hkern g1="Y" 	g2="u" 	k="176" />
<hkern g1="Y" 	g2="m,n,p,r" 	k="181" />
<hkern g1="Y" 	g2="l" 	k="2" />
<hkern g1="Y" 	g2="b,h,k" 	k="2" />
<hkern g1="Y" 	g2="d,q" 	k="224" />
<hkern g1="Y" 	g2="C,G,O,Q" 	k="88" />
<hkern g1="Y" 	g2="v" 	k="111" />
<hkern g1="Y" 	g2="w" 	k="111" />
<hkern g1="Y" 	g2="c,e,o" 	k="229" />
<hkern g1="Y" 	g2="J" 	k="150" />
<hkern g1="Y" 	g2="g" 	k="204" />
<hkern g1="Y" 	g2="A" 	k="154" />
<hkern g1="Y" 	g2="s" 	k="221" />
<hkern g1="Y" 	g2="x" 	k="112" />
<hkern g1="Y" 	g2="a" 	k="229" />
<hkern g1="Y" 	g2="z" 	k="155" />
<hkern g1="Y" 	g2="quotesinglbase" 	k="156" />
<hkern g1="Y" 	g2="period,ellipsis" 	k="157" />
<hkern g1="Y" 	g2="S" 	k="55" />
<hkern g1="Y" 	g2="hyphen,emdash" 	k="124" />
<hkern g1="Z" 	g2="i,j" 	k="1" />
<hkern g1="Z" 	g2="t" 	k="54" />
<hkern g1="Z" 	g2="y" 	k="55" />
<hkern g1="Z" 	g2="f" 	k="49" />
<hkern g1="Z" 	g2="u" 	k="37" />
<hkern g1="Z" 	g2="m,n,p,r" 	k="24" />
<hkern g1="Z" 	g2="l" 	k="2" />
<hkern g1="Z" 	g2="b,h,k" 	k="2" />
<hkern g1="Z" 	g2="d,q" 	k="35" />
<hkern g1="Z" 	g2="C,G,O,Q" 	k="30" />
<hkern g1="Z" 	g2="v" 	k="55" />
<hkern g1="Z" 	g2="w" 	k="44" />
<hkern g1="Z" 	g2="c,e,o" 	k="41" />
<hkern g1="Z" 	g2="g" 	k="26" />
<hkern g1="Z" 	g2="s" 	k="16" />
<hkern g1="Z" 	g2="a" 	k="2" />
<hkern g1="Z" 	g2="hyphen,emdash" 	k="3" />
<hkern g1="b,p" 	g2="f" 	k="21" />
<hkern g1="b,p" 	g2="w" 	k="14" />
<hkern g1="b,p" 	g2="C,G,O,Q" 	k="2" />
<hkern g1="b,p" 	g2="quoteright,quotedblright" 	k="40" />
<hkern g1="b,p" 	g2="quotedbl,quotesingle" 	k="46" />
<hkern g1="b,p" 	g2="Y" 	k="210" />
<hkern g1="b,p" 	g2="y" 	k="31" />
<hkern g1="b,p" 	g2="B,D,E,F,H,I,K,L,M,N,P,R" 	k="29" />
<hkern g1="b,p" 	g2="W" 	k="118" />
<hkern g1="b,p" 	g2="S" 	k="25" />
<hkern g1="b,p" 	g2="quoteleft,quotedblleft" 	k="48" />
<hkern g1="b,p" 	g2="V" 	k="154" />
<hkern g1="b,p" 	g2="v" 	k="28" />
<hkern g1="b,p" 	g2="X" 	k="76" />
<hkern g1="b,p" 	g2="Z" 	k="41" />
<hkern g1="b,p" 	g2="U" 	k="32" />
<hkern g1="b,p" 	g2="T" 	k="233" />
<hkern g1="b,p" 	g2="t" 	k="15" />
<hkern g1="b,p" 	g2="z" 	k="14" />
<hkern g1="b,p" 	g2="x" 	k="41" />
<hkern g1="b,p" 	g2="J" 	k="50" />
<hkern g1="b,p" 	g2="A" 	k="27" />
<hkern g1="c" 	g2="C,G,O,Q" 	k="16" />
<hkern g1="c" 	g2="quoteright,quotedblright" 	k="3" />
<hkern g1="c" 	g2="Y" 	k="181" />
<hkern g1="c" 	g2="B,D,E,F,H,I,K,L,M,N,P,R" 	k="3" />
<hkern g1="c" 	g2="W" 	k="89" />
<hkern g1="c" 	g2="S" 	k="2" />
<hkern g1="c" 	g2="V" 	k="118" />
<hkern g1="c" 	g2="U" 	k="29" />
<hkern g1="c" 	g2="T" 	k="201" />
<hkern g1="c" 	g2="c,e,o" 	k="18" />
<hkern g1="c" 	g2="d,q" 	k="13" />
<hkern g1="c" 	g2="hyphen,emdash" 	k="4" />
<hkern g1="d" 	g2="C,G,O,Q" 	k="14" />
<hkern g1="d" 	g2="Y" 	k="2" />
<hkern g1="d" 	g2="B,D,E,F,H,I,K,L,M,N,P,R" 	k="15" />
<hkern g1="d" 	g2="W" 	k="16" />
<hkern g1="d" 	g2="S" 	k="3" />
<hkern g1="d" 	g2="V" 	k="2" />
<hkern g1="d" 	g2="X" 	k="2" />
<hkern g1="d" 	g2="Z" 	k="13" />
<hkern g1="d" 	g2="U" 	k="16" />
<hkern g1="d" 	g2="T" 	k="18" />
<hkern g1="d" 	g2="J" 	k="11" />
<hkern g1="d" 	g2="A" 	k="1" />
<hkern g1="e" 	g2="f" 	k="17" />
<hkern g1="e" 	g2="w" 	k="16" />
<hkern g1="e" 	g2="C,G,O,Q" 	k="2" />
<hkern g1="e" 	g2="quoteright,quotedblright" 	k="32" />
<hkern g1="e" 	g2="quotedbl,quotesingle" 	k="41" />
<hkern g1="e" 	g2="Y" 	k="231" />
<hkern g1="e" 	g2="y" 	k="31" />
<hkern g1="e" 	g2="B,D,E,F,H,I,K,L,M,N,P,R" 	k="24" />
<hkern g1="e" 	g2="W" 	k="129" />
<hkern g1="e" 	g2="S" 	k="17" />
<hkern g1="e" 	g2="quoteleft,quotedblleft" 	k="42" />
<hkern g1="e" 	g2="V" 	k="162" />
<hkern g1="e" 	g2="v" 	k="28" />
<hkern g1="e" 	g2="X" 	k="32" />
<hkern g1="e" 	g2="Z" 	k="16" />
<hkern g1="e" 	g2="U" 	k="32" />
<hkern g1="e" 	g2="T" 	k="222" />
<hkern g1="e" 	g2="t" 	k="11" />
<hkern g1="e" 	g2="x" 	k="16" />
<hkern g1="e" 	g2="J" 	k="6" />
<hkern g1="e" 	g2="A" 	k="14" />
<hkern g1="f" 	g2="Y" 	k="-56" />
<hkern g1="f" 	g2="B,D,E,F,H,I,K,L,M,N,P,R" 	k="1" />
<hkern g1="f" 	g2="W" 	k="-29" />
<hkern g1="f" 	g2="S" 	k="2" />
<hkern g1="f" 	g2="V" 	k="-55" />
<hkern g1="f" 	g2="X" 	k="-26" />
<hkern g1="f" 	g2="J" 	k="116" />
<hkern g1="f" 	g2="A" 	k="82" />
<hkern g1="f" 	g2="c,e,o" 	k="24" />
<hkern g1="f" 	g2="d,q" 	k="22" />
<hkern g1="f" 	g2="hyphen,emdash" 	k="8" />
<hkern g1="f" 	g2="a" 	k="1" />
<hkern g1="f" 	g2="g" 	k="3" />
<hkern g1="f" 	g2="quotesinglbase" 	k="44" />
<hkern g1="f" 	g2="period,ellipsis" 	k="41" />
<hkern g1="g" 	g2="C,G,O,Q" 	k="13" />
<hkern g1="g" 	g2="Y" 	k="143" />
<hkern g1="g" 	g2="B,D,E,F,H,I,K,L,M,N,P,R" 	k="18" />
<hkern g1="g" 	g2="W" 	k="64" />
<hkern g1="g" 	g2="S" 	k="2" />
<hkern g1="g" 	g2="V" 	k="83" />
<hkern g1="g" 	g2="X" 	k="1" />
<hkern g1="g" 	g2="Z" 	k="2" />
<hkern g1="g" 	g2="U" 	k="24" />
<hkern g1="g" 	g2="T" 	k="185" />
<hkern g1="g" 	g2="A" 	k="1" />
<hkern g1="g" 	g2="c,e,o" 	k="19" />
<hkern g1="g" 	g2="d,q" 	k="15" />
<hkern g1="g" 	g2="g" 	k="1" />
<hkern g1="i,j" 	g2="C,G,O,Q" 	k="15" />
<hkern g1="i,j" 	g2="B,D,E,F,H,I,K,L,M,N,P,R" 	k="14" />
<hkern g1="i,j" 	g2="W" 	k="11" />
<hkern g1="i,j" 	g2="S" 	k="3" />
<hkern g1="i,j" 	g2="Z" 	k="12" />
<hkern g1="i,j" 	g2="U" 	k="16" />
<hkern g1="i,j" 	g2="T" 	k="10" />
<hkern g1="i,j" 	g2="J" 	k="10" />
<hkern g1="i,j" 	g2="A" 	k="1" />
<hkern g1="k" 	g2="C,G,O,Q" 	k="34" />
<hkern g1="k" 	g2="Y" 	k="113" />
<hkern g1="k" 	g2="W" 	k="52" />
<hkern g1="k" 	g2="V" 	k="67" />
<hkern g1="k" 	g2="U" 	k="23" />
<hkern g1="k" 	g2="T" 	k="168" />
<hkern g1="k" 	g2="c,e,o" 	k="50" />
<hkern g1="k" 	g2="d,q" 	k="43" />
<hkern g1="k" 	g2="hyphen,emdash" 	k="36" />
<hkern g1="h,m,n" 	g2="f" 	k="19" />
<hkern g1="h,m,n" 	g2="w" 	k="9" />
<hkern g1="h,m,n" 	g2="C,G,O,Q" 	k="18" />
<hkern g1="h,m,n" 	g2="quoteright,quotedblright" 	k="28" />
<hkern g1="h,m,n" 	g2="quotedbl,quotesingle" 	k="33" />
<hkern g1="h,m,n" 	g2="Y" 	k="214" />
<hkern g1="h,m,n" 	g2="y" 	k="29" />
<hkern g1="h,m,n" 	g2="B,D,E,F,H,I,K,L,M,N,P,R" 	k="21" />
<hkern g1="h,m,n" 	g2="W" 	k="105" />
<hkern g1="h,m,n" 	g2="S" 	k="14" />
<hkern g1="h,m,n" 	g2="quoteleft,quotedblleft" 	k="36" />
<hkern g1="h,m,n" 	g2="V" 	k="141" />
<hkern g1="h,m,n" 	g2="v" 	k="24" />
<hkern g1="h,m,n" 	g2="X" 	k="15" />
<hkern g1="h,m,n" 	g2="Z" 	k="15" />
<hkern g1="h,m,n" 	g2="U" 	k="42" />
<hkern g1="h,m,n" 	g2="T" 	k="238" />
<hkern g1="h,m,n" 	g2="t" 	k="14" />
<hkern g1="o" 	g2="f" 	k="27" />
<hkern g1="o" 	g2="w" 	k="18" />
<hkern g1="o" 	g2="C,G,O,Q" 	k="12" />
<hkern g1="o" 	g2="quoteright,quotedblright" 	k="41" />
<hkern g1="o" 	g2="quotedbl,quotesingle" 	k="49" />
<hkern g1="o" 	g2="Y" 	k="230" />
<hkern g1="o" 	g2="y" 	k="38" />
<hkern g1="o" 	g2="B,D,E,F,H,I,K,L,M,N,P,R" 	k="31" />
<hkern g1="o" 	g2="W" 	k="125" />
<hkern g1="o" 	g2="S" 	k="28" />
<hkern g1="o" 	g2="quoteleft,quotedblleft" 	k="50" />
<hkern g1="o" 	g2="V" 	k="162" />
<hkern g1="o" 	g2="v" 	k="33" />
<hkern g1="o" 	g2="X" 	k="80" />
<hkern g1="o" 	g2="Z" 	k="42" />
<hkern g1="o" 	g2="U" 	k="34" />
<hkern g1="o" 	g2="T" 	k="240" />
<hkern g1="o" 	g2="t" 	k="20" />
<hkern g1="o" 	g2="z" 	k="18" />
<hkern g1="o" 	g2="x" 	k="47" />
<hkern g1="o" 	g2="J" 	k="51" />
<hkern g1="o" 	g2="A" 	k="28" />
<hkern g1="o" 	g2="g" 	k="9" />
<hkern g1="r" 	g2="Y" 	k="112" />
<hkern g1="r" 	g2="B,D,E,F,H,I,K,L,M,N,P,R" 	k="17" />
<hkern g1="r" 	g2="W" 	k="35" />
<hkern g1="r" 	g2="S" 	k="2" />
<hkern g1="r" 	g2="V" 	k="47" />
<hkern g1="r" 	g2="X" 	k="109" />
<hkern g1="r" 	g2="Z" 	k="54" />
<hkern g1="r" 	g2="U" 	k="1" />
<hkern g1="r" 	g2="T" 	k="168" />
<hkern g1="r" 	g2="J" 	k="139" />
<hkern g1="r" 	g2="A" 	k="107" />
<hkern g1="r" 	g2="c,e,o" 	k="24" />
<hkern g1="r" 	g2="d,q" 	k="22" />
<hkern g1="r" 	g2="hyphen,emdash" 	k="11" />
<hkern g1="r" 	g2="a" 	k="12" />
<hkern g1="r" 	g2="g" 	k="6" />
<hkern g1="r" 	g2="quotesinglbase" 	k="83" />
<hkern g1="r" 	g2="period,ellipsis" 	k="79" />
<hkern g1="r" 	g2="s" 	k="2" />
<hkern g1="s" 	g2="C,G,O,Q" 	k="15" />
<hkern g1="s" 	g2="quoteright,quotedblright" 	k="3" />
<hkern g1="s" 	g2="Y" 	k="204" />
<hkern g1="s" 	g2="y" 	k="20" />
<hkern g1="s" 	g2="B,D,E,F,H,I,K,L,M,N,P,R" 	k="25" />
<hkern g1="s" 	g2="W" 	k="104" />
<hkern g1="s" 	g2="S" 	k="1" />
<hkern g1="s" 	g2="quoteleft,quotedblleft" 	k="3" />
<hkern g1="s" 	g2="V" 	k="125" />
<hkern g1="s" 	g2="v" 	k="18" />
<hkern g1="s" 	g2="X" 	k="36" />
<hkern g1="s" 	g2="Z" 	k="14" />
<hkern g1="s" 	g2="U" 	k="32" />
<hkern g1="s" 	g2="T" 	k="212" />
<hkern g1="s" 	g2="J" 	k="3" />
<hkern g1="s" 	g2="A" 	k="14" />
<hkern g1="s" 	g2="g" 	k="10" />
<hkern g1="t" 	g2="Y" 	k="119" />
<hkern g1="t" 	g2="W" 	k="48" />
<hkern g1="t" 	g2="V" 	k="68" />
<hkern g1="t" 	g2="U" 	k="14" />
<hkern g1="t" 	g2="T" 	k="173" />
<hkern g1="t" 	g2="c,e,o" 	k="9" />
<hkern g1="q,u" 	g2="C,G,O,Q" 	k="16" />
<hkern g1="q,u" 	g2="Y" 	k="180" />
<hkern g1="q,u" 	g2="B,D,E,F,H,I,K,L,M,N,P,R" 	k="15" />
<hkern g1="q,u" 	g2="W" 	k="92" />
<hkern g1="q,u" 	g2="S" 	k="3" />
<hkern g1="q,u" 	g2="V" 	k="110" />
<hkern g1="q,u" 	g2="X" 	k="20" />
<hkern g1="q,u" 	g2="Z" 	k="16" />
<hkern g1="q,u" 	g2="U" 	k="33" />
<hkern g1="q,u" 	g2="T" 	k="188" />
<hkern g1="q,u" 	g2="J" 	k="11" />
<hkern g1="v" 	g2="C,G,O,Q" 	k="1" />
<hkern g1="v" 	g2="Y" 	k="111" />
<hkern g1="v" 	g2="B,D,E,F,H,I,K,L,M,N,P,R" 	k="20" />
<hkern g1="v" 	g2="W" 	k="40" />
<hkern g1="v" 	g2="S" 	k="3" />
<hkern g1="v" 	g2="V" 	k="50" />
<hkern g1="v" 	g2="X" 	k="97" />
<hkern g1="v" 	g2="Z" 	k="47" />
<hkern g1="v" 	g2="U" 	k="13" />
<hkern g1="v" 	g2="T" 	k="169" />
<hkern g1="v" 	g2="J" 	k="138" />
<hkern g1="v" 	g2="A" 	k="85" />
<hkern g1="v" 	g2="c,e,o" 	k="33" />
<hkern g1="v" 	g2="d,q" 	k="32" />
<hkern g1="v" 	g2="a" 	k="26" />
<hkern g1="v" 	g2="g" 	k="27" />
<hkern g1="v" 	g2="quotesinglbase" 	k="71" />
<hkern g1="v" 	g2="period,ellipsis" 	k="69" />
<hkern g1="v" 	g2="s" 	k="25" />
<hkern g1="w" 	g2="Y" 	k="111" />
<hkern g1="w" 	g2="B,D,E,F,H,I,K,L,M,N,P,R" 	k="12" />
<hkern g1="w" 	g2="W" 	k="38" />
<hkern g1="w" 	g2="S" 	k="2" />
<hkern g1="w" 	g2="V" 	k="49" />
<hkern g1="w" 	g2="X" 	k="87" />
<hkern g1="w" 	g2="Z" 	k="36" />
<hkern g1="w" 	g2="U" 	k="2" />
<hkern g1="w" 	g2="T" 	k="170" />
<hkern g1="w" 	g2="J" 	k="117" />
<hkern g1="w" 	g2="A" 	k="62" />
<hkern g1="w" 	g2="c,e,o" 	k="18" />
<hkern g1="w" 	g2="d,q" 	k="18" />
<hkern g1="w" 	g2="a" 	k="14" />
<hkern g1="w" 	g2="g" 	k="14" />
<hkern g1="w" 	g2="quotesinglbase" 	k="45" />
<hkern g1="w" 	g2="period,ellipsis" 	k="43" />
<hkern g1="w" 	g2="s" 	k="13" />
<hkern g1="x" 	g2="C,G,O,Q" 	k="30" />
<hkern g1="x" 	g2="Y" 	k="112" />
<hkern g1="x" 	g2="B,D,E,F,H,I,K,L,M,N,P,R" 	k="2" />
<hkern g1="x" 	g2="W" 	k="44" />
<hkern g1="x" 	g2="S" 	k="1" />
<hkern g1="x" 	g2="V" 	k="56" />
<hkern g1="x" 	g2="U" 	k="19" />
<hkern g1="x" 	g2="T" 	k="168" />
<hkern g1="x" 	g2="c,e,o" 	k="47" />
<hkern g1="x" 	g2="d,q" 	k="40" />
<hkern g1="x" 	g2="hyphen,emdash" 	k="31" />
<hkern g1="y" 	g2="C,G,O,Q" 	k="1" />
<hkern g1="y" 	g2="Y" 	k="102" />
<hkern g1="y" 	g2="B,D,E,F,H,I,K,L,M,N,P,R" 	k="17" />
<hkern g1="y" 	g2="W" 	k="34" />
<hkern g1="y" 	g2="S" 	k="3" />
<hkern g1="y" 	g2="V" 	k="42" />
<hkern g1="y" 	g2="X" 	k="96" />
<hkern g1="y" 	g2="Z" 	k="43" />
<hkern g1="y" 	g2="U" 	k="2" />
<hkern g1="y" 	g2="T" 	k="161" />
<hkern g1="y" 	g2="J" 	k="142" />
<hkern g1="y" 	g2="A" 	k="90" />
<hkern g1="y" 	g2="c,e,o" 	k="34" />
<hkern g1="y" 	g2="d,q" 	k="32" />
<hkern g1="y" 	g2="a" 	k="24" />
<hkern g1="y" 	g2="g" 	k="25" />
<hkern g1="y" 	g2="quotesinglbase" 	k="75" />
<hkern g1="y" 	g2="period,ellipsis" 	k="74" />
<hkern g1="y" 	g2="s" 	k="22" />
<hkern g1="z" 	g2="C,G,O,Q" 	k="15" />
<hkern g1="z" 	g2="Y" 	k="140" />
<hkern g1="z" 	g2="B,D,E,F,H,I,K,L,M,N,P,R" 	k="20" />
<hkern g1="z" 	g2="W" 	k="71" />
<hkern g1="z" 	g2="S" 	k="1" />
<hkern g1="z" 	g2="V" 	k="86" />
<hkern g1="z" 	g2="U" 	k="30" />
<hkern g1="z" 	g2="T" 	k="180" />
<hkern g1="z" 	g2="c,e,o" 	k="17" />
<hkern g1="z" 	g2="d,q" 	k="14" />
<hkern g1="z" 	g2="hyphen,emdash" 	k="4" />
<hkern g1="quoteright,quotedblright" 	g2="g" 	k="50" />
<hkern g1="quoteright,quotedblright" 	g2="s" 	k="47" />
<hkern g1="quoteright,quotedblright" 	g2="A" 	k="134" />
<hkern g1="quoteright,quotedblright" 	g2="c,e,o" 	k="66" />
<hkern g1="quoteright,quotedblright" 	g2="d,q" 	k="73" />
<hkern g1="quoteright,quotedblright" 	g2="a" 	k="47" />
<hkern g1="quoteright,quotedblright" 	g2="period,ellipsis" 	k="223" />
<hkern g1="quoteright,quotedblright" 	g2="J" 	k="132" />
<hkern g1="quoteright,quotedblright" 	g2="hyphen,emdash" 	k="49" />
<hkern g1="quoteright,quotedblright" 	g2="quotesinglbase" 	k="217" />
<hkern g1="quotesinglbase" 	g2="W" 	k="96" />
<hkern g1="quotesinglbase" 	g2="C,G,O,Q" 	k="33" />
<hkern g1="quotesinglbase" 	g2="v" 	k="71" />
<hkern g1="quotesinglbase" 	g2="Y" 	k="154" />
<hkern g1="quotesinglbase" 	g2="w" 	k="46" />
<hkern g1="quotesinglbase" 	g2="quotedbl,quotesingle" 	k="214" />
<hkern g1="quotesinglbase" 	g2="quoteright,quotedblright" 	k="217" />
<hkern g1="quotesinglbase" 	g2="T" 	k="127" />
<hkern g1="quotesinglbase" 	g2="U" 	k="30" />
<hkern g1="quotesinglbase" 	g2="y" 	k="81" />
<hkern g1="quotesinglbase" 	g2="V" 	k="134" />
<hkern g1="hyphen,emdash" 	g2="J" 	k="100" />
<hkern g1="hyphen,emdash" 	g2="W" 	k="38" />
<hkern g1="hyphen,emdash" 	g2="Y" 	k="124" />
<hkern g1="hyphen,emdash" 	g2="quoteright,quotedblright" 	k="17" />
<hkern g1="hyphen,emdash" 	g2="T" 	k="122" />
<hkern g1="hyphen,emdash" 	g2="V" 	k="64" />
<hkern g1="hyphen,emdash" 	g2="Z" 	k="3" />
<hkern g1="hyphen,emdash" 	g2="X" 	k="47" />
<hkern g1="hyphen,emdash" 	g2="z" 	k="5" />
<hkern g1="hyphen,emdash" 	g2="x" 	k="31" />
<hkern g1="quotedbl,quotesingle" 	g2="g" 	k="33" />
<hkern g1="quotedbl,quotesingle" 	g2="s" 	k="28" />
<hkern g1="quotedbl,quotesingle" 	g2="A" 	k="120" />
<hkern g1="quotedbl,quotesingle" 	g2="c,e,o" 	k="48" />
<hkern g1="quotedbl,quotesingle" 	g2="d,q" 	k="54" />
<hkern g1="quotedbl,quotesingle" 	g2="a" 	k="30" />
<hkern g1="quotedbl,quotesingle" 	g2="period,ellipsis" 	k="214" />
<hkern g1="quotedbl,quotesingle" 	g2="J" 	k="135" />
<hkern g1="quotedbl,quotesingle" 	g2="quotesinglbase" 	k="214" />
<hkern g1="l" 	g2="V" 	k="2" />
<hkern g1="l" 	g2="U" 	k="16" />
<hkern g1="l" 	g2="X" 	k="2" />
<hkern g1="l" 	g2="W" 	k="17" />
<hkern g1="l" 	g2="S" 	k="3" />
<hkern g1="l" 	g2="T" 	k="18" />
<hkern g1="l" 	g2="J" 	k="11" />
<hkern g1="l" 	g2="B,D,E,F,H,I,K,L,M,N,P,R" 	k="15" />
<hkern g1="l" 	g2="A" 	k="1" />
<hkern g1="l" 	g2="Y" 	k="2" />
<hkern g1="l" 	g2="C,G,O,Q" 	k="14" />
<hkern g1="l" 	g2="Z" 	k="12" />
</font>
</defs></svg> 