{
  "color": {
    "neutral": {
      "0": {
        "value": "#fff"
      },
      "1": {
        "value": "#fafafa"
      },
      "2": {
        "value": "#F6F7F7"
      },
      "3": {
        "value": "#eee"
      },
      "4": {
        "value": "#DFE1E6"
      },
      "5": {
        "value": "#C6C9CF"
      },
      "6": {
        "value": "#ACB0B7"
      },
      "7": {
        "value": "#64676E"
      },
      "8": {
        "value": "#3F4145"
      },
      "9": {
        "value": "#1C1E24"
      }
    },
    "almost-black": {
      "value": "#141414"
    },
    "black": {
      "value": "#000"
    },
    "bluish-grey": {
      "value": "#f5f7f8"
    },
    "monkey-grey": {
      "value": "#9db2bc"
    },
    "warning-bg": {
      "value": "#fffdf6"
    },
    "monkey-blue": {
      "value": "#0a4059"
    },
    "oasis-blue": {
      "value": "#189eda"
    },
    "link-blue": {
      "value": "#087DFD"
    },
    "light-oasis": {
      "value": "#b7e1f3"
    },
    "light-blue": {
      "value": "#f3f8ff"
    },
    "green": {
      "100": {
        "value": "#0CB930"
      },
      "hover": {
        "value": "#3DC759"
      },
      "pressed": {
        "value": "#0BA72B"
      }
    },
    "pop-green": {
      "value": "#08c42a"
    },
    "pale-green": {
      "value": "#79BA5A"
    },
    "lightest-green": {
      "value": "#f7fcf8"
    },
    "turquoise": {
      "value": "#01b8a4"
    },
    "yellow": {
      "value": "#f5b226"
    },
    "orange": {
      "value": "#ff8c06"
    },
    "red": {
      "value": "#f04944"
    }
  }
}
