<?xml version="1.0" encoding="UTF-8"?>
<svg width="109px" height="16px" viewBox="0 0 109 16" version="1.1" xmlns="http://www.w3.org/2000/svg" xmlns:xlink="http://www.w3.org/1999/xlink">
    <!-- Generator: Sketch 53.2 (72643) - https://sketchapp.com -->
    <title>path813</title>
    <desc>Created with Sketch.</desc>
    <g id="Page-1" stroke="none" stroke-width="1" fill="none" fill-rule="evenodd">
        <g id="Course-Landing_IB" transform="translate(-829.000000, -5095.000000)" fill="#4F4F4F" fill-rule="nonzero">
            <g id="Group-48" transform="translate(0.000000, 3954.000000)">
                <g id="Group-49" transform="translate(216.000000, 1131.000000)">
                    <path d="M701.977159,10 C701.977159,10 701.977166,21.1116333 701.977159,21.1116333 C701.977159,21.6606465 702.264471,21.9813595 702.560803,22.1833139 C702.878456,22.3963141 703.344633,22.5029439 703.97284,22.5029377 C704.370245,22.5029377 704.895364,22.371328 704.895371,22.371328 C704.895371,22.371328 704.895364,21.3748593 704.895371,21.3748531 C704.737752,21.3846179 704.598209,21.3936546 704.443519,21.3936546 C703.508336,21.3936546 703.370357,21.028805 703.37037,20.6227967 C703.37037,20.6227967 703.370353,10.0000058 703.37037,10 L701.977159,10 Z M672.550308,10.1128085 C671.500204,10.1128085 670.550864,10.4417457 669.876853,11.0340774 C669.222337,11.6118554 668.860184,12.40939 668.860184,13.2714454 C668.860202,14.2208834 669.244942,14.9627421 670.046295,15.5464159 C670.75306,16.0618092 671.687875,16.3945791 672.587964,16.7121033 C674.152642,17.2678972 675.619134,17.7751442 675.619134,19.1938895 C675.619134,19.8248409 675.404204,20.365768 674.99784,20.7356051 C674.551029,21.1423114 673.908197,21.3372502 673.05864,21.3372502 C671.569567,21.3372502 670.485498,20.5138989 669.876853,18.9118685 C669.876846,18.9118685 668.540122,19.2690951 668.540122,19.2690951 C668.828026,19.9187997 669.317761,20.8564155 670.02747,21.4876615 C670.805619,22.1848541 671.771546,22.5217393 672.983335,22.5217393 C674.418341,22.5217393 675.507677,22.1520885 676.221603,21.4124559 C676.961728,20.6424887 677.125307,19.6571143 677.125307,18.9682725 C677.125307,17.9811836 676.707496,17.2189715 675.863888,16.6180964 C675.127388,16.0905258 674.174341,15.7504939 673.246914,15.4336074 C671.735783,14.9175764 670.293834,14.4264775 670.309877,13.1586369 C670.31522,12.5674542 670.52051,12.10725 670.893518,11.7861338 C671.273665,11.4599218 671.815447,11.2972971 672.512655,11.2972971 C673.244968,11.2973033 673.897959,11.5017062 674.395371,11.8989423 C674.8528,12.2607297 675.185659,12.7976499 675.336728,13.4030551 C675.336734,13.4030551 676.635802,13.2338426 676.635802,13.2338426 C676.065874,11.2935068 674.672958,10.1128085 672.550308,10.1128085 Z M613,10.282021 L613,22.3525264 L614.39321,22.3525264 L614.39321,11.3160987 L614.430864,11.3537015 L617.744444,22.3525264 L618.817593,22.3525264 L622.15,11.3537015 L622.168827,11.3160987 L622.168827,22.3525264 L623.562037,22.3525264 L623.562037,10.282021 L621.246296,10.282021 L618.290432,19.9835487 L618.290432,20.0211515 L618.271605,19.9835487 L615.315741,10.282021 L613,10.282021 Z M679.328086,10.5264395 L679.328086,13.4218567 L677.991358,13.4218567 L677.991358,14.5311397 C677.991358,14.5311397 679.328086,14.5311459 679.328086,14.5311397 C679.328086,14.5311397 679.328086,20.7353043 679.328086,21.1116333 C679.328086,21.6606465 679.578334,21.9813595 679.874074,22.1833139 C680.192329,22.3963141 680.657219,22.5029439 681.28611,22.5029377 C681.684043,22.5029377 682.227456,22.371328 682.22747,22.371328 C682.22747,22.371328 682.227456,21.3748593 682.22747,21.3748531 C682.072787,21.3846179 681.910878,21.3936546 681.75679,21.3936546 C680.820402,21.3936546 680.721283,21.028805 680.721297,20.6227967 C680.721297,20.6227967 680.721283,14.5311459 680.721297,14.5311397 L682.22747,14.5311397 L682.22747,13.4218567 L680.721297,13.4218567 L680.721297,10.5264395 L679.328086,10.5264395 Z M629.210185,13.2526438 C628.037027,13.2526438 627.04273,13.7246825 626.348457,14.6063454 C625.704122,15.4291614 625.350617,16.5915278 625.350617,17.8777907 C625.350623,19.1652391 625.704116,20.3254877 626.348457,21.1492361 C627.042736,22.0332333 628.037027,22.5029377 629.210185,22.5029377 C630.388163,22.5029377 631.379454,22.0332333 632.071914,21.1492361 C632.716333,20.3254877 633.069753,19.1652391 633.069753,17.8777907 C633.069747,16.5915278 632.716327,15.4291673 632.071914,14.6063454 C631.379454,13.7246825 630.388163,13.2526438 629.210185,13.2526438 Z M709.583335,13.2714454 C708.987851,13.2714454 708.434123,13.3807523 707.964198,13.5910692 C707.504283,13.7980833 707.09574,14.1097475 706.778087,14.5123385 C706.146242,15.3024728 705.780247,16.4755065 705.780247,17.8965923 C705.78024,19.4782091 706.235338,20.685025 707.060494,21.4876615 C707.9309,22.3361015 709.039977,22.5029377 709.809258,22.5029377 C711.80824,22.5029377 712.788922,21.4228465 713.19815,20.4347825 C713.198129,20.4347825 712.087345,19.8895418 712.087345,19.8895418 C711.817222,20.4911206 711.196672,21.4124559 709.809258,21.4124559 C709.016246,21.4124559 708.367625,21.0882414 707.907717,20.491187 C707.463329,19.9134151 707.213521,19.1137022 707.211111,18.1598121 C707.211118,18.1598179 713.311111,18.1598121 713.311111,18.1598121 C713.311125,18.1598179 713.311111,17.3137484 713.311111,17.3137484 C713.311125,15.8522744 712.921386,14.7624063 712.20031,14.0987074 C711.586376,13.5349299 710.72509,13.2714454 709.583335,13.2714454 Z M643.481172,13.2902466 C641.909351,13.2902466 639.678087,14.3464288 639.678087,17.8965923 C639.678087,21.3436517 641.902403,22.5029377 643.405863,22.5029377 C644.283354,22.5029439 645.080728,22.0174644 645.62747,21.318449 C645.627463,21.3184548 645.702779,21.2808462 645.702779,21.2808462 C645.702782,21.280852 645.702779,22.9729731 645.702779,22.9729731 C645.702782,24.1597542 644.674212,24.890717 643.575309,24.890717 C642.506921,24.8907228 641.561103,24.6870178 640.788889,24.3266747 C640.788879,24.3266747 640.788889,25.5299649 640.788889,25.5299649 C641.43917,25.80831 642.497412,25.9811988 643.405863,25.9811988 C645.878992,25.9812046 647.058334,24.6219198 647.058334,22.653349 C647.058338,22.653349 647.058334,13.4594595 647.058334,13.4594595 L646.022841,13.4594595 C646.022841,13.4594595 645.721607,14.39953 645.721607,14.39953 C645.210475,13.7344474 644.54129,13.2902466 643.481172,13.2902466 Z M652.480556,13.2902466 C650.501824,13.2902466 649.564978,14.4739353 649.166976,15.2079905 C649.166976,15.2079905 650.277778,15.7908344 650.277778,15.7908344 C650.433662,15.3713915 650.994868,14.39953 652.499384,14.39953 C653.685705,14.39953 654.287964,14.9223837 654.287964,15.9600469 C654.287964,15.9600469 654.287964,16.279671 654.287964,16.279671 C654.287971,16.279671 654.297676,16.3768247 654.269136,16.4112807 C654.225073,16.4668308 654.100141,16.5122609 653.798456,16.5428908 C652.137455,16.7279568 651.033426,17.0003817 650.221297,17.5205641 C649.339661,18.0864533 648.790433,18.8787419 648.790433,19.9647475 C648.790433,20.7362068 649.164487,21.3946413 649.656481,21.8636897 C650.113978,22.2956531 650.73731,22.5203795 651.426235,22.5405405 C652.892711,22.587517 653.858025,21.9779965 654.325616,21.2620446 C654.361902,21.7539737 654.53844,22.0350565 654.928086,22.2397179 C655.294025,22.4348858 655.894219,22.3960676 656.151852,22.3337252 C656.151852,22.333731 656.151852,21.3936546 656.151852,21.3936546 C655.841277,21.3781683 655.643519,21.2306869 655.643519,20.8484136 C655.643502,20.8484136 655.643519,16.5428908 655.643519,16.5428908 C655.643502,16.5428908 655.643519,15.9788485 655.643519,15.9788485 C655.643512,15.0903207 655.294314,14.3614999 654.626851,13.8918918 C654.076514,13.5018934 653.307516,13.2902466 652.480556,13.2902466 Z M662.063579,13.2902466 C661.156852,13.2902528 660.228912,13.7593132 659.446604,14.6439482 L659.446604,13.4594595 L658.053396,13.4594595 L658.053396,22.371328 L659.446604,22.371328 C659.446618,22.371328 659.446604,15.7532316 659.446604,15.7532316 C659.920689,15.2473501 660.983276,14.39953 661.950617,14.39953 C662.920376,14.39953 663.343829,14.8745529 663.343829,15.9412457 C663.343815,15.9412457 663.343829,22.371328 663.343829,22.371328 L664.737037,22.371328 C664.737037,22.371328 664.737037,15.9036428 664.737037,15.9036428 C664.737037,13.9781556 663.365817,13.2902466 662.063579,13.2902466 Z M687.273149,13.2902466 C685.295525,13.2902466 684.358854,14.4739353 683.959569,15.2079905 C683.959586,15.2079905 685.07037,15.7908344 685.07037,15.7908344 C685.226851,15.3713915 685.787388,14.39953 687.291977,14.39953 C688.47816,14.39953 689.080556,14.9223837 689.080556,15.9600469 C689.08055,15.9600469 689.080556,16.279671 689.080556,16.279671 C689.080543,16.279671 689.070845,16.3768247 689.0429,16.4112807 C688.999433,16.4668308 688.89387,16.5122609 688.591049,16.5428908 C686.930031,16.7276258 685.825939,17.0003817 685.01389,17.5205641 C684.132777,18.0864533 683.583026,18.8787419 683.583026,19.9647475 C683.583036,20.7362068 683.956405,21.3943405 684.449073,21.8636897 C684.906585,22.2956531 685.530505,22.5203795 686.218828,22.5405405 C687.684116,22.587517 688.650621,21.9779965 689.118209,21.2620446 C689.155094,21.7537571 689.33035,22.0350565 689.720678,22.2397179 C690.085916,22.4348858 690.686285,22.3960676 690.944444,22.3337252 C690.944438,22.333731 690.944444,21.3936546 690.944444,21.3936546 C690.634469,21.3781683 690.436112,21.2306869 690.436112,20.8484136 C690.436105,20.8484136 690.436112,16.5428908 690.436112,16.5428908 C690.436105,16.5428908 690.436112,15.9788485 690.436112,15.9788485 C690.436098,15.0903207 690.068757,14.3614999 689.400619,13.8918918 C688.849732,13.5018934 688.099513,13.2902466 687.273149,13.2902466 Z M696.856171,13.2902466 C695.947049,13.2902528 695.021432,13.7593132 694.239197,14.6439482 L694.239197,13.4594595 L692.845989,13.4594595 L692.845989,22.371328 L694.239197,22.371328 C694.23919,22.371328 694.239197,15.7532316 694.239197,15.7532316 C694.713939,15.2470555 695.774663,14.39953 696.74321,14.39953 C697.711154,14.39953 698.136421,14.8745529 698.136421,15.9412457 C698.136421,15.9412457 698.136421,22.371328 698.136421,22.371328 L699.52963,22.371328 C699.52963,22.371328 699.52963,15.9036428 699.52963,15.9036428 C699.52963,13.9781556 698.15841,13.2902466 696.856171,13.2902466 Z M639.150926,13.3278495 C637.737383,13.3278495 636.899649,13.8751361 636.176234,15.1703877 L636.176234,15.0763808 L636.176234,13.4594595 L634.783025,13.4594595 L634.783025,22.3525264 L636.176234,22.3525264 C636.176234,22.3525326 636.176234,17.3137484 636.176234,17.3137484 C636.520172,15.4832854 637.490599,14.6251469 639.150926,14.6251469 C639.150926,14.6251469 639.150926,13.3278495 639.150926,13.3278495 Z M714.252471,13.4406579 L717.35895,22.2773208 C717.358943,22.2773208 717.35895,22.3525264 717.35895,22.3525264 C717.17331,23.1994323 716.636438,24.2448929 716.154011,24.5710928 C715.727976,24.8598405 715.266574,24.890717 714.911421,24.890717 C714.74001,24.890717 714.385916,24.8329167 714.233643,24.7967097 C714.23365,24.7967097 714.233643,25.8683903 714.233643,25.8683903 C714.426364,25.9156194 714.871203,26 715.156175,26 C715.820082,26.0000062 716.380017,25.8340243 716.850617,25.4923621 C717.414005,25.0833575 718.038156,24.0173689 718.337962,23.1045828 C718.337952,23.1045828 721.444444,13.4406579 721.444444,13.4406579 L720.088889,13.4406579 L718.055556,20.2843713 L718.036728,20.4347825 L717.999075,20.2843713 L715.608026,13.4406579 L714.252471,13.4406579 Z M629.210185,14.3619272 C630.710032,14.3619272 631.601235,15.676594 631.601235,17.8777907 C631.601223,20.0795833 630.710032,21.3936546 629.210185,21.3936546 C627.712748,21.3936546 626.819136,20.0795833 626.819136,17.8777907 C626.819124,15.676594 627.712748,14.3619272 629.210185,14.3619272 Z M643.575309,14.3807284 C644.361321,14.3807284 645.051358,14.7198878 645.702779,15.5276146 C645.702782,15.5276146 645.702779,19.7767334 645.702779,19.7767334 C645.342206,20.8016238 644.309491,21.3936546 643.575309,21.3936546 C642.138582,21.3936546 641.146604,20.5002536 641.146604,17.8213867 C641.146621,15.5688394 642.036833,14.3807284 643.575309,14.3807284 Z M709.620988,14.3807284 C711.217162,14.3807284 711.930775,15.2236274 711.936728,17.0505287 C711.936728,17.0505287 707.248764,17.0505287 707.248764,17.0505287 C707.370163,15.2251075 708.136053,14.3807284 709.620988,14.3807284 Z M654.325623,17.5205641 C654.325623,17.5205641 654.325616,19.7767334 654.325616,19.7767334 C654.261393,20.5556592 652.803779,21.4983949 651.614505,21.4312575 C650.958351,21.395321 650.326127,20.8676844 650.25895,20.0023503 C650.150054,18.5563141 651.238114,17.9559386 653.666667,17.6897766 C653.835599,17.6743326 654.162571,17.6144386 654.325623,17.5205641 Z M689.118212,17.5205641 C689.118212,17.5205641 689.118209,19.7767334 689.118209,19.7767334 C689.053982,20.5553161 687.596372,21.4983949 686.407098,21.4312575 C685.752052,21.3950202 685.116912,20.8673836 685.051542,20.0023503 C684.940926,18.5563141 686.030176,17.9559386 688.459259,17.6897766 C688.627028,17.6743326 688.956375,17.6144386 689.118212,17.5205641 Z" id="path813"></path>
                </g>
            </g>
        </g>
    </g>
</svg>